++ printf 'taskset -c 1-2 timeout 100 /home/bcurto/mem-access-simulator/accesstest/accesstest -v -s 100 -d 10 --sess-distr u %s fibre %s\n' '0/147456,1 0/147456,1' '-c 1,1'
+ taskset -c 1-2 timeout 100 /home/bcurto/mem-access-simulator/accesstest/accesstest -v -s 100 -d 10 --sess-distr u 0/147456,1 0/147456,1 fibre -c 1,1
[0.000s] Creating path with 2 phases.
  Phase 0:
    0 sess-local datalocs, 0.000000 update ratio, inf access count scalar /
    147456 sess-global datalocs, 1.000000 update ratio, inf access count scalar
  Phase 1:
    0 sess-local datalocs, 0.000000 update ratio, inf access count scalar /
    147456 sess-global datalocs, 1.000000 update ratio, inf access count scalar
[0.000s] Creating global buffer at 0x7f08c0000000 of size 18874368 bytes.
[3.740s] Test is ready to start.
Test duration in range [10.000, 10.006] seconds
Num Accesses: 243658536.000000
Throughput: 24365853.600000
Num Accesses - Session Mean & Stddev: 2436585.360000,73687.479182
Num Phases Traversed: 1752.000000
Num Phases Traversed - Session Mean & Stddev: 17.520000,0.499600
Num Path Iterations: 1752.000000
Num Path Iterations - Session Mean & Stddev: 17.520000,0.499600
+ set +x
++ printf 'taskset -c 1-2 timeout 100 /home/bcurto/mem-access-simulator/accesstest/accesstest -v -s 100 -d 10 --sess-distr u %s fibre %s\n' '0/147456,1 0/147456,1' '-c 1,1'
+ taskset -c 1-2 timeout 100 /home/bcurto/mem-access-simulator/accesstest/accesstest -v -s 100 -d 10 --sess-distr u 0/147456,1 0/147456,1 fibre -c 1,1
[0.000s] Creating path with 2 phases.
  Phase 0:
    0 sess-local datalocs, 0.000000 update ratio, inf access count scalar /
    147456 sess-global datalocs, 1.000000 update ratio, inf access count scalar
  Phase 1:
    0 sess-local datalocs, 0.000000 update ratio, inf access count scalar /
    147456 sess-global datalocs, 1.000000 update ratio, inf access count scalar
[0.000s] Creating global buffer at 0x7f55c0000000 of size 18874368 bytes.
[3.795s] Test is ready to start.
Test duration in range [10.000, 10.010] seconds
Num Accesses: 243806029.000000
Throughput: 24380602.900000
Num Accesses - Session Mean & Stddev: 2438060.290000,73613.636615
Num Phases Traversed: 1753.000000
Num Phases Traversed - Session Mean & Stddev: 17.530000,0.499099
Num Path Iterations: 1753.000000
Num Path Iterations - Session Mean & Stddev: 17.530000,0.499099
+ set +x
++ printf 'taskset -c 1-2 timeout 100 /home/bcurto/mem-access-simulator/accesstest/accesstest -v -s 100 -d 10 --sess-distr u %s fibre %s\n' '0/147456,1 0/147456,1' '-c 1,1'
+ taskset -c 1-2 timeout 100 /home/bcurto/mem-access-simulator/accesstest/accesstest -v -s 100 -d 10 --sess-distr u 0/147456,1 0/147456,1 fibre -c 1,1
[0.000s] Creating path with 2 phases.
  Phase 0:
    0 sess-local datalocs, 0.000000 update ratio, inf access count scalar /
    147456 sess-global datalocs, 1.000000 update ratio, inf access count scalar
  Phase 1:
    0 sess-local datalocs, 0.000000 update ratio, inf access count scalar /
    147456 sess-global datalocs, 1.000000 update ratio, inf access count scalar
[0.000s] Creating global buffer at 0x7fc5c0000000 of size 18874368 bytes.
[3.803s] Test is ready to start.
Test duration in range [10.000, 10.008] seconds
Num Accesses: 243806029.000000
Throughput: 24380602.900000
Num Accesses - Session Mean & Stddev: 2438060.290000,73613.636615
Num Phases Traversed: 1753.000000
Num Phases Traversed - Session Mean & Stddev: 17.530000,0.499099
Num Path Iterations: 1753.000000
Num Path Iterations - Session Mean & Stddev: 17.530000,0.499099
+ set +x
++ printf 'taskset -c 1-2 timeout 100 /home/bcurto/mem-access-simulator/accesstest/accesstest -v -s 100 -d 10 --sess-distr u %s fibre %s\n' '0/147456,1 0/147456,1' '-c 1,1'
+ taskset -c 1-2 timeout 100 /home/bcurto/mem-access-simulator/accesstest/accesstest -v -s 100 -d 10 --sess-distr u 0/147456,1 0/147456,1 fibre -c 1,1
[0.000s] Creating path with 2 phases.
  Phase 0:
    0 sess-local datalocs, 0.000000 update ratio, inf access count scalar /
    147456 sess-global datalocs, 1.000000 update ratio, inf access count scalar
  Phase 1:
    0 sess-local datalocs, 0.000000 update ratio, inf access count scalar /
    147456 sess-global datalocs, 1.000000 update ratio, inf access count scalar
[0.000s] Creating global buffer at 0x7f4080000000 of size 18874368 bytes.
[3.809s] Test is ready to start.
Test duration in range [10.000, 10.006] seconds
Num Accesses: 243806029.000000
Throughput: 24380602.900000
Num Accesses - Session Mean & Stddev: 2438060.290000,73613.636615
Num Phases Traversed: 1753.000000
Num Phases Traversed - Session Mean & Stddev: 17.530000,0.499099
Num Path Iterations: 1753.000000
Num Path Iterations - Session Mean & Stddev: 17.530000,0.499099
+ set +x
++ printf 'taskset -c 1-2 timeout 100 /home/bcurto/mem-access-simulator/accesstest/accesstest -v -s 100 -d 10 --sess-distr u %s fibre %s\n' '0/147456,1 0/147456,1' '-c 1,1'
+ taskset -c 1-2 timeout 100 /home/bcurto/mem-access-simulator/accesstest/accesstest -v -s 100 -d 10 --sess-distr u 0/147456,1 0/147456,1 fibre -c 1,1
[0.000s] Creating path with 2 phases.
  Phase 0:
    0 sess-local datalocs, 0.000000 update ratio, inf access count scalar /
    147456 sess-global datalocs, 1.000000 update ratio, inf access count scalar
  Phase 1:
    0 sess-local datalocs, 0.000000 update ratio, inf access count scalar /
    147456 sess-global datalocs, 1.000000 update ratio, inf access count scalar
[0.000s] Creating global buffer at 0x7fa4c0000000 of size 18874368 bytes.
[3.799s] Test is ready to start.
Test duration in range [10.000, 10.006] seconds
Num Accesses: 243806029.000000
Throughput: 24380602.900000
Num Accesses - Session Mean & Stddev: 2438060.290000,73613.636615
Num Phases Traversed: 1753.000000
Num Phases Traversed - Session Mean & Stddev: 17.530000,0.499099
Num Path Iterations: 1753.000000
Num Path Iterations - Session Mean & Stddev: 17.530000,0.499099
+ set +x
++ printf 'taskset -c 1-2 timeout 100 /home/bcurto/mem-access-simulator/accesstest/accesstest -v -s 100 -d 10 --sess-distr u %s fibre %s\n' '0/147456,1 0/147456,1' '-c 1,1'
+ taskset -c 1-2 timeout 100 /home/bcurto/mem-access-simulator/accesstest/accesstest -v -s 100 -d 10 --sess-distr u 0/147456,1 0/147456,1 fibre -c 1,1
[0.000s] Creating path with 2 phases.
  Phase 0:
    0 sess-local datalocs, 0.000000 update ratio, inf access count scalar /
    147456 sess-global datalocs, 1.000000 update ratio, inf access count scalar
  Phase 1:
    0 sess-local datalocs, 0.000000 update ratio, inf access count scalar /
    147456 sess-global datalocs, 1.000000 update ratio, inf access count scalar
[0.000s] Creating global buffer at 0x7f48c0000000 of size 18874368 bytes.
[3.799s] Test is ready to start.
Test duration in range [10.000, 10.008] seconds
Num Accesses: 243806029.000000
Throughput: 24380602.900000
Num Accesses - Session Mean & Stddev: 2438060.290000,73613.636615
Num Phases Traversed: 1753.000000
Num Phases Traversed - Session Mean & Stddev: 17.530000,0.499099
Num Path Iterations: 1753.000000
Num Path Iterations - Session Mean & Stddev: 17.530000,0.499099
+ set +x
++ printf 'taskset -c 1-2 timeout 100 /home/bcurto/mem-access-simulator/accesstest/accesstest -v -s 100 -d 10 --sess-distr u %s fibre %s\n' '0/147456,1 0/147456,1' '-c 1,1'
+ taskset -c 1-2 timeout 100 /home/bcurto/mem-access-simulator/accesstest/accesstest -v -s 100 -d 10 --sess-distr u 0/147456,1 0/147456,1 fibre -c 1,1
[0.000s] Creating path with 2 phases.
  Phase 0:
    0 sess-local datalocs, 0.000000 update ratio, inf access count scalar /
    147456 sess-global datalocs, 1.000000 update ratio, inf access count scalar
  Phase 1:
    0 sess-local datalocs, 0.000000 update ratio, inf access count scalar /
    147456 sess-global datalocs, 1.000000 update ratio, inf access count scalar
[0.000s] Creating global buffer at 0x7f7100000000 of size 18874368 bytes.
[3.789s] Test is ready to start.
Test duration in range [10.000, 10.007] seconds
Num Accesses: 243806029.000000
Throughput: 24380602.900000
Num Accesses - Session Mean & Stddev: 2438060.290000,73613.636615
Num Phases Traversed: 1753.000000
Num Phases Traversed - Session Mean & Stddev: 17.530000,0.499099
Num Path Iterations: 1753.000000
Num Path Iterations - Session Mean & Stddev: 17.530000,0.499099
+ set +x
++ printf 'taskset -c 1-2 timeout 100 /home/bcurto/mem-access-simulator/accesstest/accesstest -v -s 100 -d 10 --sess-distr u %s fibre %s\n' '0/147456,1 0/147456,1' '-c 1,1'
+ taskset -c 1-2 timeout 100 /home/bcurto/mem-access-simulator/accesstest/accesstest -v -s 100 -d 10 --sess-distr u 0/147456,1 0/147456,1 fibre -c 1,1
[0.000s] Creating path with 2 phases.
  Phase 0:
    0 sess-local datalocs, 0.000000 update ratio, inf access count scalar /
    147456 sess-global datalocs, 1.000000 update ratio, inf access count scalar
  Phase 1:
    0 sess-local datalocs, 0.000000 update ratio, inf access count scalar /
    147456 sess-global datalocs, 1.000000 update ratio, inf access count scalar
[0.000s] Creating global buffer at 0x7f2840000000 of size 18874368 bytes.
[3.798s] Test is ready to start.
Test duration in range [10.000, 10.009] seconds
Num Accesses: 243806029.000000
Throughput: 24380602.900000
Num Accesses - Session Mean & Stddev: 2438060.290000,73613.636615
Num Phases Traversed: 1753.000000
Num Phases Traversed - Session Mean & Stddev: 17.530000,0.499099
Num Path Iterations: 1753.000000
Num Path Iterations - Session Mean & Stddev: 17.530000,0.499099
+ set +x
++ printf 'taskset -c 1-2 timeout 100 /home/bcurto/mem-access-simulator/accesstest/accesstest -v -s 100 -d 10 --sess-distr u %s fibre %s\n' '0/147456,1 0/147456,1' '-c 1,1'
+ taskset -c 1-2 timeout 100 /home/bcurto/mem-access-simulator/accesstest/accesstest -v -s 100 -d 10 --sess-distr u 0/147456,1 0/147456,1 fibre -c 1,1
[0.000s] Creating path with 2 phases.
  Phase 0:
    0 sess-local datalocs, 0.000000 update ratio, inf access count scalar /
    147456 sess-global datalocs, 1.000000 update ratio, inf access count scalar
  Phase 1:
    0 sess-local datalocs, 0.000000 update ratio, inf access count scalar /
    147456 sess-global datalocs, 1.000000 update ratio, inf access count scalar
[0.000s] Creating global buffer at 0x7f3b00000000 of size 18874368 bytes.
[3.744s] Test is ready to start.
Test duration in range [10.000, 10.007] seconds
Num Accesses: 243658536.000000
Throughput: 24365853.600000
Num Accesses - Session Mean & Stddev: 2436585.360000,73687.479182
Num Phases Traversed: 1752.000000
Num Phases Traversed - Session Mean & Stddev: 17.520000,0.499600
Num Path Iterations: 1752.000000
Num Path Iterations - Session Mean & Stddev: 17.520000,0.499600
+ set +x
++ printf 'taskset -c 1-2 timeout 100 /home/bcurto/mem-access-simulator/accesstest/accesstest -v -s 100 -d 10 --sess-distr u %s fibre %s\n' '0/147456,1 0/147456,1' '-c 1,1'
+ taskset -c 1-2 timeout 100 /home/bcurto/mem-access-simulator/accesstest/accesstest -v -s 100 -d 10 --sess-distr u 0/147456,1 0/147456,1 fibre -c 1,1
[0.000s] Creating path with 2 phases.
  Phase 0:
    0 sess-local datalocs, 0.000000 update ratio, inf access count scalar /
    147456 sess-global datalocs, 1.000000 update ratio, inf access count scalar
  Phase 1:
    0 sess-local datalocs, 0.000000 update ratio, inf access count scalar /
    147456 sess-global datalocs, 1.000000 update ratio, inf access count scalar
[0.000s] Creating global buffer at 0x7fc9c0000000 of size 18874368 bytes.
[3.797s] Test is ready to start.
Test duration in range [10.000, 10.008] seconds
Num Accesses: 243806029.000000
Throughput: 24380602.900000
Num Accesses - Session Mean & Stddev: 2438060.290000,73613.636615
Num Phases Traversed: 1753.000000
Num Phases Traversed - Session Mean & Stddev: 17.530000,0.499099
Num Path Iterations: 1753.000000
Num Path Iterations - Session Mean & Stddev: 17.530000,0.499099
+ set +x
++ printf 'taskset -c 1-2 timeout 100 /home/bcurto/mem-access-simulator/accesstest/accesstest -v -s 100 -d 10 --sess-distr u %s fibre %s\n' '0/147456,1 0/147456,1' '-c 1,1'
+ taskset -c 1-2 timeout 100 /home/bcurto/mem-access-simulator/accesstest/accesstest -v -s 100 -d 10 --sess-distr u 0/147456,1 0/147456,1 fibre -c 1,1
[0.000s] Creating path with 2 phases.
  Phase 0:
    0 sess-local datalocs, 0.000000 update ratio, inf access count scalar /
    147456 sess-global datalocs, 1.000000 update ratio, inf access count scalar
  Phase 1:
    0 sess-local datalocs, 0.000000 update ratio, inf access count scalar /
    147456 sess-global datalocs, 1.000000 update ratio, inf access count scalar
[0.000s] Creating global buffer at 0x7f2200000000 of size 18874368 bytes.
[3.805s] Test is ready to start.
Test duration in range [10.000, 10.010] seconds
Num Accesses: 243806029.000000
Throughput: 24380602.900000
Num Accesses - Session Mean & Stddev: 2438060.290000,73613.636615
Num Phases Traversed: 1753.000000
Num Phases Traversed - Session Mean & Stddev: 17.530000,0.499099
Num Path Iterations: 1753.000000
Num Path Iterations - Session Mean & Stddev: 17.530000,0.499099
+ set +x
++ printf 'taskset -c 1-2 timeout 100 /home/bcurto/mem-access-simulator/accesstest/accesstest -v -s 100 -d 10 --sess-distr u %s fibre %s\n' '0/147456,1 0/147456,1' '-c 1,1'
+ taskset -c 1-2 timeout 100 /home/bcurto/mem-access-simulator/accesstest/accesstest -v -s 100 -d 10 --sess-distr u 0/147456,1 0/147456,1 fibre -c 1,1
[0.000s] Creating path with 2 phases.
  Phase 0:
    0 sess-local datalocs, 0.000000 update ratio, inf access count scalar /
    147456 sess-global datalocs, 1.000000 update ratio, inf access count scalar
  Phase 1:
    0 sess-local datalocs, 0.000000 update ratio, inf access count scalar /
    147456 sess-global datalocs, 1.000000 update ratio, inf access count scalar
[0.000s] Creating global buffer at 0x7eff80000000 of size 18874368 bytes.
[3.799s] Test is ready to start.
Test duration in range [10.000, 10.001] seconds
Num Accesses: 243511043.000000
Throughput: 24351104.300000
Num Accesses - Session Mean & Stddev: 2435110.430000,73731.749225
Num Phases Traversed: 1751.000000
Num Phases Traversed - Session Mean & Stddev: 17.510000,0.499900
Num Path Iterations: 1751.000000
Num Path Iterations - Session Mean & Stddev: 17.510000,0.499900
+ set +x
++ printf 'taskset -c 1-2 timeout 100 /home/bcurto/mem-access-simulator/accesstest/accesstest -v -s 100 -d 10 --sess-distr u %s fibre %s\n' '0/147456,1 0/147456,1' '-c 1,1'
+ taskset -c 1-2 timeout 100 /home/bcurto/mem-access-simulator/accesstest/accesstest -v -s 100 -d 10 --sess-distr u 0/147456,1 0/147456,1 fibre -c 1,1
[0.000s] Creating path with 2 phases.
  Phase 0:
    0 sess-local datalocs, 0.000000 update ratio, inf access count scalar /
    147456 sess-global datalocs, 1.000000 update ratio, inf access count scalar
  Phase 1:
    0 sess-local datalocs, 0.000000 update ratio, inf access count scalar /
    147456 sess-global datalocs, 1.000000 update ratio, inf access count scalar
[0.000s] Creating global buffer at 0x7fb240000000 of size 18874368 bytes.
[3.792s] Test is ready to start.
Test duration in range [10.000, 10.008] seconds
Num Accesses: 243806029.000000
Throughput: 24380602.900000
Num Accesses - Session Mean & Stddev: 2438060.290000,73613.636615
Num Phases Traversed: 1753.000000
Num Phases Traversed - Session Mean & Stddev: 17.530000,0.499099
Num Path Iterations: 1753.000000
Num Path Iterations - Session Mean & Stddev: 17.530000,0.499099
+ set +x
++ printf 'taskset -c 1-2 timeout 100 /home/bcurto/mem-access-simulator/accesstest/accesstest -v -s 100 -d 10 --sess-distr u %s fibre %s\n' '0/147456,1 0/147456,1' '-c 1,1'
+ taskset -c 1-2 timeout 100 /home/bcurto/mem-access-simulator/accesstest/accesstest -v -s 100 -d 10 --sess-distr u 0/147456,1 0/147456,1 fibre -c 1,1
[0.000s] Creating path with 2 phases.
  Phase 0:
    0 sess-local datalocs, 0.000000 update ratio, inf access count scalar /
    147456 sess-global datalocs, 1.000000 update ratio, inf access count scalar
  Phase 1:
    0 sess-local datalocs, 0.000000 update ratio, inf access count scalar /
    147456 sess-global datalocs, 1.000000 update ratio, inf access count scalar
[0.000s] Creating global buffer at 0x7f57c0000000 of size 18874368 bytes.
[3.793s] Test is ready to start.
Test duration in range [10.000, 10.009] seconds
Num Accesses: 243806029.000000
Throughput: 24380602.900000
Num Accesses - Session Mean & Stddev: 2438060.290000,73613.636615
Num Phases Traversed: 1753.000000
Num Phases Traversed - Session Mean & Stddev: 17.530000,0.499099
Num Path Iterations: 1753.000000
Num Path Iterations - Session Mean & Stddev: 17.530000,0.499099
+ set +x
++ printf 'taskset -c 1-2 timeout 100 /home/bcurto/mem-access-simulator/accesstest/accesstest -v -s 100 -d 10 --sess-distr u %s fibre %s\n' '0/147456,1 0/147456,1' '-c 1,1'
+ taskset -c 1-2 timeout 100 /home/bcurto/mem-access-simulator/accesstest/accesstest -v -s 100 -d 10 --sess-distr u 0/147456,1 0/147456,1 fibre -c 1,1
[0.000s] Creating path with 2 phases.
  Phase 0:
    0 sess-local datalocs, 0.000000 update ratio, inf access count scalar /
    147456 sess-global datalocs, 1.000000 update ratio, inf access count scalar
  Phase 1:
    0 sess-local datalocs, 0.000000 update ratio, inf access count scalar /
    147456 sess-global datalocs, 1.000000 update ratio, inf access count scalar
[0.000s] Creating global buffer at 0x7fdf00000000 of size 18874368 bytes.
[3.791s] Test is ready to start.
Test duration in range [10.000, 10.007] seconds
Num Accesses: 243806029.000000
Throughput: 24380602.900000
Num Accesses - Session Mean & Stddev: 2438060.290000,73613.636615
Num Phases Traversed: 1753.000000
Num Phases Traversed - Session Mean & Stddev: 17.530000,0.499099
Num Path Iterations: 1753.000000
Num Path Iterations - Session Mean & Stddev: 17.530000,0.499099
+ set +x
++ printf 'taskset -c 1-2 timeout 100 /home/bcurto/mem-access-simulator/accesstest/accesstest -v -s 100 -d 10 --sess-distr u %s fibre %s\n' '0/147456,1 0/147456,1' '-c 1,1'
+ taskset -c 1-2 timeout 100 /home/bcurto/mem-access-simulator/accesstest/accesstest -v -s 100 -d 10 --sess-distr u 0/147456,1 0/147456,1 fibre -c 1,1
[0.000s] Creating path with 2 phases.
  Phase 0:
    0 sess-local datalocs, 0.000000 update ratio, inf access count scalar /
    147456 sess-global datalocs, 1.000000 update ratio, inf access count scalar
  Phase 1:
    0 sess-local datalocs, 0.000000 update ratio, inf access count scalar /
    147456 sess-global datalocs, 1.000000 update ratio, inf access count scalar
[0.000s] Creating global buffer at 0x7f4bc0000000 of size 18874368 bytes.
[3.802s] Test is ready to start.
Test duration in range [10.000, 10.009] seconds
Num Accesses: 243806029.000000
Throughput: 24380602.900000
Num Accesses - Session Mean & Stddev: 2438060.290000,73613.636615
Num Phases Traversed: 1753.000000
Num Phases Traversed - Session Mean & Stddev: 17.530000,0.499099
Num Path Iterations: 1753.000000
Num Path Iterations - Session Mean & Stddev: 17.530000,0.499099
+ set +x
++ printf 'taskset -c 1-2 timeout 100 /home/bcurto/mem-access-simulator/accesstest/accesstest -v -s 100 -d 10 --sess-distr u %s fibre %s\n' '0/147456,1 0/147456,1' '-c 1,1'
+ taskset -c 1-2 timeout 100 /home/bcurto/mem-access-simulator/accesstest/accesstest -v -s 100 -d 10 --sess-distr u 0/147456,1 0/147456,1 fibre -c 1,1
[0.000s] Creating path with 2 phases.
  Phase 0:
    0 sess-local datalocs, 0.000000 update ratio, inf access count scalar /
    147456 sess-global datalocs, 1.000000 update ratio, inf access count scalar
  Phase 1:
    0 sess-local datalocs, 0.000000 update ratio, inf access count scalar /
    147456 sess-global datalocs, 1.000000 update ratio, inf access count scalar
[0.000s] Creating global buffer at 0x7fcb80000000 of size 18874368 bytes.
[3.799s] Test is ready to start.
Test duration in range [10.000, 10.004] seconds
Num Accesses: 243806029.000000
Throughput: 24380602.900000
Num Accesses - Session Mean & Stddev: 2438060.290000,73613.636615
Num Phases Traversed: 1753.000000
Num Phases Traversed - Session Mean & Stddev: 17.530000,0.499099
Num Path Iterations: 1753.000000
Num Path Iterations - Session Mean & Stddev: 17.530000,0.499099
+ set +x
++ printf 'taskset -c 1-2 timeout 100 /home/bcurto/mem-access-simulator/accesstest/accesstest -v -s 100 -d 10 --sess-distr u %s fibre %s\n' '0/147456,1 0/147456,1' '-c 1,1'
+ taskset -c 1-2 timeout 100 /home/bcurto/mem-access-simulator/accesstest/accesstest -v -s 100 -d 10 --sess-distr u 0/147456,1 0/147456,1 fibre -c 1,1
[0.000s] Creating path with 2 phases.
  Phase 0:
    0 sess-local datalocs, 0.000000 update ratio, inf access count scalar /
    147456 sess-global datalocs, 1.000000 update ratio, inf access count scalar
  Phase 1:
    0 sess-local datalocs, 0.000000 update ratio, inf access count scalar /
    147456 sess-global datalocs, 1.000000 update ratio, inf access count scalar
[0.000s] Creating global buffer at 0x7f90c0000000 of size 18874368 bytes.
[3.797s] Test is ready to start.
Test duration in range [10.000, 10.004] seconds
Num Accesses: 243806029.000000
Throughput: 24380602.900000
Num Accesses - Session Mean & Stddev: 2438060.290000,73613.636615
Num Phases Traversed: 1753.000000
Num Phases Traversed - Session Mean & Stddev: 17.530000,0.499099
Num Path Iterations: 1753.000000
Num Path Iterations - Session Mean & Stddev: 17.530000,0.499099
+ set +x
++ printf 'taskset -c 1-2 timeout 100 /home/bcurto/mem-access-simulator/accesstest/accesstest -v -s 100 -d 10 --sess-distr u %s fibre %s\n' '0/147456,1 0/147456,1' '-c 1,1'
+ taskset -c 1-2 timeout 100 /home/bcurto/mem-access-simulator/accesstest/accesstest -v -s 100 -d 10 --sess-distr u 0/147456,1 0/147456,1 fibre -c 1,1
[0.000s] Creating path with 2 phases.
  Phase 0:
    0 sess-local datalocs, 0.000000 update ratio, inf access count scalar /
    147456 sess-global datalocs, 1.000000 update ratio, inf access count scalar
  Phase 1:
    0 sess-local datalocs, 0.000000 update ratio, inf access count scalar /
    147456 sess-global datalocs, 1.000000 update ratio, inf access count scalar
[0.000s] Creating global buffer at 0x7f7a00000000 of size 18874368 bytes.
[3.749s] Test is ready to start.
Test duration in range [10.000, 10.011] seconds
Num Accesses: 243658536.000000
Throughput: 24365853.600000
Num Accesses - Session Mean & Stddev: 2436585.360000,73687.479182
Num Phases Traversed: 1752.000000
Num Phases Traversed - Session Mean & Stddev: 17.520000,0.499600
Num Path Iterations: 1752.000000
Num Path Iterations - Session Mean & Stddev: 17.520000,0.499600
+ set +x
++ printf 'taskset -c 1-2 timeout 100 /home/bcurto/mem-access-simulator/accesstest/accesstest -v -s 100 -d 10 --sess-distr u %s fibre %s\n' '0/147456,1 0/147456,1' '-c 1,1'
+ taskset -c 1-2 timeout 100 /home/bcurto/mem-access-simulator/accesstest/accesstest -v -s 100 -d 10 --sess-distr u 0/147456,1 0/147456,1 fibre -c 1,1
[0.000s] Creating path with 2 phases.
  Phase 0:
    0 sess-local datalocs, 0.000000 update ratio, inf access count scalar /
    147456 sess-global datalocs, 1.000000 update ratio, inf access count scalar
  Phase 1:
    0 sess-local datalocs, 0.000000 update ratio, inf access count scalar /
    147456 sess-global datalocs, 1.000000 update ratio, inf access count scalar
[0.000s] Creating global buffer at 0x7f8540000000 of size 18874368 bytes.
[3.789s] Test is ready to start.
Test duration in range [10.000, 10.005] seconds
Num Accesses: 243806029.000000
Throughput: 24380602.900000
Num Accesses - Session Mean & Stddev: 2438060.290000,73613.636615
Num Phases Traversed: 1753.000000
Num Phases Traversed - Session Mean & Stddev: 17.530000,0.499099
Num Path Iterations: 1753.000000
Num Path Iterations - Session Mean & Stddev: 17.530000,0.499099
+ set +x
