++ printf 'taskset -c 1-2 timeout 100 /home/bcurto/mem-access-simulator/accesstest/accesstest -v -s 100 -d 10 --sess-distr u %s fibre %s\n' '0/245760,0 0/245760,0' '-w 2'
+ taskset -c 1-2 timeout 100 /home/bcurto/mem-access-simulator/accesstest/accesstest -v -s 100 -d 10 --sess-distr u 0/245760,0 0/245760,0 fibre -w 2
[0.000s] Creating path with 2 phases.
  Phase 0:
    0 sess-local datalocs, 0.000000 update ratio, inf access count scalar /
    245760 sess-global datalocs, 0.000000 update ratio, inf access count scalar
  Phase 1:
    0 sess-local datalocs, 0.000000 update ratio, inf access count scalar /
    245760 sess-global datalocs, 0.000000 update ratio, inf access count scalar
[0.000s] Creating global buffer at 0x7fe340000000 of size 31457280 bytes.
[5.994s] Test is ready to start.
Test duration in range [10.000, 10.011] seconds
Num Accesses: 232524062.000000
Throughput: 23252406.200000
Num Accesses - Session Mean & Stddev: 2325240.620000,140856.908438
Num Phases Traversed: 1046.000000
Num Phases Traversed - Session Mean & Stddev: 10.460000,0.573062
Num Path Iterations: 1046.000000
Num Path Iterations - Session Mean & Stddev: 10.460000,0.573062
+ set +x
++ printf 'taskset -c 1-2 timeout 100 /home/bcurto/mem-access-simulator/accesstest/accesstest -v -s 100 -d 10 --sess-distr u %s fibre %s\n' '0/245760,0 0/245760,0' '-w 2'
+ taskset -c 1-2 timeout 100 /home/bcurto/mem-access-simulator/accesstest/accesstest -v -s 100 -d 10 --sess-distr u 0/245760,0 0/245760,0 fibre -w 2
[0.000s] Creating path with 2 phases.
  Phase 0:
    0 sess-local datalocs, 0.000000 update ratio, inf access count scalar /
    245760 sess-global datalocs, 0.000000 update ratio, inf access count scalar
  Phase 1:
    0 sess-local datalocs, 0.000000 update ratio, inf access count scalar /
    245760 sess-global datalocs, 0.000000 update ratio, inf access count scalar
[0.000s] Creating global buffer at 0x7f6b00000000 of size 31457280 bytes.
[5.997s] Test is ready to start.
Test duration in range [10.000, 10.014] seconds
Num Accesses: 232524062.000000
Throughput: 23252406.200000
Num Accesses - Session Mean & Stddev: 2325240.620000,149188.857704
Num Phases Traversed: 1046.000000
Num Phases Traversed - Session Mean & Stddev: 10.460000,0.606960
Num Path Iterations: 1046.000000
Num Path Iterations - Session Mean & Stddev: 10.460000,0.606960
+ set +x
++ printf 'taskset -c 1-2 timeout 100 /home/bcurto/mem-access-simulator/accesstest/accesstest -v -s 100 -d 10 --sess-distr u %s fibre %s\n' '0/245760,0 0/245760,0' '-w 2'
+ taskset -c 1-2 timeout 100 /home/bcurto/mem-access-simulator/accesstest/accesstest -v -s 100 -d 10 --sess-distr u 0/245760,0 0/245760,0 fibre -w 2
[0.000s] Creating path with 2 phases.
  Phase 0:
    0 sess-local datalocs, 0.000000 update ratio, inf access count scalar /
    245760 sess-global datalocs, 0.000000 update ratio, inf access count scalar
  Phase 1:
    0 sess-local datalocs, 0.000000 update ratio, inf access count scalar /
    245760 sess-global datalocs, 0.000000 update ratio, inf access count scalar
[0.000s] Creating global buffer at 0x7fdac0000000 of size 31457280 bytes.
[5.994s] Test is ready to start.
Test duration in range [10.000, 10.020] seconds
Num Accesses: 232524062.000000
Throughput: 23252406.200000
Num Accesses - Session Mean & Stddev: 2325240.620000,140856.908438
Num Phases Traversed: 1046.000000
Num Phases Traversed - Session Mean & Stddev: 10.460000,0.573062
Num Path Iterations: 1046.000000
Num Path Iterations - Session Mean & Stddev: 10.460000,0.573062
+ set +x
++ printf 'taskset -c 1-2 timeout 100 /home/bcurto/mem-access-simulator/accesstest/accesstest -v -s 100 -d 10 --sess-distr u %s fibre %s\n' '0/245760,0 0/245760,0' '-w 2'
+ taskset -c 1-2 timeout 100 /home/bcurto/mem-access-simulator/accesstest/accesstest -v -s 100 -d 10 --sess-distr u 0/245760,0 0/245760,0 fibre -w 2
[0.000s] Creating path with 2 phases.
  Phase 0:
    0 sess-local datalocs, 0.000000 update ratio, inf access count scalar /
    245760 sess-global datalocs, 0.000000 update ratio, inf access count scalar
  Phase 1:
    0 sess-local datalocs, 0.000000 update ratio, inf access count scalar /
    245760 sess-global datalocs, 0.000000 update ratio, inf access count scalar
[0.000s] Creating global buffer at 0x7f3340000000 of size 31457280 bytes.
[5.925s] Test is ready to start.
Test duration in range [10.000, 10.015] seconds
Num Accesses: 232524062.000000
Throughput: 23252406.200000
Num Accesses - Session Mean & Stddev: 2325240.620000,140856.908438
Num Phases Traversed: 1046.000000
Num Phases Traversed - Session Mean & Stddev: 10.460000,0.573062
Num Path Iterations: 1046.000000
Num Path Iterations - Session Mean & Stddev: 10.460000,0.573062
+ set +x
++ printf 'taskset -c 1-2 timeout 100 /home/bcurto/mem-access-simulator/accesstest/accesstest -v -s 100 -d 10 --sess-distr u %s fibre %s\n' '0/245760,0 0/245760,0' '-w 2'
+ taskset -c 1-2 timeout 100 /home/bcurto/mem-access-simulator/accesstest/accesstest -v -s 100 -d 10 --sess-distr u 0/245760,0 0/245760,0 fibre -w 2
[0.000s] Creating path with 2 phases.
  Phase 0:
    0 sess-local datalocs, 0.000000 update ratio, inf access count scalar /
    245760 sess-global datalocs, 0.000000 update ratio, inf access count scalar
  Phase 1:
    0 sess-local datalocs, 0.000000 update ratio, inf access count scalar /
    245760 sess-global datalocs, 0.000000 update ratio, inf access count scalar
[0.000s] Creating global buffer at 0x7fa540000000 of size 31457280 bytes.
[5.994s] Test is ready to start.
Test duration in range [10.000, 10.012] seconds
Num Accesses: 232524062.000000
Throughput: 23252406.200000
Num Accesses - Session Mean & Stddev: 2325240.620000,140856.908438
Num Phases Traversed: 1046.000000
Num Phases Traversed - Session Mean & Stddev: 10.460000,0.573062
Num Path Iterations: 1046.000000
Num Path Iterations - Session Mean & Stddev: 10.460000,0.573062
+ set +x
++ printf 'taskset -c 1-2 timeout 100 /home/bcurto/mem-access-simulator/accesstest/accesstest -v -s 100 -d 10 --sess-distr u %s fibre %s\n' '0/245760,0 0/245760,0' '-w 2'
+ taskset -c 1-2 timeout 100 /home/bcurto/mem-access-simulator/accesstest/accesstest -v -s 100 -d 10 --sess-distr u 0/245760,0 0/245760,0 fibre -w 2
[0.000s] Creating path with 2 phases.
  Phase 0:
    0 sess-local datalocs, 0.000000 update ratio, inf access count scalar /
    245760 sess-global datalocs, 0.000000 update ratio, inf access count scalar
  Phase 1:
    0 sess-local datalocs, 0.000000 update ratio, inf access count scalar /
    245760 sess-global datalocs, 0.000000 update ratio, inf access count scalar
[0.000s] Creating global buffer at 0x7f90c0000000 of size 31457280 bytes.
[5.996s] Test is ready to start.
Test duration in range [10.000, 10.015] seconds
Num Accesses: 232524062.000000
Throughput: 23252406.200000
Num Accesses - Session Mean & Stddev: 2325240.620000,132000.083509
Num Phases Traversed: 1046.000000
Num Phases Traversed - Session Mean & Stddev: 10.460000,0.537029
Num Path Iterations: 1046.000000
Num Path Iterations - Session Mean & Stddev: 10.460000,0.537029
+ set +x
++ printf 'taskset -c 1-2 timeout 100 /home/bcurto/mem-access-simulator/accesstest/accesstest -v -s 100 -d 10 --sess-distr u %s fibre %s\n' '0/245760,0 0/245760,0' '-w 2'
+ taskset -c 1-2 timeout 100 /home/bcurto/mem-access-simulator/accesstest/accesstest -v -s 100 -d 10 --sess-distr u 0/245760,0 0/245760,0 fibre -w 2
[0.000s] Creating path with 2 phases.
  Phase 0:
    0 sess-local datalocs, 0.000000 update ratio, inf access count scalar /
    245760 sess-global datalocs, 0.000000 update ratio, inf access count scalar
  Phase 1:
    0 sess-local datalocs, 0.000000 update ratio, inf access count scalar /
    245760 sess-global datalocs, 0.000000 update ratio, inf access count scalar
[0.000s] Creating global buffer at 0x7fba40000000 of size 31457280 bytes.
[5.996s] Test is ready to start.
Test duration in range [10.000, 10.022] seconds
Num Accesses: 232524062.000000
Throughput: 23252406.200000
Num Accesses - Session Mean & Stddev: 2325240.620000,132000.083509
Num Phases Traversed: 1046.000000
Num Phases Traversed - Session Mean & Stddev: 10.460000,0.537029
Num Path Iterations: 1046.000000
Num Path Iterations - Session Mean & Stddev: 10.460000,0.537029
+ set +x
++ printf 'taskset -c 1-2 timeout 100 /home/bcurto/mem-access-simulator/accesstest/accesstest -v -s 100 -d 10 --sess-distr u %s fibre %s\n' '0/245760,0 0/245760,0' '-w 2'
+ taskset -c 1-2 timeout 100 /home/bcurto/mem-access-simulator/accesstest/accesstest -v -s 100 -d 10 --sess-distr u 0/245760,0 0/245760,0 fibre -w 2
[0.000s] Creating path with 2 phases.
  Phase 0:
    0 sess-local datalocs, 0.000000 update ratio, inf access count scalar /
    245760 sess-global datalocs, 0.000000 update ratio, inf access count scalar
  Phase 1:
    0 sess-local datalocs, 0.000000 update ratio, inf access count scalar /
    245760 sess-global datalocs, 0.000000 update ratio, inf access count scalar
[0.000s] Creating global buffer at 0x7f6a40000000 of size 31457280 bytes.
[5.995s] Test is ready to start.
Test duration in range [10.000, 10.011] seconds
Num Accesses: 232524062.000000
Throughput: 23252406.200000
Num Accesses - Session Mean & Stddev: 2325240.620000,149188.857704
Num Phases Traversed: 1046.000000
Num Phases Traversed - Session Mean & Stddev: 10.460000,0.606960
Num Path Iterations: 1046.000000
Num Path Iterations - Session Mean & Stddev: 10.460000,0.606960
+ set +x
++ printf 'taskset -c 1-2 timeout 100 /home/bcurto/mem-access-simulator/accesstest/accesstest -v -s 100 -d 10 --sess-distr u %s fibre %s\n' '0/245760,0 0/245760,0' '-w 2'
+ taskset -c 1-2 timeout 100 /home/bcurto/mem-access-simulator/accesstest/accesstest -v -s 100 -d 10 --sess-distr u 0/245760,0 0/245760,0 fibre -w 2
[0.000s] Creating path with 2 phases.
  Phase 0:
    0 sess-local datalocs, 0.000000 update ratio, inf access count scalar /
    245760 sess-global datalocs, 0.000000 update ratio, inf access count scalar
  Phase 1:
    0 sess-local datalocs, 0.000000 update ratio, inf access count scalar /
    245760 sess-global datalocs, 0.000000 update ratio, inf access count scalar
[0.000s] Creating global buffer at 0x7f7100000000 of size 31457280 bytes.
[5.994s] Test is ready to start.
Test duration in range [10.000, 10.018] seconds
Num Accesses: 232524062.000000
Throughput: 23252406.200000
Num Accesses - Session Mean & Stddev: 2325240.620000,149188.857704
Num Phases Traversed: 1046.000000
Num Phases Traversed - Session Mean & Stddev: 10.460000,0.606960
Num Path Iterations: 1046.000000
Num Path Iterations - Session Mean & Stddev: 10.460000,0.606960
+ set +x
++ printf 'taskset -c 1-2 timeout 100 /home/bcurto/mem-access-simulator/accesstest/accesstest -v -s 100 -d 10 --sess-distr u %s fibre %s\n' '0/245760,0 0/245760,0' '-w 2'
+ taskset -c 1-2 timeout 100 /home/bcurto/mem-access-simulator/accesstest/accesstest -v -s 100 -d 10 --sess-distr u 0/245760,0 0/245760,0 fibre -w 2
[0.000s] Creating path with 2 phases.
  Phase 0:
    0 sess-local datalocs, 0.000000 update ratio, inf access count scalar /
    245760 sess-global datalocs, 0.000000 update ratio, inf access count scalar
  Phase 1:
    0 sess-local datalocs, 0.000000 update ratio, inf access count scalar /
    245760 sess-global datalocs, 0.000000 update ratio, inf access count scalar
[0.000s] Creating global buffer at 0x7f6800000000 of size 31457280 bytes.
[5.994s] Test is ready to start.
Test duration in range [10.000, 10.003] seconds
Num Accesses: 232032468.000000
Throughput: 23203246.800000
Num Accesses - Session Mean & Stddev: 2320324.680000,144665.682276
Num Phases Traversed: 1044.000000
Num Phases Traversed - Session Mean & Stddev: 10.440000,0.588558
Num Path Iterations: 1044.000000
Num Path Iterations - Session Mean & Stddev: 10.440000,0.588558
+ set +x
++ printf 'taskset -c 1-2 timeout 100 /home/bcurto/mem-access-simulator/accesstest/accesstest -v -s 100 -d 10 --sess-distr u %s fibre %s\n' '0/245760,0 0/245760,0' '-w 2'
+ taskset -c 1-2 timeout 100 /home/bcurto/mem-access-simulator/accesstest/accesstest -v -s 100 -d 10 --sess-distr u 0/245760,0 0/245760,0 fibre -w 2
[0.000s] Creating path with 2 phases.
  Phase 0:
    0 sess-local datalocs, 0.000000 update ratio, inf access count scalar /
    245760 sess-global datalocs, 0.000000 update ratio, inf access count scalar
  Phase 1:
    0 sess-local datalocs, 0.000000 update ratio, inf access count scalar /
    245760 sess-global datalocs, 0.000000 update ratio, inf access count scalar
[0.000s] Creating global buffer at 0x7fb900000000 of size 31457280 bytes.
[5.993s] Test is ready to start.
Test duration in range [10.000, 10.014] seconds
Num Accesses: 232524062.000000
Throughput: 23252406.200000
Num Accesses - Session Mean & Stddev: 2325240.620000,140856.908438
Num Phases Traversed: 1046.000000
Num Phases Traversed - Session Mean & Stddev: 10.460000,0.573062
Num Path Iterations: 1046.000000
Num Path Iterations - Session Mean & Stddev: 10.460000,0.573062
+ set +x
++ printf 'taskset -c 1-2 timeout 100 /home/bcurto/mem-access-simulator/accesstest/accesstest -v -s 100 -d 10 --sess-distr u %s fibre %s\n' '0/245760,0 0/245760,0' '-w 2'
+ taskset -c 1-2 timeout 100 /home/bcurto/mem-access-simulator/accesstest/accesstest -v -s 100 -d 10 --sess-distr u 0/245760,0 0/245760,0 fibre -w 2
[0.000s] Creating path with 2 phases.
  Phase 0:
    0 sess-local datalocs, 0.000000 update ratio, inf access count scalar /
    245760 sess-global datalocs, 0.000000 update ratio, inf access count scalar
  Phase 1:
    0 sess-local datalocs, 0.000000 update ratio, inf access count scalar /
    245760 sess-global datalocs, 0.000000 update ratio, inf access count scalar
[0.000s] Creating global buffer at 0x7f0480000000 of size 31457280 bytes.
[6.003s] Test is ready to start.
Test duration in range [10.000, 10.015] seconds
Num Accesses: 232524062.000000
Throughput: 23252406.200000
Num Accesses - Session Mean & Stddev: 2325240.620000,140856.908438
Num Phases Traversed: 1046.000000
Num Phases Traversed - Session Mean & Stddev: 10.460000,0.573062
Num Path Iterations: 1046.000000
Num Path Iterations - Session Mean & Stddev: 10.460000,0.573062
+ set +x
++ printf 'taskset -c 1-2 timeout 100 /home/bcurto/mem-access-simulator/accesstest/accesstest -v -s 100 -d 10 --sess-distr u %s fibre %s\n' '0/245760,0 0/245760,0' '-w 2'
+ taskset -c 1-2 timeout 100 /home/bcurto/mem-access-simulator/accesstest/accesstest -v -s 100 -d 10 --sess-distr u 0/245760,0 0/245760,0 fibre -w 2
[0.000s] Creating path with 2 phases.
  Phase 0:
    0 sess-local datalocs, 0.000000 update ratio, inf access count scalar /
    245760 sess-global datalocs, 0.000000 update ratio, inf access count scalar
  Phase 1:
    0 sess-local datalocs, 0.000000 update ratio, inf access count scalar /
    245760 sess-global datalocs, 0.000000 update ratio, inf access count scalar
[0.000s] Creating global buffer at 0x7f3c40000000 of size 31457280 bytes.
[5.966s] Test is ready to start.
Test duration in range [10.000, 10.021] seconds
Num Accesses: 231540874.000000
Throughput: 23154087.400000
Num Accesses - Session Mean & Stddev: 2315408.740000,156153.655988
Num Phases Traversed: 1042.000000
Num Phases Traversed - Session Mean & Stddev: 10.420000,0.635295
Num Path Iterations: 1042.000000
Num Path Iterations - Session Mean & Stddev: 10.420000,0.635295
+ set +x
++ printf 'taskset -c 1-2 timeout 100 /home/bcurto/mem-access-simulator/accesstest/accesstest -v -s 100 -d 10 --sess-distr u %s fibre %s\n' '0/245760,0 0/245760,0' '-w 2'
+ taskset -c 1-2 timeout 100 /home/bcurto/mem-access-simulator/accesstest/accesstest -v -s 100 -d 10 --sess-distr u 0/245760,0 0/245760,0 fibre -w 2
[0.000s] Creating path with 2 phases.
  Phase 0:
    0 sess-local datalocs, 0.000000 update ratio, inf access count scalar /
    245760 sess-global datalocs, 0.000000 update ratio, inf access count scalar
  Phase 1:
    0 sess-local datalocs, 0.000000 update ratio, inf access count scalar /
    245760 sess-global datalocs, 0.000000 update ratio, inf access count scalar
[0.000s] Creating global buffer at 0x7fd480000000 of size 31457280 bytes.
[6.007s] Test is ready to start.
Test duration in range [10.000, 10.002] seconds
Num Accesses: 232032468.000000
Throughput: 23203246.800000
Num Accesses - Session Mean & Stddev: 2320324.680000,136057.021208
Num Phases Traversed: 1044.000000
Num Phases Traversed - Session Mean & Stddev: 10.440000,0.553534
Num Path Iterations: 1044.000000
Num Path Iterations - Session Mean & Stddev: 10.440000,0.553534
+ set +x
++ printf 'taskset -c 1-2 timeout 100 /home/bcurto/mem-access-simulator/accesstest/accesstest -v -s 100 -d 10 --sess-distr u %s fibre %s\n' '0/245760,0 0/245760,0' '-w 2'
+ taskset -c 1-2 timeout 100 /home/bcurto/mem-access-simulator/accesstest/accesstest -v -s 100 -d 10 --sess-distr u 0/245760,0 0/245760,0 fibre -w 2
[0.000s] Creating path with 2 phases.
  Phase 0:
    0 sess-local datalocs, 0.000000 update ratio, inf access count scalar /
    245760 sess-global datalocs, 0.000000 update ratio, inf access count scalar
  Phase 1:
    0 sess-local datalocs, 0.000000 update ratio, inf access count scalar /
    245760 sess-global datalocs, 0.000000 update ratio, inf access count scalar
[0.000s] Creating global buffer at 0x7f1480000000 of size 31457280 bytes.
[5.997s] Test is ready to start.
Test duration in range [10.000, 10.001] seconds
Num Accesses: 232032468.000000
Throughput: 23203246.800000
Num Accesses - Session Mean & Stddev: 2320324.680000,136057.021208
Num Phases Traversed: 1044.000000
Num Phases Traversed - Session Mean & Stddev: 10.440000,0.553534
Num Path Iterations: 1044.000000
Num Path Iterations - Session Mean & Stddev: 10.440000,0.553534
+ set +x
++ printf 'taskset -c 1-2 timeout 100 /home/bcurto/mem-access-simulator/accesstest/accesstest -v -s 100 -d 10 --sess-distr u %s fibre %s\n' '0/245760,0 0/245760,0' '-w 2'
+ taskset -c 1-2 timeout 100 /home/bcurto/mem-access-simulator/accesstest/accesstest -v -s 100 -d 10 --sess-distr u 0/245760,0 0/245760,0 fibre -w 2
[0.000s] Creating path with 2 phases.
  Phase 0:
    0 sess-local datalocs, 0.000000 update ratio, inf access count scalar /
    245760 sess-global datalocs, 0.000000 update ratio, inf access count scalar
  Phase 1:
    0 sess-local datalocs, 0.000000 update ratio, inf access count scalar /
    245760 sess-global datalocs, 0.000000 update ratio, inf access count scalar
[0.000s] Creating global buffer at 0x7fea80000000 of size 31457280 bytes.
[5.996s] Test is ready to start.
Test duration in range [10.000, 10.005] seconds
Num Accesses: 232032468.000000
Throughput: 23203246.800000
Num Accesses - Session Mean & Stddev: 2320324.680000,136057.021208
Num Phases Traversed: 1044.000000
Num Phases Traversed - Session Mean & Stddev: 10.440000,0.553534
Num Path Iterations: 1044.000000
Num Path Iterations - Session Mean & Stddev: 10.440000,0.553534
+ set +x
++ printf 'taskset -c 1-2 timeout 100 /home/bcurto/mem-access-simulator/accesstest/accesstest -v -s 100 -d 10 --sess-distr u %s fibre %s\n' '0/245760,0 0/245760,0' '-w 2'
+ taskset -c 1-2 timeout 100 /home/bcurto/mem-access-simulator/accesstest/accesstest -v -s 100 -d 10 --sess-distr u 0/245760,0 0/245760,0 fibre -w 2
[0.000s] Creating path with 2 phases.
  Phase 0:
    0 sess-local datalocs, 0.000000 update ratio, inf access count scalar /
    245760 sess-global datalocs, 0.000000 update ratio, inf access count scalar
  Phase 1:
    0 sess-local datalocs, 0.000000 update ratio, inf access count scalar /
    245760 sess-global datalocs, 0.000000 update ratio, inf access count scalar
[0.000s] Creating global buffer at 0x7f4100000000 of size 31457280 bytes.
[5.995s] Test is ready to start.
Test duration in range [10.000, 10.018] seconds
Num Accesses: 232524062.000000
Throughput: 23252406.200000
Num Accesses - Session Mean & Stddev: 2325240.620000,132000.083509
Num Phases Traversed: 1046.000000
Num Phases Traversed - Session Mean & Stddev: 10.460000,0.537029
Num Path Iterations: 1046.000000
Num Path Iterations - Session Mean & Stddev: 10.460000,0.537029
+ set +x
++ printf 'taskset -c 1-2 timeout 100 /home/bcurto/mem-access-simulator/accesstest/accesstest -v -s 100 -d 10 --sess-distr u %s fibre %s\n' '0/245760,0 0/245760,0' '-w 2'
+ taskset -c 1-2 timeout 100 /home/bcurto/mem-access-simulator/accesstest/accesstest -v -s 100 -d 10 --sess-distr u 0/245760,0 0/245760,0 fibre -w 2
[0.000s] Creating path with 2 phases.
  Phase 0:
    0 sess-local datalocs, 0.000000 update ratio, inf access count scalar /
    245760 sess-global datalocs, 0.000000 update ratio, inf access count scalar
  Phase 1:
    0 sess-local datalocs, 0.000000 update ratio, inf access count scalar /
    245760 sess-global datalocs, 0.000000 update ratio, inf access count scalar
[0.000s] Creating global buffer at 0x7fbc40000000 of size 31457280 bytes.
[5.994s] Test is ready to start.
Test duration in range [10.000, 10.011] seconds
Num Accesses: 232032468.000000
Throughput: 23203246.800000
Num Accesses - Session Mean & Stddev: 2320324.680000,152790.072442
Num Phases Traversed: 1044.000000
Num Phases Traversed - Session Mean & Stddev: 10.440000,0.621611
Num Path Iterations: 1044.000000
Num Path Iterations - Session Mean & Stddev: 10.440000,0.621611
+ set +x
++ printf 'taskset -c 1-2 timeout 100 /home/bcurto/mem-access-simulator/accesstest/accesstest -v -s 100 -d 10 --sess-distr u %s fibre %s\n' '0/245760,0 0/245760,0' '-w 2'
+ taskset -c 1-2 timeout 100 /home/bcurto/mem-access-simulator/accesstest/accesstest -v -s 100 -d 10 --sess-distr u 0/245760,0 0/245760,0 fibre -w 2
[0.000s] Creating path with 2 phases.
  Phase 0:
    0 sess-local datalocs, 0.000000 update ratio, inf access count scalar /
    245760 sess-global datalocs, 0.000000 update ratio, inf access count scalar
  Phase 1:
    0 sess-local datalocs, 0.000000 update ratio, inf access count scalar /
    245760 sess-global datalocs, 0.000000 update ratio, inf access count scalar
[0.000s] Creating global buffer at 0x7ffac0000000 of size 31457280 bytes.
[5.992s] Test is ready to start.
Test duration in range [10.000, 10.016] seconds
Num Accesses: 232524062.000000
Throughput: 23252406.200000
Num Accesses - Session Mean & Stddev: 2325240.620000,132000.083509
Num Phases Traversed: 1046.000000
Num Phases Traversed - Session Mean & Stddev: 10.460000,0.537029
Num Path Iterations: 1046.000000
Num Path Iterations - Session Mean & Stddev: 10.460000,0.537029
+ set +x
++ printf 'taskset -c 1-2 timeout 100 /home/bcurto/mem-access-simulator/accesstest/accesstest -v -s 100 -d 10 --sess-distr u %s fibre %s\n' '0/245760,0 0/245760,0' '-w 2'
+ taskset -c 1-2 timeout 100 /home/bcurto/mem-access-simulator/accesstest/accesstest -v -s 100 -d 10 --sess-distr u 0/245760,0 0/245760,0 fibre -w 2
[0.000s] Creating path with 2 phases.
  Phase 0:
    0 sess-local datalocs, 0.000000 update ratio, inf access count scalar /
    245760 sess-global datalocs, 0.000000 update ratio, inf access count scalar
  Phase 1:
    0 sess-local datalocs, 0.000000 update ratio, inf access count scalar /
    245760 sess-global datalocs, 0.000000 update ratio, inf access count scalar
[0.000s] Creating global buffer at 0x7f0480000000 of size 31457280 bytes.
[5.993s] Test is ready to start.
Test duration in range [10.000, 10.001] seconds
Num Accesses: 232032468.000000
Throughput: 23203246.800000
Num Accesses - Session Mean & Stddev: 2320324.680000,144665.682276
Num Phases Traversed: 1044.000000
Num Phases Traversed - Session Mean & Stddev: 10.440000,0.588558
Num Path Iterations: 1044.000000
Num Path Iterations - Session Mean & Stddev: 10.440000,0.588558
+ set +x
