++ printf 'taskset -c 1-2 timeout 100 /home/bcurto/mem-access-simulator/accesstest/accesstest -v -s 100 -d 10 --sess-distr u %s fibre %s\n' '0/245760,0.01 0/245760,0.01' '-w 2'
+ taskset -c 1-2 timeout 100 /home/bcurto/mem-access-simulator/accesstest/accesstest -v -s 100 -d 10 --sess-distr u 0/245760,0.01 0/245760,0.01 fibre -w 2
[0.000s] Creating path with 2 phases.
  Phase 0:
    0 sess-local datalocs, 0.000000 update ratio, inf access count scalar /
    245760 sess-global datalocs, 0.010000 update ratio, inf access count scalar
  Phase 1:
    0 sess-local datalocs, 0.000000 update ratio, inf access count scalar /
    245760 sess-global datalocs, 0.010000 update ratio, inf access count scalar
[0.000s] Creating global buffer at 0x7fcd00000000 of size 31457280 bytes.
[6.017s] Test is ready to start.
Test duration in range [10.000, 10.019] seconds
Num Accesses: 232032468.000000
Throughput: 23203246.800000
Num Accesses - Session Mean & Stddev: 2320324.680000,152790.072442
Num Phases Traversed: 1044.000000
Num Phases Traversed - Session Mean & Stddev: 10.440000,0.621611
Num Path Iterations: 1044.000000
Num Path Iterations - Session Mean & Stddev: 10.440000,0.621611
+ set +x
++ printf 'taskset -c 1-2 timeout 100 /home/bcurto/mem-access-simulator/accesstest/accesstest -v -s 100 -d 10 --sess-distr u %s fibre %s\n' '0/245760,0.01 0/245760,0.01' '-w 2'
+ taskset -c 1-2 timeout 100 /home/bcurto/mem-access-simulator/accesstest/accesstest -v -s 100 -d 10 --sess-distr u 0/245760,0.01 0/245760,0.01 fibre -w 2
[0.000s] Creating path with 2 phases.
  Phase 0:
    0 sess-local datalocs, 0.000000 update ratio, inf access count scalar /
    245760 sess-global datalocs, 0.010000 update ratio, inf access count scalar
  Phase 1:
    0 sess-local datalocs, 0.000000 update ratio, inf access count scalar /
    245760 sess-global datalocs, 0.010000 update ratio, inf access count scalar
[0.000s] Creating global buffer at 0x7f2cc0000000 of size 31457280 bytes.
[6.018s] Test is ready to start.
Test duration in range [10.000, 10.012] seconds
Num Accesses: 232032468.000000
Throughput: 23203246.800000
Num Accesses - Session Mean & Stddev: 2320324.680000,148783.342255
Num Phases Traversed: 1044.000000
Num Phases Traversed - Session Mean & Stddev: 10.440000,0.605310
Num Path Iterations: 1044.000000
Num Path Iterations - Session Mean & Stddev: 10.440000,0.605310
+ set +x
++ printf 'taskset -c 1-2 timeout 100 /home/bcurto/mem-access-simulator/accesstest/accesstest -v -s 100 -d 10 --sess-distr u %s fibre %s\n' '0/245760,0.01 0/245760,0.01' '-w 2'
+ taskset -c 1-2 timeout 100 /home/bcurto/mem-access-simulator/accesstest/accesstest -v -s 100 -d 10 --sess-distr u 0/245760,0.01 0/245760,0.01 fibre -w 2
[0.000s] Creating path with 2 phases.
  Phase 0:
    0 sess-local datalocs, 0.000000 update ratio, inf access count scalar /
    245760 sess-global datalocs, 0.010000 update ratio, inf access count scalar
  Phase 1:
    0 sess-local datalocs, 0.000000 update ratio, inf access count scalar /
    245760 sess-global datalocs, 0.010000 update ratio, inf access count scalar
[0.000s] Creating global buffer at 0x7fdd40000000 of size 31457280 bytes.
[6.016s] Test is ready to start.
Test duration in range [10.000, 10.014] seconds
Num Accesses: 232032468.000000
Throughput: 23203246.800000
Num Accesses - Session Mean & Stddev: 2320324.680000,140427.334676
Num Phases Traversed: 1044.000000
Num Phases Traversed - Session Mean & Stddev: 10.440000,0.571314
Num Path Iterations: 1044.000000
Num Path Iterations - Session Mean & Stddev: 10.440000,0.571314
+ set +x
++ printf 'taskset -c 1-2 timeout 100 /home/bcurto/mem-access-simulator/accesstest/accesstest -v -s 100 -d 10 --sess-distr u %s fibre %s\n' '0/245760,0.01 0/245760,0.01' '-w 2'
+ taskset -c 1-2 timeout 100 /home/bcurto/mem-access-simulator/accesstest/accesstest -v -s 100 -d 10 --sess-distr u 0/245760,0.01 0/245760,0.01 fibre -w 2
[0.000s] Creating path with 2 phases.
  Phase 0:
    0 sess-local datalocs, 0.000000 update ratio, inf access count scalar /
    245760 sess-global datalocs, 0.010000 update ratio, inf access count scalar
  Phase 1:
    0 sess-local datalocs, 0.000000 update ratio, inf access count scalar /
    245760 sess-global datalocs, 0.010000 update ratio, inf access count scalar
[0.000s] Creating global buffer at 0x7fcb00000000 of size 31457280 bytes.
[6.018s] Test is ready to start.
Test duration in range [10.000, 10.008] seconds
Num Accesses: 232032468.000000
Throughput: 23203246.800000
Num Accesses - Session Mean & Stddev: 2320324.680000,148783.342255
Num Phases Traversed: 1044.000000
Num Phases Traversed - Session Mean & Stddev: 10.440000,0.605310
Num Path Iterations: 1044.000000
Num Path Iterations - Session Mean & Stddev: 10.440000,0.605310
+ set +x
++ printf 'taskset -c 1-2 timeout 100 /home/bcurto/mem-access-simulator/accesstest/accesstest -v -s 100 -d 10 --sess-distr u %s fibre %s\n' '0/245760,0.01 0/245760,0.01' '-w 2'
+ taskset -c 1-2 timeout 100 /home/bcurto/mem-access-simulator/accesstest/accesstest -v -s 100 -d 10 --sess-distr u 0/245760,0.01 0/245760,0.01 fibre -w 2
[0.000s] Creating path with 2 phases.
  Phase 0:
    0 sess-local datalocs, 0.000000 update ratio, inf access count scalar /
    245760 sess-global datalocs, 0.010000 update ratio, inf access count scalar
  Phase 1:
    0 sess-local datalocs, 0.000000 update ratio, inf access count scalar /
    245760 sess-global datalocs, 0.010000 update ratio, inf access count scalar
[0.000s] Creating global buffer at 0x7f8100000000 of size 31457280 bytes.
[6.016s] Test is ready to start.
Test duration in range [10.000, 10.005] seconds
Num Accesses: 232032468.000000
Throughput: 23203246.800000
Num Accesses - Session Mean & Stddev: 2320324.680000,140427.334676
Num Phases Traversed: 1044.000000
Num Phases Traversed - Session Mean & Stddev: 10.440000,0.571314
Num Path Iterations: 1044.000000
Num Path Iterations - Session Mean & Stddev: 10.440000,0.571314
+ set +x
++ printf 'taskset -c 1-2 timeout 100 /home/bcurto/mem-access-simulator/accesstest/accesstest -v -s 100 -d 10 --sess-distr u %s fibre %s\n' '0/245760,0.01 0/245760,0.01' '-w 2'
+ taskset -c 1-2 timeout 100 /home/bcurto/mem-access-simulator/accesstest/accesstest -v -s 100 -d 10 --sess-distr u 0/245760,0.01 0/245760,0.01 fibre -w 2
[0.000s] Creating path with 2 phases.
  Phase 0:
    0 sess-local datalocs, 0.000000 update ratio, inf access count scalar /
    245760 sess-global datalocs, 0.010000 update ratio, inf access count scalar
  Phase 1:
    0 sess-local datalocs, 0.000000 update ratio, inf access count scalar /
    245760 sess-global datalocs, 0.010000 update ratio, inf access count scalar
[0.000s] Creating global buffer at 0x7f0f80000000 of size 31457280 bytes.
[6.016s] Test is ready to start.
Test duration in range [10.000, 10.018] seconds
Num Accesses: 232032468.000000
Throughput: 23203246.800000
Num Accesses - Session Mean & Stddev: 2320324.680000,140427.334676
Num Phases Traversed: 1044.000000
Num Phases Traversed - Session Mean & Stddev: 10.440000,0.571314
Num Path Iterations: 1044.000000
Num Path Iterations - Session Mean & Stddev: 10.440000,0.571314
+ set +x
++ printf 'taskset -c 1-2 timeout 100 /home/bcurto/mem-access-simulator/accesstest/accesstest -v -s 100 -d 10 --sess-distr u %s fibre %s\n' '0/245760,0.01 0/245760,0.01' '-w 2'
+ taskset -c 1-2 timeout 100 /home/bcurto/mem-access-simulator/accesstest/accesstest -v -s 100 -d 10 --sess-distr u 0/245760,0.01 0/245760,0.01 fibre -w 2
[0.000s] Creating path with 2 phases.
  Phase 0:
    0 sess-local datalocs, 0.000000 update ratio, inf access count scalar /
    245760 sess-global datalocs, 0.010000 update ratio, inf access count scalar
  Phase 1:
    0 sess-local datalocs, 0.000000 update ratio, inf access count scalar /
    245760 sess-global datalocs, 0.010000 update ratio, inf access count scalar
[0.000s] Creating global buffer at 0x7f1d40000000 of size 31457280 bytes.
[6.018s] Test is ready to start.
Test duration in range [10.000, 10.003] seconds
Num Accesses: 232032468.000000
Throughput: 23203246.800000
Num Accesses - Session Mean & Stddev: 2320324.680000,152790.072442
Num Phases Traversed: 1044.000000
Num Phases Traversed - Session Mean & Stddev: 10.440000,0.621611
Num Path Iterations: 1044.000000
Num Path Iterations - Session Mean & Stddev: 10.440000,0.621611
+ set +x
++ printf 'taskset -c 1-2 timeout 100 /home/bcurto/mem-access-simulator/accesstest/accesstest -v -s 100 -d 10 --sess-distr u %s fibre %s\n' '0/245760,0.01 0/245760,0.01' '-w 2'
+ taskset -c 1-2 timeout 100 /home/bcurto/mem-access-simulator/accesstest/accesstest -v -s 100 -d 10 --sess-distr u 0/245760,0.01 0/245760,0.01 fibre -w 2
[0.000s] Creating path with 2 phases.
  Phase 0:
    0 sess-local datalocs, 0.000000 update ratio, inf access count scalar /
    245760 sess-global datalocs, 0.010000 update ratio, inf access count scalar
  Phase 1:
    0 sess-local datalocs, 0.000000 update ratio, inf access count scalar /
    245760 sess-global datalocs, 0.010000 update ratio, inf access count scalar
[0.000s] Creating global buffer at 0x7f3e80000000 of size 31457280 bytes.
[6.016s] Test is ready to start.
Test duration in range [10.000, 10.002] seconds
Num Accesses: 232032468.000000
Throughput: 23203246.800000
Num Accesses - Session Mean & Stddev: 2320324.680000,148783.342255
Num Phases Traversed: 1044.000000
Num Phases Traversed - Session Mean & Stddev: 10.440000,0.605310
Num Path Iterations: 1044.000000
Num Path Iterations - Session Mean & Stddev: 10.440000,0.605310
+ set +x
++ printf 'taskset -c 1-2 timeout 100 /home/bcurto/mem-access-simulator/accesstest/accesstest -v -s 100 -d 10 --sess-distr u %s fibre %s\n' '0/245760,0.01 0/245760,0.01' '-w 2'
+ taskset -c 1-2 timeout 100 /home/bcurto/mem-access-simulator/accesstest/accesstest -v -s 100 -d 10 --sess-distr u 0/245760,0.01 0/245760,0.01 fibre -w 2
[0.000s] Creating path with 2 phases.
  Phase 0:
    0 sess-local datalocs, 0.000000 update ratio, inf access count scalar /
    245760 sess-global datalocs, 0.010000 update ratio, inf access count scalar
  Phase 1:
    0 sess-local datalocs, 0.000000 update ratio, inf access count scalar /
    245760 sess-global datalocs, 0.010000 update ratio, inf access count scalar
[0.000s] Creating global buffer at 0x7f94c0000000 of size 31457280 bytes.
[6.018s] Test is ready to start.
Test duration in range [10.000, 10.008] seconds
Num Accesses: 232032468.000000
Throughput: 23203246.800000
Num Accesses - Session Mean & Stddev: 2320324.680000,144665.682276
Num Phases Traversed: 1044.000000
Num Phases Traversed - Session Mean & Stddev: 10.440000,0.588558
Num Path Iterations: 1044.000000
Num Path Iterations - Session Mean & Stddev: 10.440000,0.588558
+ set +x
++ printf 'taskset -c 1-2 timeout 100 /home/bcurto/mem-access-simulator/accesstest/accesstest -v -s 100 -d 10 --sess-distr u %s fibre %s\n' '0/245760,0.01 0/245760,0.01' '-w 2'
+ taskset -c 1-2 timeout 100 /home/bcurto/mem-access-simulator/accesstest/accesstest -v -s 100 -d 10 --sess-distr u 0/245760,0.01 0/245760,0.01 fibre -w 2
[0.000s] Creating path with 2 phases.
  Phase 0:
    0 sess-local datalocs, 0.000000 update ratio, inf access count scalar /
    245760 sess-global datalocs, 0.010000 update ratio, inf access count scalar
  Phase 1:
    0 sess-local datalocs, 0.000000 update ratio, inf access count scalar /
    245760 sess-global datalocs, 0.010000 update ratio, inf access count scalar
[0.000s] Creating global buffer at 0x7fce00000000 of size 31457280 bytes.
[6.017s] Test is ready to start.
Test duration in range [10.000, 10.008] seconds
Num Accesses: 232032468.000000
Throughput: 23203246.800000
Num Accesses - Session Mean & Stddev: 2320324.680000,148783.342255
Num Phases Traversed: 1044.000000
Num Phases Traversed - Session Mean & Stddev: 10.440000,0.605310
Num Path Iterations: 1044.000000
Num Path Iterations - Session Mean & Stddev: 10.440000,0.605310
+ set +x
++ printf 'taskset -c 1-2 timeout 100 /home/bcurto/mem-access-simulator/accesstest/accesstest -v -s 100 -d 10 --sess-distr u %s fibre %s\n' '0/245760,0.01 0/245760,0.01' '-w 2'
+ taskset -c 1-2 timeout 100 /home/bcurto/mem-access-simulator/accesstest/accesstest -v -s 100 -d 10 --sess-distr u 0/245760,0.01 0/245760,0.01 fibre -w 2
[0.000s] Creating path with 2 phases.
  Phase 0:
    0 sess-local datalocs, 0.000000 update ratio, inf access count scalar /
    245760 sess-global datalocs, 0.010000 update ratio, inf access count scalar
  Phase 1:
    0 sess-local datalocs, 0.000000 update ratio, inf access count scalar /
    245760 sess-global datalocs, 0.010000 update ratio, inf access count scalar
[0.000s] Creating global buffer at 0x7f5780000000 of size 31457280 bytes.
[6.017s] Test is ready to start.
Test duration in range [10.000, 10.003] seconds
Num Accesses: 232032468.000000
Throughput: 23203246.800000
Num Accesses - Session Mean & Stddev: 2320324.680000,140427.334676
Num Phases Traversed: 1044.000000
Num Phases Traversed - Session Mean & Stddev: 10.440000,0.571314
Num Path Iterations: 1044.000000
Num Path Iterations - Session Mean & Stddev: 10.440000,0.571314
+ set +x
++ printf 'taskset -c 1-2 timeout 100 /home/bcurto/mem-access-simulator/accesstest/accesstest -v -s 100 -d 10 --sess-distr u %s fibre %s\n' '0/245760,0.01 0/245760,0.01' '-w 2'
+ taskset -c 1-2 timeout 100 /home/bcurto/mem-access-simulator/accesstest/accesstest -v -s 100 -d 10 --sess-distr u 0/245760,0.01 0/245760,0.01 fibre -w 2
[0.000s] Creating path with 2 phases.
  Phase 0:
    0 sess-local datalocs, 0.000000 update ratio, inf access count scalar /
    245760 sess-global datalocs, 0.010000 update ratio, inf access count scalar
  Phase 1:
    0 sess-local datalocs, 0.000000 update ratio, inf access count scalar /
    245760 sess-global datalocs, 0.010000 update ratio, inf access count scalar
[0.000s] Creating global buffer at 0x7f0e00000000 of size 31457280 bytes.
[5.988s] Test is ready to start.
Test duration in range [10.000, 10.016] seconds
Num Accesses: 232032468.000000
Throughput: 23203246.800000
Num Accesses - Session Mean & Stddev: 2320324.680000,148783.342255
Num Phases Traversed: 1044.000000
Num Phases Traversed - Session Mean & Stddev: 10.440000,0.605310
Num Path Iterations: 1044.000000
Num Path Iterations - Session Mean & Stddev: 10.440000,0.605310
+ set +x
++ printf 'taskset -c 1-2 timeout 100 /home/bcurto/mem-access-simulator/accesstest/accesstest -v -s 100 -d 10 --sess-distr u %s fibre %s\n' '0/245760,0.01 0/245760,0.01' '-w 2'
+ taskset -c 1-2 timeout 100 /home/bcurto/mem-access-simulator/accesstest/accesstest -v -s 100 -d 10 --sess-distr u 0/245760,0.01 0/245760,0.01 fibre -w 2
[0.000s] Creating path with 2 phases.
  Phase 0:
    0 sess-local datalocs, 0.000000 update ratio, inf access count scalar /
    245760 sess-global datalocs, 0.010000 update ratio, inf access count scalar
  Phase 1:
    0 sess-local datalocs, 0.000000 update ratio, inf access count scalar /
    245760 sess-global datalocs, 0.010000 update ratio, inf access count scalar
[0.000s] Creating global buffer at 0x7fd8c0000000 of size 31457280 bytes.
[6.020s] Test is ready to start.
Test duration in range [10.000, 10.014] seconds
Num Accesses: 232032468.000000
Throughput: 23203246.800000
Num Accesses - Session Mean & Stddev: 2320324.680000,144665.682276
Num Phases Traversed: 1044.000000
Num Phases Traversed - Session Mean & Stddev: 10.440000,0.588558
Num Path Iterations: 1044.000000
Num Path Iterations - Session Mean & Stddev: 10.440000,0.588558
+ set +x
++ printf 'taskset -c 1-2 timeout 100 /home/bcurto/mem-access-simulator/accesstest/accesstest -v -s 100 -d 10 --sess-distr u %s fibre %s\n' '0/245760,0.01 0/245760,0.01' '-w 2'
+ taskset -c 1-2 timeout 100 /home/bcurto/mem-access-simulator/accesstest/accesstest -v -s 100 -d 10 --sess-distr u 0/245760,0.01 0/245760,0.01 fibre -w 2
[0.000s] Creating path with 2 phases.
  Phase 0:
    0 sess-local datalocs, 0.000000 update ratio, inf access count scalar /
    245760 sess-global datalocs, 0.010000 update ratio, inf access count scalar
  Phase 1:
    0 sess-local datalocs, 0.000000 update ratio, inf access count scalar /
    245760 sess-global datalocs, 0.010000 update ratio, inf access count scalar
[0.000s] Creating global buffer at 0x7f3500000000 of size 31457280 bytes.
[6.018s] Test is ready to start.
Test duration in range [10.000, 10.017] seconds
Num Accesses: 232032468.000000
Throughput: 23203246.800000
Num Accesses - Session Mean & Stddev: 2320324.680000,140427.334676
Num Phases Traversed: 1044.000000
Num Phases Traversed - Session Mean & Stddev: 10.440000,0.571314
Num Path Iterations: 1044.000000
Num Path Iterations - Session Mean & Stddev: 10.440000,0.571314
+ set +x
++ printf 'taskset -c 1-2 timeout 100 /home/bcurto/mem-access-simulator/accesstest/accesstest -v -s 100 -d 10 --sess-distr u %s fibre %s\n' '0/245760,0.01 0/245760,0.01' '-w 2'
+ taskset -c 1-2 timeout 100 /home/bcurto/mem-access-simulator/accesstest/accesstest -v -s 100 -d 10 --sess-distr u 0/245760,0.01 0/245760,0.01 fibre -w 2
[0.000s] Creating path with 2 phases.
  Phase 0:
    0 sess-local datalocs, 0.000000 update ratio, inf access count scalar /
    245760 sess-global datalocs, 0.010000 update ratio, inf access count scalar
  Phase 1:
    0 sess-local datalocs, 0.000000 update ratio, inf access count scalar /
    245760 sess-global datalocs, 0.010000 update ratio, inf access count scalar
[0.000s] Creating global buffer at 0x7f6240000000 of size 31457280 bytes.
[6.016s] Test is ready to start.
Test duration in range [10.000, 10.007] seconds
Num Accesses: 232032468.000000
Throughput: 23203246.800000
Num Accesses - Session Mean & Stddev: 2320324.680000,148783.342255
Num Phases Traversed: 1044.000000
Num Phases Traversed - Session Mean & Stddev: 10.440000,0.605310
Num Path Iterations: 1044.000000
Num Path Iterations - Session Mean & Stddev: 10.440000,0.605310
+ set +x
++ printf 'taskset -c 1-2 timeout 100 /home/bcurto/mem-access-simulator/accesstest/accesstest -v -s 100 -d 10 --sess-distr u %s fibre %s\n' '0/245760,0.01 0/245760,0.01' '-w 2'
+ taskset -c 1-2 timeout 100 /home/bcurto/mem-access-simulator/accesstest/accesstest -v -s 100 -d 10 --sess-distr u 0/245760,0.01 0/245760,0.01 fibre -w 2
[0.000s] Creating path with 2 phases.
  Phase 0:
    0 sess-local datalocs, 0.000000 update ratio, inf access count scalar /
    245760 sess-global datalocs, 0.010000 update ratio, inf access count scalar
  Phase 1:
    0 sess-local datalocs, 0.000000 update ratio, inf access count scalar /
    245760 sess-global datalocs, 0.010000 update ratio, inf access count scalar
[0.000s] Creating global buffer at 0x7fb700000000 of size 31457280 bytes.
[6.020s] Test is ready to start.
Test duration in range [10.000, 10.015] seconds
Num Accesses: 232032468.000000
Throughput: 23203246.800000
Num Accesses - Session Mean & Stddev: 2320324.680000,148783.342255
Num Phases Traversed: 1044.000000
Num Phases Traversed - Session Mean & Stddev: 10.440000,0.605310
Num Path Iterations: 1044.000000
Num Path Iterations - Session Mean & Stddev: 10.440000,0.605310
+ set +x
++ printf 'taskset -c 1-2 timeout 100 /home/bcurto/mem-access-simulator/accesstest/accesstest -v -s 100 -d 10 --sess-distr u %s fibre %s\n' '0/245760,0.01 0/245760,0.01' '-w 2'
+ taskset -c 1-2 timeout 100 /home/bcurto/mem-access-simulator/accesstest/accesstest -v -s 100 -d 10 --sess-distr u 0/245760,0.01 0/245760,0.01 fibre -w 2
[0.000s] Creating path with 2 phases.
  Phase 0:
    0 sess-local datalocs, 0.000000 update ratio, inf access count scalar /
    245760 sess-global datalocs, 0.010000 update ratio, inf access count scalar
  Phase 1:
    0 sess-local datalocs, 0.000000 update ratio, inf access count scalar /
    245760 sess-global datalocs, 0.010000 update ratio, inf access count scalar
[0.000s] Creating global buffer at 0x7f35c0000000 of size 31457280 bytes.
[6.021s] Test is ready to start.
Test duration in range [10.000, 10.013] seconds
Num Accesses: 232032468.000000
Throughput: 23203246.800000
Num Accesses - Session Mean & Stddev: 2320324.680000,144665.682276
Num Phases Traversed: 1044.000000
Num Phases Traversed - Session Mean & Stddev: 10.440000,0.588558
Num Path Iterations: 1044.000000
Num Path Iterations - Session Mean & Stddev: 10.440000,0.588558
+ set +x
++ printf 'taskset -c 1-2 timeout 100 /home/bcurto/mem-access-simulator/accesstest/accesstest -v -s 100 -d 10 --sess-distr u %s fibre %s\n' '0/245760,0.01 0/245760,0.01' '-w 2'
+ taskset -c 1-2 timeout 100 /home/bcurto/mem-access-simulator/accesstest/accesstest -v -s 100 -d 10 --sess-distr u 0/245760,0.01 0/245760,0.01 fibre -w 2
[0.000s] Creating path with 2 phases.
  Phase 0:
    0 sess-local datalocs, 0.000000 update ratio, inf access count scalar /
    245760 sess-global datalocs, 0.010000 update ratio, inf access count scalar
  Phase 1:
    0 sess-local datalocs, 0.000000 update ratio, inf access count scalar /
    245760 sess-global datalocs, 0.010000 update ratio, inf access count scalar
[0.000s] Creating global buffer at 0x7f5300000000 of size 31457280 bytes.
[6.016s] Test is ready to start.
Test duration in range [10.000, 10.014] seconds
Num Accesses: 232032468.000000
Throughput: 23203246.800000
Num Accesses - Session Mean & Stddev: 2320324.680000,148783.342255
Num Phases Traversed: 1044.000000
Num Phases Traversed - Session Mean & Stddev: 10.440000,0.605310
Num Path Iterations: 1044.000000
Num Path Iterations - Session Mean & Stddev: 10.440000,0.605310
+ set +x
++ printf 'taskset -c 1-2 timeout 100 /home/bcurto/mem-access-simulator/accesstest/accesstest -v -s 100 -d 10 --sess-distr u %s fibre %s\n' '0/245760,0.01 0/245760,0.01' '-w 2'
+ taskset -c 1-2 timeout 100 /home/bcurto/mem-access-simulator/accesstest/accesstest -v -s 100 -d 10 --sess-distr u 0/245760,0.01 0/245760,0.01 fibre -w 2
[0.000s] Creating path with 2 phases.
  Phase 0:
    0 sess-local datalocs, 0.000000 update ratio, inf access count scalar /
    245760 sess-global datalocs, 0.010000 update ratio, inf access count scalar
  Phase 1:
    0 sess-local datalocs, 0.000000 update ratio, inf access count scalar /
    245760 sess-global datalocs, 0.010000 update ratio, inf access count scalar
[0.000s] Creating global buffer at 0x7fb7c0000000 of size 31457280 bytes.
[6.019s] Test is ready to start.
Test duration in range [10.000, 10.010] seconds
Num Accesses: 232032468.000000
Throughput: 23203246.800000
Num Accesses - Session Mean & Stddev: 2320324.680000,144665.682276
Num Phases Traversed: 1044.000000
Num Phases Traversed - Session Mean & Stddev: 10.440000,0.588558
Num Path Iterations: 1044.000000
Num Path Iterations - Session Mean & Stddev: 10.440000,0.588558
+ set +x
++ printf 'taskset -c 1-2 timeout 100 /home/bcurto/mem-access-simulator/accesstest/accesstest -v -s 100 -d 10 --sess-distr u %s fibre %s\n' '0/245760,0.01 0/245760,0.01' '-w 2'
+ taskset -c 1-2 timeout 100 /home/bcurto/mem-access-simulator/accesstest/accesstest -v -s 100 -d 10 --sess-distr u 0/245760,0.01 0/245760,0.01 fibre -w 2
[0.000s] Creating path with 2 phases.
  Phase 0:
    0 sess-local datalocs, 0.000000 update ratio, inf access count scalar /
    245760 sess-global datalocs, 0.010000 update ratio, inf access count scalar
  Phase 1:
    0 sess-local datalocs, 0.000000 update ratio, inf access count scalar /
    245760 sess-global datalocs, 0.010000 update ratio, inf access count scalar
[0.000s] Creating global buffer at 0x7f49c0000000 of size 31457280 bytes.
[6.018s] Test is ready to start.
Test duration in range [10.000, 10.004] seconds
Num Accesses: 232032468.000000
Throughput: 23203246.800000
Num Accesses - Session Mean & Stddev: 2320324.680000,144665.682276
Num Phases Traversed: 1044.000000
Num Phases Traversed - Session Mean & Stddev: 10.440000,0.588558
Num Path Iterations: 1044.000000
Num Path Iterations - Session Mean & Stddev: 10.440000,0.588558
+ set +x
