++ printf 'taskset -c 1-2 timeout 100 /home/bcurto/mem-access-simulator/accesstest/accesstest -v -s 100 -d 10 --sess-distr u %s fibre %s\n' '0/245760,0.1 0/245760,0.1' '-c 1,1'
+ taskset -c 1-2 timeout 100 /home/bcurto/mem-access-simulator/accesstest/accesstest -v -s 100 -d 10 --sess-distr u 0/245760,0.1 0/245760,0.1 fibre -c 1,1
[0.000s] Creating path with 2 phases.
  Phase 0:
    0 sess-local datalocs, 0.000000 update ratio, inf access count scalar /
    245760 sess-global datalocs, 0.100000 update ratio, inf access count scalar
  Phase 1:
    0 sess-local datalocs, 0.000000 update ratio, inf access count scalar /
    245760 sess-global datalocs, 0.100000 update ratio, inf access count scalar
[0.000s] Creating global buffer at 0x7ff880000000 of size 31457280 bytes.
[6.021s] Test is ready to start.
Test duration in range [10.000, 10.012] seconds
Num Accesses: 228099716.000000
Throughput: 22809971.600000
Num Accesses - Session Mean & Stddev: 2280997.160000,110362.579284
Num Phases Traversed: 1028.000000
Num Phases Traversed - Session Mean & Stddev: 10.280000,0.448999
Num Path Iterations: 1028.000000
Num Path Iterations - Session Mean & Stddev: 10.280000,0.448999
+ set +x
++ printf 'taskset -c 1-2 timeout 100 /home/bcurto/mem-access-simulator/accesstest/accesstest -v -s 100 -d 10 --sess-distr u %s fibre %s\n' '0/245760,0.1 0/245760,0.1' '-c 1,1'
+ taskset -c 1-2 timeout 100 /home/bcurto/mem-access-simulator/accesstest/accesstest -v -s 100 -d 10 --sess-distr u 0/245760,0.1 0/245760,0.1 fibre -c 1,1
[0.000s] Creating path with 2 phases.
  Phase 0:
    0 sess-local datalocs, 0.000000 update ratio, inf access count scalar /
    245760 sess-global datalocs, 0.100000 update ratio, inf access count scalar
  Phase 1:
    0 sess-local datalocs, 0.000000 update ratio, inf access count scalar /
    245760 sess-global datalocs, 0.100000 update ratio, inf access count scalar
[0.000s] Creating global buffer at 0x7f51c0000000 of size 31457280 bytes.
[6.023s] Test is ready to start.
Test duration in range [10.000, 10.015] seconds
Num Accesses: 228099716.000000
Throughput: 22809971.600000
Num Accesses - Session Mean & Stddev: 2280997.160000,110362.579284
Num Phases Traversed: 1028.000000
Num Phases Traversed - Session Mean & Stddev: 10.280000,0.448999
Num Path Iterations: 1028.000000
Num Path Iterations - Session Mean & Stddev: 10.280000,0.448999
+ set +x
++ printf 'taskset -c 1-2 timeout 100 /home/bcurto/mem-access-simulator/accesstest/accesstest -v -s 100 -d 10 --sess-distr u %s fibre %s\n' '0/245760,0.1 0/245760,0.1' '-c 1,1'
+ taskset -c 1-2 timeout 100 /home/bcurto/mem-access-simulator/accesstest/accesstest -v -s 100 -d 10 --sess-distr u 0/245760,0.1 0/245760,0.1 fibre -c 1,1
[0.000s] Creating path with 2 phases.
  Phase 0:
    0 sess-local datalocs, 0.000000 update ratio, inf access count scalar /
    245760 sess-global datalocs, 0.100000 update ratio, inf access count scalar
  Phase 1:
    0 sess-local datalocs, 0.000000 update ratio, inf access count scalar /
    245760 sess-global datalocs, 0.100000 update ratio, inf access count scalar
[0.000s] Creating global buffer at 0x7fc700000000 of size 31457280 bytes.
[6.022s] Test is ready to start.
Test duration in range [10.000, 10.015] seconds
Num Accesses: 228099716.000000
Throughput: 22809971.600000
Num Accesses - Session Mean & Stddev: 2280997.160000,110362.579284
Num Phases Traversed: 1028.000000
Num Phases Traversed - Session Mean & Stddev: 10.280000,0.448999
Num Path Iterations: 1028.000000
Num Path Iterations - Session Mean & Stddev: 10.280000,0.448999
+ set +x
++ printf 'taskset -c 1-2 timeout 100 /home/bcurto/mem-access-simulator/accesstest/accesstest -v -s 100 -d 10 --sess-distr u %s fibre %s\n' '0/245760,0.1 0/245760,0.1' '-c 1,1'
+ taskset -c 1-2 timeout 100 /home/bcurto/mem-access-simulator/accesstest/accesstest -v -s 100 -d 10 --sess-distr u 0/245760,0.1 0/245760,0.1 fibre -c 1,1
[0.000s] Creating path with 2 phases.
  Phase 0:
    0 sess-local datalocs, 0.000000 update ratio, inf access count scalar /
    245760 sess-global datalocs, 0.100000 update ratio, inf access count scalar
  Phase 1:
    0 sess-local datalocs, 0.000000 update ratio, inf access count scalar /
    245760 sess-global datalocs, 0.100000 update ratio, inf access count scalar
[0.000s] Creating global buffer at 0x7f6b40000000 of size 31457280 bytes.
[6.022s] Test is ready to start.
Test duration in range [10.000, 10.014] seconds
Num Accesses: 228099716.000000
Throughput: 22809971.600000
Num Accesses - Session Mean & Stddev: 2280997.160000,110362.579284
Num Phases Traversed: 1028.000000
Num Phases Traversed - Session Mean & Stddev: 10.280000,0.448999
Num Path Iterations: 1028.000000
Num Path Iterations - Session Mean & Stddev: 10.280000,0.448999
+ set +x
++ printf 'taskset -c 1-2 timeout 100 /home/bcurto/mem-access-simulator/accesstest/accesstest -v -s 100 -d 10 --sess-distr u %s fibre %s\n' '0/245760,0.1 0/245760,0.1' '-c 1,1'
+ taskset -c 1-2 timeout 100 /home/bcurto/mem-access-simulator/accesstest/accesstest -v -s 100 -d 10 --sess-distr u 0/245760,0.1 0/245760,0.1 fibre -c 1,1
[0.000s] Creating path with 2 phases.
  Phase 0:
    0 sess-local datalocs, 0.000000 update ratio, inf access count scalar /
    245760 sess-global datalocs, 0.100000 update ratio, inf access count scalar
  Phase 1:
    0 sess-local datalocs, 0.000000 update ratio, inf access count scalar /
    245760 sess-global datalocs, 0.100000 update ratio, inf access count scalar
[0.000s] Creating global buffer at 0x7f1040000000 of size 31457280 bytes.
[6.023s] Test is ready to start.
Test duration in range [10.000, 10.014] seconds
Num Accesses: 228099716.000000
Throughput: 22809971.600000
Num Accesses - Session Mean & Stddev: 2280997.160000,110362.579284
Num Phases Traversed: 1028.000000
Num Phases Traversed - Session Mean & Stddev: 10.280000,0.448999
Num Path Iterations: 1028.000000
Num Path Iterations - Session Mean & Stddev: 10.280000,0.448999
+ set +x
++ printf 'taskset -c 1-2 timeout 100 /home/bcurto/mem-access-simulator/accesstest/accesstest -v -s 100 -d 10 --sess-distr u %s fibre %s\n' '0/245760,0.1 0/245760,0.1' '-c 1,1'
+ taskset -c 1-2 timeout 100 /home/bcurto/mem-access-simulator/accesstest/accesstest -v -s 100 -d 10 --sess-distr u 0/245760,0.1 0/245760,0.1 fibre -c 1,1
[0.000s] Creating path with 2 phases.
  Phase 0:
    0 sess-local datalocs, 0.000000 update ratio, inf access count scalar /
    245760 sess-global datalocs, 0.100000 update ratio, inf access count scalar
  Phase 1:
    0 sess-local datalocs, 0.000000 update ratio, inf access count scalar /
    245760 sess-global datalocs, 0.100000 update ratio, inf access count scalar
[0.000s] Creating global buffer at 0x7f7c40000000 of size 31457280 bytes.
[6.021s] Test is ready to start.
Test duration in range [10.000, 10.013] seconds
Num Accesses: 228099716.000000
Throughput: 22809971.600000
Num Accesses - Session Mean & Stddev: 2280997.160000,110362.579284
Num Phases Traversed: 1028.000000
Num Phases Traversed - Session Mean & Stddev: 10.280000,0.448999
Num Path Iterations: 1028.000000
Num Path Iterations - Session Mean & Stddev: 10.280000,0.448999
+ set +x
++ printf 'taskset -c 1-2 timeout 100 /home/bcurto/mem-access-simulator/accesstest/accesstest -v -s 100 -d 10 --sess-distr u %s fibre %s\n' '0/245760,0.1 0/245760,0.1' '-c 1,1'
+ taskset -c 1-2 timeout 100 /home/bcurto/mem-access-simulator/accesstest/accesstest -v -s 100 -d 10 --sess-distr u 0/245760,0.1 0/245760,0.1 fibre -c 1,1
[0.000s] Creating path with 2 phases.
  Phase 0:
    0 sess-local datalocs, 0.000000 update ratio, inf access count scalar /
    245760 sess-global datalocs, 0.100000 update ratio, inf access count scalar
  Phase 1:
    0 sess-local datalocs, 0.000000 update ratio, inf access count scalar /
    245760 sess-global datalocs, 0.100000 update ratio, inf access count scalar
[0.000s] Creating global buffer at 0x7fb880000000 of size 31457280 bytes.
[6.020s] Test is ready to start.
Test duration in range [10.000, 10.015] seconds
Num Accesses: 228099716.000000
Throughput: 22809971.600000
Num Accesses - Session Mean & Stddev: 2280997.160000,110362.579284
Num Phases Traversed: 1028.000000
Num Phases Traversed - Session Mean & Stddev: 10.280000,0.448999
Num Path Iterations: 1028.000000
Num Path Iterations - Session Mean & Stddev: 10.280000,0.448999
+ set +x
++ printf 'taskset -c 1-2 timeout 100 /home/bcurto/mem-access-simulator/accesstest/accesstest -v -s 100 -d 10 --sess-distr u %s fibre %s\n' '0/245760,0.1 0/245760,0.1' '-c 1,1'
+ taskset -c 1-2 timeout 100 /home/bcurto/mem-access-simulator/accesstest/accesstest -v -s 100 -d 10 --sess-distr u 0/245760,0.1 0/245760,0.1 fibre -c 1,1
[0.000s] Creating path with 2 phases.
  Phase 0:
    0 sess-local datalocs, 0.000000 update ratio, inf access count scalar /
    245760 sess-global datalocs, 0.100000 update ratio, inf access count scalar
  Phase 1:
    0 sess-local datalocs, 0.000000 update ratio, inf access count scalar /
    245760 sess-global datalocs, 0.100000 update ratio, inf access count scalar
[0.000s] Creating global buffer at 0x7ff6c0000000 of size 31457280 bytes.
[6.022s] Test is ready to start.
Test duration in range [10.000, 10.014] seconds
Num Accesses: 228099716.000000
Throughput: 22809971.600000
Num Accesses - Session Mean & Stddev: 2280997.160000,110362.579284
Num Phases Traversed: 1028.000000
Num Phases Traversed - Session Mean & Stddev: 10.280000,0.448999
Num Path Iterations: 1028.000000
Num Path Iterations - Session Mean & Stddev: 10.280000,0.448999
+ set +x
++ printf 'taskset -c 1-2 timeout 100 /home/bcurto/mem-access-simulator/accesstest/accesstest -v -s 100 -d 10 --sess-distr u %s fibre %s\n' '0/245760,0.1 0/245760,0.1' '-c 1,1'
+ taskset -c 1-2 timeout 100 /home/bcurto/mem-access-simulator/accesstest/accesstest -v -s 100 -d 10 --sess-distr u 0/245760,0.1 0/245760,0.1 fibre -c 1,1
[0.000s] Creating path with 2 phases.
  Phase 0:
    0 sess-local datalocs, 0.000000 update ratio, inf access count scalar /
    245760 sess-global datalocs, 0.100000 update ratio, inf access count scalar
  Phase 1:
    0 sess-local datalocs, 0.000000 update ratio, inf access count scalar /
    245760 sess-global datalocs, 0.100000 update ratio, inf access count scalar
[0.000s] Creating global buffer at 0x7f7640000000 of size 31457280 bytes.
[6.022s] Test is ready to start.
Test duration in range [10.000, 10.013] seconds
Num Accesses: 228099716.000000
Throughput: 22809971.600000
Num Accesses - Session Mean & Stddev: 2280997.160000,110362.579284
Num Phases Traversed: 1028.000000
Num Phases Traversed - Session Mean & Stddev: 10.280000,0.448999
Num Path Iterations: 1028.000000
Num Path Iterations - Session Mean & Stddev: 10.280000,0.448999
+ set +x
++ printf 'taskset -c 1-2 timeout 100 /home/bcurto/mem-access-simulator/accesstest/accesstest -v -s 100 -d 10 --sess-distr u %s fibre %s\n' '0/245760,0.1 0/245760,0.1' '-c 1,1'
+ taskset -c 1-2 timeout 100 /home/bcurto/mem-access-simulator/accesstest/accesstest -v -s 100 -d 10 --sess-distr u 0/245760,0.1 0/245760,0.1 fibre -c 1,1
[0.000s] Creating path with 2 phases.
  Phase 0:
    0 sess-local datalocs, 0.000000 update ratio, inf access count scalar /
    245760 sess-global datalocs, 0.100000 update ratio, inf access count scalar
  Phase 1:
    0 sess-local datalocs, 0.000000 update ratio, inf access count scalar /
    245760 sess-global datalocs, 0.100000 update ratio, inf access count scalar
[0.000s] Creating global buffer at 0x7f4640000000 of size 31457280 bytes.
[6.023s] Test is ready to start.
Test duration in range [10.000, 10.015] seconds
Num Accesses: 228099716.000000
Throughput: 22809971.600000
Num Accesses - Session Mean & Stddev: 2280997.160000,110362.579284
Num Phases Traversed: 1028.000000
Num Phases Traversed - Session Mean & Stddev: 10.280000,0.448999
Num Path Iterations: 1028.000000
Num Path Iterations - Session Mean & Stddev: 10.280000,0.448999
+ set +x
++ printf 'taskset -c 1-2 timeout 100 /home/bcurto/mem-access-simulator/accesstest/accesstest -v -s 100 -d 10 --sess-distr u %s fibre %s\n' '0/245760,0.1 0/245760,0.1' '-c 1,1'
+ taskset -c 1-2 timeout 100 /home/bcurto/mem-access-simulator/accesstest/accesstest -v -s 100 -d 10 --sess-distr u 0/245760,0.1 0/245760,0.1 fibre -c 1,1
[0.000s] Creating path with 2 phases.
  Phase 0:
    0 sess-local datalocs, 0.000000 update ratio, inf access count scalar /
    245760 sess-global datalocs, 0.100000 update ratio, inf access count scalar
  Phase 1:
    0 sess-local datalocs, 0.000000 update ratio, inf access count scalar /
    245760 sess-global datalocs, 0.100000 update ratio, inf access count scalar
[0.000s] Creating global buffer at 0x7f6240000000 of size 31457280 bytes.
[6.022s] Test is ready to start.
Test duration in range [10.000, 10.013] seconds
Num Accesses: 228099716.000000
Throughput: 22809971.600000
Num Accesses - Session Mean & Stddev: 2280997.160000,110362.579284
Num Phases Traversed: 1028.000000
Num Phases Traversed - Session Mean & Stddev: 10.280000,0.448999
Num Path Iterations: 1028.000000
Num Path Iterations - Session Mean & Stddev: 10.280000,0.448999
+ set +x
++ printf 'taskset -c 1-2 timeout 100 /home/bcurto/mem-access-simulator/accesstest/accesstest -v -s 100 -d 10 --sess-distr u %s fibre %s\n' '0/245760,0.1 0/245760,0.1' '-c 1,1'
+ taskset -c 1-2 timeout 100 /home/bcurto/mem-access-simulator/accesstest/accesstest -v -s 100 -d 10 --sess-distr u 0/245760,0.1 0/245760,0.1 fibre -c 1,1
[0.000s] Creating path with 2 phases.
  Phase 0:
    0 sess-local datalocs, 0.000000 update ratio, inf access count scalar /
    245760 sess-global datalocs, 0.100000 update ratio, inf access count scalar
  Phase 1:
    0 sess-local datalocs, 0.000000 update ratio, inf access count scalar /
    245760 sess-global datalocs, 0.100000 update ratio, inf access count scalar
[0.000s] Creating global buffer at 0x7f1480000000 of size 31457280 bytes.
[6.020s] Test is ready to start.
Test duration in range [10.000, 10.011] seconds
Num Accesses: 228099716.000000
Throughput: 22809971.600000
Num Accesses - Session Mean & Stddev: 2280997.160000,110362.579284
Num Phases Traversed: 1028.000000
Num Phases Traversed - Session Mean & Stddev: 10.280000,0.448999
Num Path Iterations: 1028.000000
Num Path Iterations - Session Mean & Stddev: 10.280000,0.448999
+ set +x
++ printf 'taskset -c 1-2 timeout 100 /home/bcurto/mem-access-simulator/accesstest/accesstest -v -s 100 -d 10 --sess-distr u %s fibre %s\n' '0/245760,0.1 0/245760,0.1' '-c 1,1'
+ taskset -c 1-2 timeout 100 /home/bcurto/mem-access-simulator/accesstest/accesstest -v -s 100 -d 10 --sess-distr u 0/245760,0.1 0/245760,0.1 fibre -c 1,1
[0.000s] Creating path with 2 phases.
  Phase 0:
    0 sess-local datalocs, 0.000000 update ratio, inf access count scalar /
    245760 sess-global datalocs, 0.100000 update ratio, inf access count scalar
  Phase 1:
    0 sess-local datalocs, 0.000000 update ratio, inf access count scalar /
    245760 sess-global datalocs, 0.100000 update ratio, inf access count scalar
[0.000s] Creating global buffer at 0x7fd040000000 of size 31457280 bytes.
[6.030s] Test is ready to start.
Test duration in range [10.000, 10.015] seconds
Num Accesses: 228099716.000000
Throughput: 22809971.600000
Num Accesses - Session Mean & Stddev: 2280997.160000,110362.579284
Num Phases Traversed: 1028.000000
Num Phases Traversed - Session Mean & Stddev: 10.280000,0.448999
Num Path Iterations: 1028.000000
Num Path Iterations - Session Mean & Stddev: 10.280000,0.448999
+ set +x
++ printf 'taskset -c 1-2 timeout 100 /home/bcurto/mem-access-simulator/accesstest/accesstest -v -s 100 -d 10 --sess-distr u %s fibre %s\n' '0/245760,0.1 0/245760,0.1' '-c 1,1'
+ taskset -c 1-2 timeout 100 /home/bcurto/mem-access-simulator/accesstest/accesstest -v -s 100 -d 10 --sess-distr u 0/245760,0.1 0/245760,0.1 fibre -c 1,1
[0.000s] Creating path with 2 phases.
  Phase 0:
    0 sess-local datalocs, 0.000000 update ratio, inf access count scalar /
    245760 sess-global datalocs, 0.100000 update ratio, inf access count scalar
  Phase 1:
    0 sess-local datalocs, 0.000000 update ratio, inf access count scalar /
    245760 sess-global datalocs, 0.100000 update ratio, inf access count scalar
[0.000s] Creating global buffer at 0x7f4d80000000 of size 31457280 bytes.
[6.021s] Test is ready to start.
Test duration in range [10.000, 10.012] seconds
Num Accesses: 228099716.000000
Throughput: 22809971.600000
Num Accesses - Session Mean & Stddev: 2280997.160000,110362.579284
Num Phases Traversed: 1028.000000
Num Phases Traversed - Session Mean & Stddev: 10.280000,0.448999
Num Path Iterations: 1028.000000
Num Path Iterations - Session Mean & Stddev: 10.280000,0.448999
+ set +x
++ printf 'taskset -c 1-2 timeout 100 /home/bcurto/mem-access-simulator/accesstest/accesstest -v -s 100 -d 10 --sess-distr u %s fibre %s\n' '0/245760,0.1 0/245760,0.1' '-c 1,1'
+ taskset -c 1-2 timeout 100 /home/bcurto/mem-access-simulator/accesstest/accesstest -v -s 100 -d 10 --sess-distr u 0/245760,0.1 0/245760,0.1 fibre -c 1,1
[0.000s] Creating path with 2 phases.
  Phase 0:
    0 sess-local datalocs, 0.000000 update ratio, inf access count scalar /
    245760 sess-global datalocs, 0.100000 update ratio, inf access count scalar
  Phase 1:
    0 sess-local datalocs, 0.000000 update ratio, inf access count scalar /
    245760 sess-global datalocs, 0.100000 update ratio, inf access count scalar
[0.000s] Creating global buffer at 0x7f9040000000 of size 31457280 bytes.
[6.021s] Test is ready to start.
Test duration in range [10.000, 10.016] seconds
Num Accesses: 228099716.000000
Throughput: 22809971.600000
Num Accesses - Session Mean & Stddev: 2280997.160000,110362.579284
Num Phases Traversed: 1028.000000
Num Phases Traversed - Session Mean & Stddev: 10.280000,0.448999
Num Path Iterations: 1028.000000
Num Path Iterations - Session Mean & Stddev: 10.280000,0.448999
+ set +x
++ printf 'taskset -c 1-2 timeout 100 /home/bcurto/mem-access-simulator/accesstest/accesstest -v -s 100 -d 10 --sess-distr u %s fibre %s\n' '0/245760,0.1 0/245760,0.1' '-c 1,1'
+ taskset -c 1-2 timeout 100 /home/bcurto/mem-access-simulator/accesstest/accesstest -v -s 100 -d 10 --sess-distr u 0/245760,0.1 0/245760,0.1 fibre -c 1,1
[0.000s] Creating path with 2 phases.
  Phase 0:
    0 sess-local datalocs, 0.000000 update ratio, inf access count scalar /
    245760 sess-global datalocs, 0.100000 update ratio, inf access count scalar
  Phase 1:
    0 sess-local datalocs, 0.000000 update ratio, inf access count scalar /
    245760 sess-global datalocs, 0.100000 update ratio, inf access count scalar
[0.000s] Creating global buffer at 0x7ff940000000 of size 31457280 bytes.
[6.021s] Test is ready to start.
Test duration in range [10.000, 10.012] seconds
Num Accesses: 228099716.000000
Throughput: 22809971.600000
Num Accesses - Session Mean & Stddev: 2280997.160000,110362.579284
Num Phases Traversed: 1028.000000
Num Phases Traversed - Session Mean & Stddev: 10.280000,0.448999
Num Path Iterations: 1028.000000
Num Path Iterations - Session Mean & Stddev: 10.280000,0.448999
+ set +x
++ printf 'taskset -c 1-2 timeout 100 /home/bcurto/mem-access-simulator/accesstest/accesstest -v -s 100 -d 10 --sess-distr u %s fibre %s\n' '0/245760,0.1 0/245760,0.1' '-c 1,1'
+ taskset -c 1-2 timeout 100 /home/bcurto/mem-access-simulator/accesstest/accesstest -v -s 100 -d 10 --sess-distr u 0/245760,0.1 0/245760,0.1 fibre -c 1,1
[0.000s] Creating path with 2 phases.
  Phase 0:
    0 sess-local datalocs, 0.000000 update ratio, inf access count scalar /
    245760 sess-global datalocs, 0.100000 update ratio, inf access count scalar
  Phase 1:
    0 sess-local datalocs, 0.000000 update ratio, inf access count scalar /
    245760 sess-global datalocs, 0.100000 update ratio, inf access count scalar
[0.000s] Creating global buffer at 0x7f5700000000 of size 31457280 bytes.
[6.028s] Test is ready to start.
Test duration in range [10.000, 10.013] seconds
Num Accesses: 228099716.000000
Throughput: 22809971.600000
Num Accesses - Session Mean & Stddev: 2280997.160000,110362.579284
Num Phases Traversed: 1028.000000
Num Phases Traversed - Session Mean & Stddev: 10.280000,0.448999
Num Path Iterations: 1028.000000
Num Path Iterations - Session Mean & Stddev: 10.280000,0.448999
+ set +x
++ printf 'taskset -c 1-2 timeout 100 /home/bcurto/mem-access-simulator/accesstest/accesstest -v -s 100 -d 10 --sess-distr u %s fibre %s\n' '0/245760,0.1 0/245760,0.1' '-c 1,1'
+ taskset -c 1-2 timeout 100 /home/bcurto/mem-access-simulator/accesstest/accesstest -v -s 100 -d 10 --sess-distr u 0/245760,0.1 0/245760,0.1 fibre -c 1,1
[0.000s] Creating path with 2 phases.
  Phase 0:
    0 sess-local datalocs, 0.000000 update ratio, inf access count scalar /
    245760 sess-global datalocs, 0.100000 update ratio, inf access count scalar
  Phase 1:
    0 sess-local datalocs, 0.000000 update ratio, inf access count scalar /
    245760 sess-global datalocs, 0.100000 update ratio, inf access count scalar
[0.000s] Creating global buffer at 0x7fd6c0000000 of size 31457280 bytes.
[6.023s] Test is ready to start.
Test duration in range [10.000, 10.009] seconds
Num Accesses: 228099716.000000
Throughput: 22809971.600000
Num Accesses - Session Mean & Stddev: 2280997.160000,110362.579284
Num Phases Traversed: 1028.000000
Num Phases Traversed - Session Mean & Stddev: 10.280000,0.448999
Num Path Iterations: 1028.000000
Num Path Iterations - Session Mean & Stddev: 10.280000,0.448999
+ set +x
++ printf 'taskset -c 1-2 timeout 100 /home/bcurto/mem-access-simulator/accesstest/accesstest -v -s 100 -d 10 --sess-distr u %s fibre %s\n' '0/245760,0.1 0/245760,0.1' '-c 1,1'
+ taskset -c 1-2 timeout 100 /home/bcurto/mem-access-simulator/accesstest/accesstest -v -s 100 -d 10 --sess-distr u 0/245760,0.1 0/245760,0.1 fibre -c 1,1
[0.000s] Creating path with 2 phases.
  Phase 0:
    0 sess-local datalocs, 0.000000 update ratio, inf access count scalar /
    245760 sess-global datalocs, 0.100000 update ratio, inf access count scalar
  Phase 1:
    0 sess-local datalocs, 0.000000 update ratio, inf access count scalar /
    245760 sess-global datalocs, 0.100000 update ratio, inf access count scalar
[0.000s] Creating global buffer at 0x7f2fc0000000 of size 31457280 bytes.
[6.028s] Test is ready to start.
Test duration in range [10.000, 10.013] seconds
Num Accesses: 228099716.000000
Throughput: 22809971.600000
Num Accesses - Session Mean & Stddev: 2280997.160000,110362.579284
Num Phases Traversed: 1028.000000
Num Phases Traversed - Session Mean & Stddev: 10.280000,0.448999
Num Path Iterations: 1028.000000
Num Path Iterations - Session Mean & Stddev: 10.280000,0.448999
+ set +x
++ printf 'taskset -c 1-2 timeout 100 /home/bcurto/mem-access-simulator/accesstest/accesstest -v -s 100 -d 10 --sess-distr u %s fibre %s\n' '0/245760,0.1 0/245760,0.1' '-c 1,1'
+ taskset -c 1-2 timeout 100 /home/bcurto/mem-access-simulator/accesstest/accesstest -v -s 100 -d 10 --sess-distr u 0/245760,0.1 0/245760,0.1 fibre -c 1,1
[0.000s] Creating path with 2 phases.
  Phase 0:
    0 sess-local datalocs, 0.000000 update ratio, inf access count scalar /
    245760 sess-global datalocs, 0.100000 update ratio, inf access count scalar
  Phase 1:
    0 sess-local datalocs, 0.000000 update ratio, inf access count scalar /
    245760 sess-global datalocs, 0.100000 update ratio, inf access count scalar
[0.000s] Creating global buffer at 0x7ffac0000000 of size 31457280 bytes.
[6.020s] Test is ready to start.
Test duration in range [10.000, 10.013] seconds
Num Accesses: 228099716.000000
Throughput: 22809971.600000
Num Accesses - Session Mean & Stddev: 2280997.160000,110362.579284
Num Phases Traversed: 1028.000000
Num Phases Traversed - Session Mean & Stddev: 10.280000,0.448999
Num Path Iterations: 1028.000000
Num Path Iterations - Session Mean & Stddev: 10.280000,0.448999
+ set +x
