++ printf 'taskset -c 1-2 timeout 100 /home/bcurto/mem-access-simulator/accesstest/accesstest -v -s 100 -d 10 --sess-distr u %s fibre %s\n' '0/196608,1 0/196608,1' '-c 1,1'
+ taskset -c 1-2 timeout 100 /home/bcurto/mem-access-simulator/accesstest/accesstest -v -s 100 -d 10 --sess-distr u 0/196608,1 0/196608,1 fibre -c 1,1
[0.000s] Creating path with 2 phases.
  Phase 0:
    0 sess-local datalocs, 0.000000 update ratio, inf access count scalar /
    196608 sess-global datalocs, 1.000000 update ratio, inf access count scalar
  Phase 1:
    0 sess-local datalocs, 0.000000 update ratio, inf access count scalar /
    196608 sess-global datalocs, 1.000000 update ratio, inf access count scalar
[0.000s] Creating global buffer at 0x7f9e00000000 of size 25165824 bytes.
[5.109s] Test is ready to start.
Test duration in range [10.000, 10.011] seconds
Num Accesses: 229681460.000000
Throughput: 22968146.000000
Num Accesses - Session Mean & Stddev: 2296814.600000,91730.202829
Num Phases Traversed: 1268.000000
Num Phases Traversed - Session Mean & Stddev: 12.680000,0.466476
Num Path Iterations: 1268.000000
Num Path Iterations - Session Mean & Stddev: 12.680000,0.466476
+ set +x
++ printf 'taskset -c 1-2 timeout 100 /home/bcurto/mem-access-simulator/accesstest/accesstest -v -s 100 -d 10 --sess-distr u %s fibre %s\n' '0/196608,1 0/196608,1' '-c 1,1'
+ taskset -c 1-2 timeout 100 /home/bcurto/mem-access-simulator/accesstest/accesstest -v -s 100 -d 10 --sess-distr u 0/196608,1 0/196608,1 fibre -c 1,1
[0.000s] Creating path with 2 phases.
  Phase 0:
    0 sess-local datalocs, 0.000000 update ratio, inf access count scalar /
    196608 sess-global datalocs, 1.000000 update ratio, inf access count scalar
  Phase 1:
    0 sess-local datalocs, 0.000000 update ratio, inf access count scalar /
    196608 sess-global datalocs, 1.000000 update ratio, inf access count scalar
[0.000s] Creating global buffer at 0x7f5980000000 of size 25165824 bytes.
[5.110s] Test is ready to start.
Test duration in range [10.000, 10.012] seconds
Num Accesses: 229681460.000000
Throughput: 22968146.000000
Num Accesses - Session Mean & Stddev: 2296814.600000,91730.202829
Num Phases Traversed: 1268.000000
Num Phases Traversed - Session Mean & Stddev: 12.680000,0.466476
Num Path Iterations: 1268.000000
Num Path Iterations - Session Mean & Stddev: 12.680000,0.466476
+ set +x
++ printf 'taskset -c 1-2 timeout 100 /home/bcurto/mem-access-simulator/accesstest/accesstest -v -s 100 -d 10 --sess-distr u %s fibre %s\n' '0/196608,1 0/196608,1' '-c 1,1'
+ taskset -c 1-2 timeout 100 /home/bcurto/mem-access-simulator/accesstest/accesstest -v -s 100 -d 10 --sess-distr u 0/196608,1 0/196608,1 fibre -c 1,1
[0.000s] Creating path with 2 phases.
  Phase 0:
    0 sess-local datalocs, 0.000000 update ratio, inf access count scalar /
    196608 sess-global datalocs, 1.000000 update ratio, inf access count scalar
  Phase 1:
    0 sess-local datalocs, 0.000000 update ratio, inf access count scalar /
    196608 sess-global datalocs, 1.000000 update ratio, inf access count scalar
[0.000s] Creating global buffer at 0x7fbb00000000 of size 25165824 bytes.
[5.109s] Test is ready to start.
Test duration in range [10.000, 10.011] seconds
Num Accesses: 229681460.000000
Throughput: 22968146.000000
Num Accesses - Session Mean & Stddev: 2296814.600000,91730.202829
Num Phases Traversed: 1268.000000
Num Phases Traversed - Session Mean & Stddev: 12.680000,0.466476
Num Path Iterations: 1268.000000
Num Path Iterations - Session Mean & Stddev: 12.680000,0.466476
+ set +x
++ printf 'taskset -c 1-2 timeout 100 /home/bcurto/mem-access-simulator/accesstest/accesstest -v -s 100 -d 10 --sess-distr u %s fibre %s\n' '0/196608,1 0/196608,1' '-c 1,1'
+ taskset -c 1-2 timeout 100 /home/bcurto/mem-access-simulator/accesstest/accesstest -v -s 100 -d 10 --sess-distr u 0/196608,1 0/196608,1 fibre -c 1,1
[0.000s] Creating path with 2 phases.
  Phase 0:
    0 sess-local datalocs, 0.000000 update ratio, inf access count scalar /
    196608 sess-global datalocs, 1.000000 update ratio, inf access count scalar
  Phase 1:
    0 sess-local datalocs, 0.000000 update ratio, inf access count scalar /
    196608 sess-global datalocs, 1.000000 update ratio, inf access count scalar
[0.000s] Creating global buffer at 0x7f9900000000 of size 25165824 bytes.
[5.109s] Test is ready to start.
Test duration in range [10.000, 10.014] seconds
Num Accesses: 229681460.000000
Throughput: 22968146.000000
Num Accesses - Session Mean & Stddev: 2296814.600000,91730.202829
Num Phases Traversed: 1268.000000
Num Phases Traversed - Session Mean & Stddev: 12.680000,0.466476
Num Path Iterations: 1268.000000
Num Path Iterations - Session Mean & Stddev: 12.680000,0.466476
+ set +x
++ printf 'taskset -c 1-2 timeout 100 /home/bcurto/mem-access-simulator/accesstest/accesstest -v -s 100 -d 10 --sess-distr u %s fibre %s\n' '0/196608,1 0/196608,1' '-c 1,1'
+ taskset -c 1-2 timeout 100 /home/bcurto/mem-access-simulator/accesstest/accesstest -v -s 100 -d 10 --sess-distr u 0/196608,1 0/196608,1 fibre -c 1,1
[0.000s] Creating path with 2 phases.
  Phase 0:
    0 sess-local datalocs, 0.000000 update ratio, inf access count scalar /
    196608 sess-global datalocs, 1.000000 update ratio, inf access count scalar
  Phase 1:
    0 sess-local datalocs, 0.000000 update ratio, inf access count scalar /
    196608 sess-global datalocs, 1.000000 update ratio, inf access count scalar
[0.000s] Creating global buffer at 0x7fe900000000 of size 25165824 bytes.
[5.111s] Test is ready to start.
Test duration in range [10.000, 10.012] seconds
Num Accesses: 229681460.000000
Throughput: 22968146.000000
Num Accesses - Session Mean & Stddev: 2296814.600000,91730.202829
Num Phases Traversed: 1268.000000
Num Phases Traversed - Session Mean & Stddev: 12.680000,0.466476
Num Path Iterations: 1268.000000
Num Path Iterations - Session Mean & Stddev: 12.680000,0.466476
+ set +x
++ printf 'taskset -c 1-2 timeout 100 /home/bcurto/mem-access-simulator/accesstest/accesstest -v -s 100 -d 10 --sess-distr u %s fibre %s\n' '0/196608,1 0/196608,1' '-c 1,1'
+ taskset -c 1-2 timeout 100 /home/bcurto/mem-access-simulator/accesstest/accesstest -v -s 100 -d 10 --sess-distr u 0/196608,1 0/196608,1 fibre -c 1,1
[0.000s] Creating path with 2 phases.
  Phase 0:
    0 sess-local datalocs, 0.000000 update ratio, inf access count scalar /
    196608 sess-global datalocs, 1.000000 update ratio, inf access count scalar
  Phase 1:
    0 sess-local datalocs, 0.000000 update ratio, inf access count scalar /
    196608 sess-global datalocs, 1.000000 update ratio, inf access count scalar
[0.000s] Creating global buffer at 0x7f95c0000000 of size 25165824 bytes.
[5.109s] Test is ready to start.
Test duration in range [10.000, 10.010] seconds
Num Accesses: 229681460.000000
Throughput: 22968146.000000
Num Accesses - Session Mean & Stddev: 2296814.600000,91730.202829
Num Phases Traversed: 1268.000000
Num Phases Traversed - Session Mean & Stddev: 12.680000,0.466476
Num Path Iterations: 1268.000000
Num Path Iterations - Session Mean & Stddev: 12.680000,0.466476
+ set +x
++ printf 'taskset -c 1-2 timeout 100 /home/bcurto/mem-access-simulator/accesstest/accesstest -v -s 100 -d 10 --sess-distr u %s fibre %s\n' '0/196608,1 0/196608,1' '-c 1,1'
+ taskset -c 1-2 timeout 100 /home/bcurto/mem-access-simulator/accesstest/accesstest -v -s 100 -d 10 --sess-distr u 0/196608,1 0/196608,1 fibre -c 1,1
[0.000s] Creating path with 2 phases.
  Phase 0:
    0 sess-local datalocs, 0.000000 update ratio, inf access count scalar /
    196608 sess-global datalocs, 1.000000 update ratio, inf access count scalar
  Phase 1:
    0 sess-local datalocs, 0.000000 update ratio, inf access count scalar /
    196608 sess-global datalocs, 1.000000 update ratio, inf access count scalar
[0.000s] Creating global buffer at 0x7f62c0000000 of size 25165824 bytes.
[5.122s] Test is ready to start.
Test duration in range [10.000, 10.012] seconds
Num Accesses: 229681460.000000
Throughput: 22968146.000000
Num Accesses - Session Mean & Stddev: 2296814.600000,91730.202829
Num Phases Traversed: 1268.000000
Num Phases Traversed - Session Mean & Stddev: 12.680000,0.466476
Num Path Iterations: 1268.000000
Num Path Iterations - Session Mean & Stddev: 12.680000,0.466476
+ set +x
++ printf 'taskset -c 1-2 timeout 100 /home/bcurto/mem-access-simulator/accesstest/accesstest -v -s 100 -d 10 --sess-distr u %s fibre %s\n' '0/196608,1 0/196608,1' '-c 1,1'
+ taskset -c 1-2 timeout 100 /home/bcurto/mem-access-simulator/accesstest/accesstest -v -s 100 -d 10 --sess-distr u 0/196608,1 0/196608,1 fibre -c 1,1
[0.000s] Creating path with 2 phases.
  Phase 0:
    0 sess-local datalocs, 0.000000 update ratio, inf access count scalar /
    196608 sess-global datalocs, 1.000000 update ratio, inf access count scalar
  Phase 1:
    0 sess-local datalocs, 0.000000 update ratio, inf access count scalar /
    196608 sess-global datalocs, 1.000000 update ratio, inf access count scalar
[0.000s] Creating global buffer at 0x7f3ac0000000 of size 25165824 bytes.
[5.108s] Test is ready to start.
Test duration in range [10.000, 10.010] seconds
Num Accesses: 229681460.000000
Throughput: 22968146.000000
Num Accesses - Session Mean & Stddev: 2296814.600000,91730.202829
Num Phases Traversed: 1268.000000
Num Phases Traversed - Session Mean & Stddev: 12.680000,0.466476
Num Path Iterations: 1268.000000
Num Path Iterations - Session Mean & Stddev: 12.680000,0.466476
+ set +x
++ printf 'taskset -c 1-2 timeout 100 /home/bcurto/mem-access-simulator/accesstest/accesstest -v -s 100 -d 10 --sess-distr u %s fibre %s\n' '0/196608,1 0/196608,1' '-c 1,1'
+ taskset -c 1-2 timeout 100 /home/bcurto/mem-access-simulator/accesstest/accesstest -v -s 100 -d 10 --sess-distr u 0/196608,1 0/196608,1 fibre -c 1,1
[0.000s] Creating path with 2 phases.
  Phase 0:
    0 sess-local datalocs, 0.000000 update ratio, inf access count scalar /
    196608 sess-global datalocs, 1.000000 update ratio, inf access count scalar
  Phase 1:
    0 sess-local datalocs, 0.000000 update ratio, inf access count scalar /
    196608 sess-global datalocs, 1.000000 update ratio, inf access count scalar
[0.000s] Creating global buffer at 0x7f7140000000 of size 25165824 bytes.
[5.107s] Test is ready to start.
Test duration in range [10.000, 10.011] seconds
Num Accesses: 229681460.000000
Throughput: 22968146.000000
Num Accesses - Session Mean & Stddev: 2296814.600000,91730.202829
Num Phases Traversed: 1268.000000
Num Phases Traversed - Session Mean & Stddev: 12.680000,0.466476
Num Path Iterations: 1268.000000
Num Path Iterations - Session Mean & Stddev: 12.680000,0.466476
+ set +x
++ printf 'taskset -c 1-2 timeout 100 /home/bcurto/mem-access-simulator/accesstest/accesstest -v -s 100 -d 10 --sess-distr u %s fibre %s\n' '0/196608,1 0/196608,1' '-c 1,1'
+ taskset -c 1-2 timeout 100 /home/bcurto/mem-access-simulator/accesstest/accesstest -v -s 100 -d 10 --sess-distr u 0/196608,1 0/196608,1 fibre -c 1,1
[0.000s] Creating path with 2 phases.
  Phase 0:
    0 sess-local datalocs, 0.000000 update ratio, inf access count scalar /
    196608 sess-global datalocs, 1.000000 update ratio, inf access count scalar
  Phase 1:
    0 sess-local datalocs, 0.000000 update ratio, inf access count scalar /
    196608 sess-global datalocs, 1.000000 update ratio, inf access count scalar
[0.000s] Creating global buffer at 0x7f4a80000000 of size 25165824 bytes.
[5.110s] Test is ready to start.
Test duration in range [10.000, 10.012] seconds
Num Accesses: 229681460.000000
Throughput: 22968146.000000
Num Accesses - Session Mean & Stddev: 2296814.600000,91730.202829
Num Phases Traversed: 1268.000000
Num Phases Traversed - Session Mean & Stddev: 12.680000,0.466476
Num Path Iterations: 1268.000000
Num Path Iterations - Session Mean & Stddev: 12.680000,0.466476
+ set +x
++ printf 'taskset -c 1-2 timeout 100 /home/bcurto/mem-access-simulator/accesstest/accesstest -v -s 100 -d 10 --sess-distr u %s fibre %s\n' '0/196608,1 0/196608,1' '-c 1,1'
+ taskset -c 1-2 timeout 100 /home/bcurto/mem-access-simulator/accesstest/accesstest -v -s 100 -d 10 --sess-distr u 0/196608,1 0/196608,1 fibre -c 1,1
[0.000s] Creating path with 2 phases.
  Phase 0:
    0 sess-local datalocs, 0.000000 update ratio, inf access count scalar /
    196608 sess-global datalocs, 1.000000 update ratio, inf access count scalar
  Phase 1:
    0 sess-local datalocs, 0.000000 update ratio, inf access count scalar /
    196608 sess-global datalocs, 1.000000 update ratio, inf access count scalar
[0.000s] Creating global buffer at 0x7f2380000000 of size 25165824 bytes.
[5.081s] Test is ready to start.
Test duration in range [10.000, 10.012] seconds
Num Accesses: 227911655.000000
Throughput: 22791165.500000
Num Accesses - Session Mean & Stddev: 2279116.550000,96716.560280
Num Phases Traversed: 1259.000000
Num Phases Traversed - Session Mean & Stddev: 12.590000,0.491833
Num Path Iterations: 1259.000000
Num Path Iterations - Session Mean & Stddev: 12.590000,0.491833
+ set +x
++ printf 'taskset -c 1-2 timeout 100 /home/bcurto/mem-access-simulator/accesstest/accesstest -v -s 100 -d 10 --sess-distr u %s fibre %s\n' '0/196608,1 0/196608,1' '-c 1,1'
+ taskset -c 1-2 timeout 100 /home/bcurto/mem-access-simulator/accesstest/accesstest -v -s 100 -d 10 --sess-distr u 0/196608,1 0/196608,1 fibre -c 1,1
[0.000s] Creating path with 2 phases.
  Phase 0:
    0 sess-local datalocs, 0.000000 update ratio, inf access count scalar /
    196608 sess-global datalocs, 1.000000 update ratio, inf access count scalar
  Phase 1:
    0 sess-local datalocs, 0.000000 update ratio, inf access count scalar /
    196608 sess-global datalocs, 1.000000 update ratio, inf access count scalar
[0.000s] Creating global buffer at 0x7f11c0000000 of size 25165824 bytes.
[5.048s] Test is ready to start.
Test duration in range [10.000, 10.013] seconds
Num Accesses: 228698235.000000
Throughput: 22869823.500000
Num Accesses - Session Mean & Stddev: 2286982.350000,94941.053183
Num Phases Traversed: 1263.000000
Num Phases Traversed - Session Mean & Stddev: 12.630000,0.482804
Num Path Iterations: 1263.000000
Num Path Iterations - Session Mean & Stddev: 12.630000,0.482804
+ set +x
++ printf 'taskset -c 1-2 timeout 100 /home/bcurto/mem-access-simulator/accesstest/accesstest -v -s 100 -d 10 --sess-distr u %s fibre %s\n' '0/196608,1 0/196608,1' '-c 1,1'
+ taskset -c 1-2 timeout 100 /home/bcurto/mem-access-simulator/accesstest/accesstest -v -s 100 -d 10 --sess-distr u 0/196608,1 0/196608,1 fibre -c 1,1
[0.000s] Creating path with 2 phases.
  Phase 0:
    0 sess-local datalocs, 0.000000 update ratio, inf access count scalar /
    196608 sess-global datalocs, 1.000000 update ratio, inf access count scalar
  Phase 1:
    0 sess-local datalocs, 0.000000 update ratio, inf access count scalar /
    196608 sess-global datalocs, 1.000000 update ratio, inf access count scalar
[0.000s] Creating global buffer at 0x7fb800000000 of size 25165824 bytes.
[5.112s] Test is ready to start.
Test duration in range [10.000, 10.012] seconds
Num Accesses: 229681460.000000
Throughput: 22968146.000000
Num Accesses - Session Mean & Stddev: 2296814.600000,91730.202829
Num Phases Traversed: 1268.000000
Num Phases Traversed - Session Mean & Stddev: 12.680000,0.466476
Num Path Iterations: 1268.000000
Num Path Iterations - Session Mean & Stddev: 12.680000,0.466476
+ set +x
++ printf 'taskset -c 1-2 timeout 100 /home/bcurto/mem-access-simulator/accesstest/accesstest -v -s 100 -d 10 --sess-distr u %s fibre %s\n' '0/196608,1 0/196608,1' '-c 1,1'
+ taskset -c 1-2 timeout 100 /home/bcurto/mem-access-simulator/accesstest/accesstest -v -s 100 -d 10 --sess-distr u 0/196608,1 0/196608,1 fibre -c 1,1
[0.000s] Creating path with 2 phases.
  Phase 0:
    0 sess-local datalocs, 0.000000 update ratio, inf access count scalar /
    196608 sess-global datalocs, 1.000000 update ratio, inf access count scalar
  Phase 1:
    0 sess-local datalocs, 0.000000 update ratio, inf access count scalar /
    196608 sess-global datalocs, 1.000000 update ratio, inf access count scalar
[0.000s] Creating global buffer at 0x7fb7c0000000 of size 25165824 bytes.
[5.101s] Test is ready to start.
Test duration in range [10.000, 10.012] seconds
Num Accesses: 229681460.000000
Throughput: 22968146.000000
Num Accesses - Session Mean & Stddev: 2296814.600000,91730.202829
Num Phases Traversed: 1268.000000
Num Phases Traversed - Session Mean & Stddev: 12.680000,0.466476
Num Path Iterations: 1268.000000
Num Path Iterations - Session Mean & Stddev: 12.680000,0.466476
+ set +x
++ printf 'taskset -c 1-2 timeout 100 /home/bcurto/mem-access-simulator/accesstest/accesstest -v -s 100 -d 10 --sess-distr u %s fibre %s\n' '0/196608,1 0/196608,1' '-c 1,1'
+ taskset -c 1-2 timeout 100 /home/bcurto/mem-access-simulator/accesstest/accesstest -v -s 100 -d 10 --sess-distr u 0/196608,1 0/196608,1 fibre -c 1,1
[0.000s] Creating path with 2 phases.
  Phase 0:
    0 sess-local datalocs, 0.000000 update ratio, inf access count scalar /
    196608 sess-global datalocs, 1.000000 update ratio, inf access count scalar
  Phase 1:
    0 sess-local datalocs, 0.000000 update ratio, inf access count scalar /
    196608 sess-global datalocs, 1.000000 update ratio, inf access count scalar
[0.000s] Creating global buffer at 0x7faf40000000 of size 25165824 bytes.
[5.109s] Test is ready to start.
Test duration in range [10.000, 10.010] seconds
Num Accesses: 229681460.000000
Throughput: 22968146.000000
Num Accesses - Session Mean & Stddev: 2296814.600000,91730.202829
Num Phases Traversed: 1268.000000
Num Phases Traversed - Session Mean & Stddev: 12.680000,0.466476
Num Path Iterations: 1268.000000
Num Path Iterations - Session Mean & Stddev: 12.680000,0.466476
+ set +x
++ printf 'taskset -c 1-2 timeout 100 /home/bcurto/mem-access-simulator/accesstest/accesstest -v -s 100 -d 10 --sess-distr u %s fibre %s\n' '0/196608,1 0/196608,1' '-c 1,1'
+ taskset -c 1-2 timeout 100 /home/bcurto/mem-access-simulator/accesstest/accesstest -v -s 100 -d 10 --sess-distr u 0/196608,1 0/196608,1 fibre -c 1,1
[0.000s] Creating path with 2 phases.
  Phase 0:
    0 sess-local datalocs, 0.000000 update ratio, inf access count scalar /
    196608 sess-global datalocs, 1.000000 update ratio, inf access count scalar
  Phase 1:
    0 sess-local datalocs, 0.000000 update ratio, inf access count scalar /
    196608 sess-global datalocs, 1.000000 update ratio, inf access count scalar
[0.000s] Creating global buffer at 0x7f0f80000000 of size 25165824 bytes.
[5.110s] Test is ready to start.
Test duration in range [10.000, 10.012] seconds
Num Accesses: 229681460.000000
Throughput: 22968146.000000
Num Accesses - Session Mean & Stddev: 2296814.600000,91730.202829
Num Phases Traversed: 1268.000000
Num Phases Traversed - Session Mean & Stddev: 12.680000,0.466476
Num Path Iterations: 1268.000000
Num Path Iterations - Session Mean & Stddev: 12.680000,0.466476
+ set +x
++ printf 'taskset -c 1-2 timeout 100 /home/bcurto/mem-access-simulator/accesstest/accesstest -v -s 100 -d 10 --sess-distr u %s fibre %s\n' '0/196608,1 0/196608,1' '-c 1,1'
+ taskset -c 1-2 timeout 100 /home/bcurto/mem-access-simulator/accesstest/accesstest -v -s 100 -d 10 --sess-distr u 0/196608,1 0/196608,1 fibre -c 1,1
[0.000s] Creating path with 2 phases.
  Phase 0:
    0 sess-local datalocs, 0.000000 update ratio, inf access count scalar /
    196608 sess-global datalocs, 1.000000 update ratio, inf access count scalar
  Phase 1:
    0 sess-local datalocs, 0.000000 update ratio, inf access count scalar /
    196608 sess-global datalocs, 1.000000 update ratio, inf access count scalar
[0.000s] Creating global buffer at 0x7fd5c0000000 of size 25165824 bytes.
[5.109s] Test is ready to start.
Test duration in range [10.000, 10.011] seconds
Num Accesses: 229681460.000000
Throughput: 22968146.000000
Num Accesses - Session Mean & Stddev: 2296814.600000,91730.202829
Num Phases Traversed: 1268.000000
Num Phases Traversed - Session Mean & Stddev: 12.680000,0.466476
Num Path Iterations: 1268.000000
Num Path Iterations - Session Mean & Stddev: 12.680000,0.466476
+ set +x
++ printf 'taskset -c 1-2 timeout 100 /home/bcurto/mem-access-simulator/accesstest/accesstest -v -s 100 -d 10 --sess-distr u %s fibre %s\n' '0/196608,1 0/196608,1' '-c 1,1'
+ taskset -c 1-2 timeout 100 /home/bcurto/mem-access-simulator/accesstest/accesstest -v -s 100 -d 10 --sess-distr u 0/196608,1 0/196608,1 fibre -c 1,1
[0.000s] Creating path with 2 phases.
  Phase 0:
    0 sess-local datalocs, 0.000000 update ratio, inf access count scalar /
    196608 sess-global datalocs, 1.000000 update ratio, inf access count scalar
  Phase 1:
    0 sess-local datalocs, 0.000000 update ratio, inf access count scalar /
    196608 sess-global datalocs, 1.000000 update ratio, inf access count scalar
[0.000s] Creating global buffer at 0x7fbf40000000 of size 25165824 bytes.
[5.110s] Test is ready to start.
Test duration in range [10.000, 10.013] seconds
Num Accesses: 229681460.000000
Throughput: 22968146.000000
Num Accesses - Session Mean & Stddev: 2296814.600000,91730.202829
Num Phases Traversed: 1268.000000
Num Phases Traversed - Session Mean & Stddev: 12.680000,0.466476
Num Path Iterations: 1268.000000
Num Path Iterations - Session Mean & Stddev: 12.680000,0.466476
+ set +x
++ printf 'taskset -c 1-2 timeout 100 /home/bcurto/mem-access-simulator/accesstest/accesstest -v -s 100 -d 10 --sess-distr u %s fibre %s\n' '0/196608,1 0/196608,1' '-c 1,1'
+ taskset -c 1-2 timeout 100 /home/bcurto/mem-access-simulator/accesstest/accesstest -v -s 100 -d 10 --sess-distr u 0/196608,1 0/196608,1 fibre -c 1,1
[0.000s] Creating path with 2 phases.
  Phase 0:
    0 sess-local datalocs, 0.000000 update ratio, inf access count scalar /
    196608 sess-global datalocs, 1.000000 update ratio, inf access count scalar
  Phase 1:
    0 sess-local datalocs, 0.000000 update ratio, inf access count scalar /
    196608 sess-global datalocs, 1.000000 update ratio, inf access count scalar
[0.000s] Creating global buffer at 0x7f2d80000000 of size 25165824 bytes.
[5.108s] Test is ready to start.
Test duration in range [10.000, 10.013] seconds
Num Accesses: 229681460.000000
Throughput: 22968146.000000
Num Accesses - Session Mean & Stddev: 2296814.600000,91730.202829
Num Phases Traversed: 1268.000000
Num Phases Traversed - Session Mean & Stddev: 12.680000,0.466476
Num Path Iterations: 1268.000000
Num Path Iterations - Session Mean & Stddev: 12.680000,0.466476
+ set +x
++ printf 'taskset -c 1-2 timeout 100 /home/bcurto/mem-access-simulator/accesstest/accesstest -v -s 100 -d 10 --sess-distr u %s fibre %s\n' '0/196608,1 0/196608,1' '-c 1,1'
+ taskset -c 1-2 timeout 100 /home/bcurto/mem-access-simulator/accesstest/accesstest -v -s 100 -d 10 --sess-distr u 0/196608,1 0/196608,1 fibre -c 1,1
[0.000s] Creating path with 2 phases.
  Phase 0:
    0 sess-local datalocs, 0.000000 update ratio, inf access count scalar /
    196608 sess-global datalocs, 1.000000 update ratio, inf access count scalar
  Phase 1:
    0 sess-local datalocs, 0.000000 update ratio, inf access count scalar /
    196608 sess-global datalocs, 1.000000 update ratio, inf access count scalar
[0.000s] Creating global buffer at 0x7ff6c0000000 of size 25165824 bytes.
[5.107s] Test is ready to start.
Test duration in range [10.000, 10.012] seconds
Num Accesses: 229681460.000000
Throughput: 22968146.000000
Num Accesses - Session Mean & Stddev: 2296814.600000,91730.202829
Num Phases Traversed: 1268.000000
Num Phases Traversed - Session Mean & Stddev: 12.680000,0.466476
Num Path Iterations: 1268.000000
Num Path Iterations - Session Mean & Stddev: 12.680000,0.466476
+ set +x
