++ printf 'taskset -c 1-2 timeout 100 /home/bcurto/mem-access-simulator/accesstest/accesstest -v -s 100 -d 10 --sess-distr u %s fibre %s\n' '0/147456,0 0/147456,0' '-c 1,1'
+ taskset -c 1-2 timeout 100 /home/bcurto/mem-access-simulator/accesstest/accesstest -v -s 100 -d 10 --sess-distr u 0/147456,0 0/147456,0 fibre -c 1,1
[0.000s] Creating path with 2 phases.
  Phase 0:
    0 sess-local datalocs, 0.000000 update ratio, inf access count scalar /
    147456 sess-global datalocs, 0.000000 update ratio, inf access count scalar
  Phase 1:
    0 sess-local datalocs, 0.000000 update ratio, inf access count scalar /
    147456 sess-global datalocs, 0.000000 update ratio, inf access count scalar
[0.000s] Creating global buffer at 0x7f9900000000 of size 18874368 bytes.
[3.706s] Test is ready to start.
Test duration in range [10.000, 10.013] seconds
Num Accesses: 230974138.000000
Throughput: 23097413.800000
Num Accesses - Session Mean & Stddev: 2309741.380000,69868.727804
Num Phases Traversed: 1666.000000
Num Phases Traversed - Session Mean & Stddev: 16.660000,0.473709
Num Path Iterations: 1666.000000
Num Path Iterations - Session Mean & Stddev: 16.660000,0.473709
+ set +x
++ printf 'taskset -c 1-2 timeout 100 /home/bcurto/mem-access-simulator/accesstest/accesstest -v -s 100 -d 10 --sess-distr u %s fibre %s\n' '0/147456,0 0/147456,0' '-c 1,1'
+ taskset -c 1-2 timeout 100 /home/bcurto/mem-access-simulator/accesstest/accesstest -v -s 100 -d 10 --sess-distr u 0/147456,0 0/147456,0 fibre -c 1,1
[0.000s] Creating path with 2 phases.
  Phase 0:
    0 sess-local datalocs, 0.000000 update ratio, inf access count scalar /
    147456 sess-global datalocs, 0.000000 update ratio, inf access count scalar
  Phase 1:
    0 sess-local datalocs, 0.000000 update ratio, inf access count scalar /
    147456 sess-global datalocs, 0.000000 update ratio, inf access count scalar
[0.000s] Creating global buffer at 0x7febc0000000 of size 18874368 bytes.
[3.760s] Test is ready to start.
Test duration in range [10.000, 10.009] seconds
Num Accesses: 230974138.000000
Throughput: 23097413.800000
Num Accesses - Session Mean & Stddev: 2309741.380000,69868.727804
Num Phases Traversed: 1666.000000
Num Phases Traversed - Session Mean & Stddev: 16.660000,0.473709
Num Path Iterations: 1666.000000
Num Path Iterations - Session Mean & Stddev: 16.660000,0.473709
+ set +x
++ printf 'taskset -c 1-2 timeout 100 /home/bcurto/mem-access-simulator/accesstest/accesstest -v -s 100 -d 10 --sess-distr u %s fibre %s\n' '0/147456,0 0/147456,0' '-c 1,1'
+ taskset -c 1-2 timeout 100 /home/bcurto/mem-access-simulator/accesstest/accesstest -v -s 100 -d 10 --sess-distr u 0/147456,0 0/147456,0 fibre -c 1,1
[0.000s] Creating path with 2 phases.
  Phase 0:
    0 sess-local datalocs, 0.000000 update ratio, inf access count scalar /
    147456 sess-global datalocs, 0.000000 update ratio, inf access count scalar
  Phase 1:
    0 sess-local datalocs, 0.000000 update ratio, inf access count scalar /
    147456 sess-global datalocs, 0.000000 update ratio, inf access count scalar
[0.000s] Creating global buffer at 0x7f7bc0000000 of size 18874368 bytes.
[3.772s] Test is ready to start.
Test duration in range [10.000, 10.009] seconds
Num Accesses: 230974138.000000
Throughput: 23097413.800000
Num Accesses - Session Mean & Stddev: 2309741.380000,69868.727804
Num Phases Traversed: 1666.000000
Num Phases Traversed - Session Mean & Stddev: 16.660000,0.473709
Num Path Iterations: 1666.000000
Num Path Iterations - Session Mean & Stddev: 16.660000,0.473709
+ set +x
++ printf 'taskset -c 1-2 timeout 100 /home/bcurto/mem-access-simulator/accesstest/accesstest -v -s 100 -d 10 --sess-distr u %s fibre %s\n' '0/147456,0 0/147456,0' '-c 1,1'
+ taskset -c 1-2 timeout 100 /home/bcurto/mem-access-simulator/accesstest/accesstest -v -s 100 -d 10 --sess-distr u 0/147456,0 0/147456,0 fibre -c 1,1
[0.000s] Creating path with 2 phases.
  Phase 0:
    0 sess-local datalocs, 0.000000 update ratio, inf access count scalar /
    147456 sess-global datalocs, 0.000000 update ratio, inf access count scalar
  Phase 1:
    0 sess-local datalocs, 0.000000 update ratio, inf access count scalar /
    147456 sess-global datalocs, 0.000000 update ratio, inf access count scalar
[0.000s] Creating global buffer at 0x7f1400000000 of size 18874368 bytes.
[3.756s] Test is ready to start.
Test duration in range [10.000, 10.009] seconds
Num Accesses: 230974138.000000
Throughput: 23097413.800000
Num Accesses - Session Mean & Stddev: 2309741.380000,69868.727804
Num Phases Traversed: 1666.000000
Num Phases Traversed - Session Mean & Stddev: 16.660000,0.473709
Num Path Iterations: 1666.000000
Num Path Iterations - Session Mean & Stddev: 16.660000,0.473709
+ set +x
++ printf 'taskset -c 1-2 timeout 100 /home/bcurto/mem-access-simulator/accesstest/accesstest -v -s 100 -d 10 --sess-distr u %s fibre %s\n' '0/147456,0 0/147456,0' '-c 1,1'
+ taskset -c 1-2 timeout 100 /home/bcurto/mem-access-simulator/accesstest/accesstest -v -s 100 -d 10 --sess-distr u 0/147456,0 0/147456,0 fibre -c 1,1
[0.000s] Creating path with 2 phases.
  Phase 0:
    0 sess-local datalocs, 0.000000 update ratio, inf access count scalar /
    147456 sess-global datalocs, 0.000000 update ratio, inf access count scalar
  Phase 1:
    0 sess-local datalocs, 0.000000 update ratio, inf access count scalar /
    147456 sess-global datalocs, 0.000000 update ratio, inf access count scalar
[0.000s] Creating global buffer at 0x7f2300000000 of size 18874368 bytes.
[3.747s] Test is ready to start.
Test duration in range [10.000, 10.008] seconds
Num Accesses: 230974138.000000
Throughput: 23097413.800000
Num Accesses - Session Mean & Stddev: 2309741.380000,69868.727804
Num Phases Traversed: 1666.000000
Num Phases Traversed - Session Mean & Stddev: 16.660000,0.473709
Num Path Iterations: 1666.000000
Num Path Iterations - Session Mean & Stddev: 16.660000,0.473709
+ set +x
++ printf 'taskset -c 1-2 timeout 100 /home/bcurto/mem-access-simulator/accesstest/accesstest -v -s 100 -d 10 --sess-distr u %s fibre %s\n' '0/147456,0 0/147456,0' '-c 1,1'
+ taskset -c 1-2 timeout 100 /home/bcurto/mem-access-simulator/accesstest/accesstest -v -s 100 -d 10 --sess-distr u 0/147456,0 0/147456,0 fibre -c 1,1
[0.000s] Creating path with 2 phases.
  Phase 0:
    0 sess-local datalocs, 0.000000 update ratio, inf access count scalar /
    147456 sess-global datalocs, 0.000000 update ratio, inf access count scalar
  Phase 1:
    0 sess-local datalocs, 0.000000 update ratio, inf access count scalar /
    147456 sess-global datalocs, 0.000000 update ratio, inf access count scalar
[0.000s] Creating global buffer at 0x7f6700000000 of size 18874368 bytes.
[3.753s] Test is ready to start.
Test duration in range [10.000, 10.006] seconds
Num Accesses: 239676225.000000
Throughput: 23967622.500000
Num Accesses - Session Mean & Stddev: 2396762.250000,96436.062282
Num Phases Traversed: 1725.000000
Num Phases Traversed - Session Mean & Stddev: 17.250000,0.653835
Num Path Iterations: 1725.000000
Num Path Iterations - Session Mean & Stddev: 17.250000,0.653835
+ set +x
++ printf 'taskset -c 1-2 timeout 100 /home/bcurto/mem-access-simulator/accesstest/accesstest -v -s 100 -d 10 --sess-distr u %s fibre %s\n' '0/147456,0 0/147456,0' '-c 1,1'
+ taskset -c 1-2 timeout 100 /home/bcurto/mem-access-simulator/accesstest/accesstest -v -s 100 -d 10 --sess-distr u 0/147456,0 0/147456,0 fibre -c 1,1
[0.000s] Creating path with 2 phases.
  Phase 0:
    0 sess-local datalocs, 0.000000 update ratio, inf access count scalar /
    147456 sess-global datalocs, 0.000000 update ratio, inf access count scalar
  Phase 1:
    0 sess-local datalocs, 0.000000 update ratio, inf access count scalar /
    147456 sess-global datalocs, 0.000000 update ratio, inf access count scalar
[0.000s] Creating global buffer at 0x7fcbc0000000 of size 18874368 bytes.
[3.694s] Test is ready to start.
Test duration in range [10.000, 10.006] seconds
Num Accesses: 230531659.000000
Throughput: 23053165.900000
Num Accesses - Session Mean & Stddev: 2305316.590000,71210.255827
Num Phases Traversed: 1663.000000
Num Phases Traversed - Session Mean & Stddev: 16.630000,0.482804
Num Path Iterations: 1663.000000
Num Path Iterations - Session Mean & Stddev: 16.630000,0.482804
+ set +x
++ printf 'taskset -c 1-2 timeout 100 /home/bcurto/mem-access-simulator/accesstest/accesstest -v -s 100 -d 10 --sess-distr u %s fibre %s\n' '0/147456,0 0/147456,0' '-c 1,1'
+ taskset -c 1-2 timeout 100 /home/bcurto/mem-access-simulator/accesstest/accesstest -v -s 100 -d 10 --sess-distr u 0/147456,0 0/147456,0 fibre -c 1,1
[0.000s] Creating path with 2 phases.
  Phase 0:
    0 sess-local datalocs, 0.000000 update ratio, inf access count scalar /
    147456 sess-global datalocs, 0.000000 update ratio, inf access count scalar
  Phase 1:
    0 sess-local datalocs, 0.000000 update ratio, inf access count scalar /
    147456 sess-global datalocs, 0.000000 update ratio, inf access count scalar
[0.000s] Creating global buffer at 0x7f7800000000 of size 18874368 bytes.
[3.755s] Test is ready to start.
Test duration in range [10.000, 10.009] seconds
Num Accesses: 230974138.000000
Throughput: 23097413.800000
Num Accesses - Session Mean & Stddev: 2309741.380000,69868.727804
Num Phases Traversed: 1666.000000
Num Phases Traversed - Session Mean & Stddev: 16.660000,0.473709
Num Path Iterations: 1666.000000
Num Path Iterations - Session Mean & Stddev: 16.660000,0.473709
+ set +x
++ printf 'taskset -c 1-2 timeout 100 /home/bcurto/mem-access-simulator/accesstest/accesstest -v -s 100 -d 10 --sess-distr u %s fibre %s\n' '0/147456,0 0/147456,0' '-c 1,1'
+ taskset -c 1-2 timeout 100 /home/bcurto/mem-access-simulator/accesstest/accesstest -v -s 100 -d 10 --sess-distr u 0/147456,0 0/147456,0 fibre -c 1,1
[0.000s] Creating path with 2 phases.
  Phase 0:
    0 sess-local datalocs, 0.000000 update ratio, inf access count scalar /
    147456 sess-global datalocs, 0.000000 update ratio, inf access count scalar
  Phase 1:
    0 sess-local datalocs, 0.000000 update ratio, inf access count scalar /
    147456 sess-global datalocs, 0.000000 update ratio, inf access count scalar
[0.000s] Creating global buffer at 0x7fd3c0000000 of size 18874368 bytes.
[3.700s] Test is ready to start.
Test duration in range [10.000, 10.012] seconds
Num Accesses: 230974138.000000
Throughput: 23097413.800000
Num Accesses - Session Mean & Stddev: 2309741.380000,69868.727804
Num Phases Traversed: 1666.000000
Num Phases Traversed - Session Mean & Stddev: 16.660000,0.473709
Num Path Iterations: 1666.000000
Num Path Iterations - Session Mean & Stddev: 16.660000,0.473709
+ set +x
++ printf 'taskset -c 1-2 timeout 100 /home/bcurto/mem-access-simulator/accesstest/accesstest -v -s 100 -d 10 --sess-distr u %s fibre %s\n' '0/147456,0 0/147456,0' '-c 1,1'
+ taskset -c 1-2 timeout 100 /home/bcurto/mem-access-simulator/accesstest/accesstest -v -s 100 -d 10 --sess-distr u 0/147456,0 0/147456,0 fibre -c 1,1
[0.000s] Creating path with 2 phases.
  Phase 0:
    0 sess-local datalocs, 0.000000 update ratio, inf access count scalar /
    147456 sess-global datalocs, 0.000000 update ratio, inf access count scalar
  Phase 1:
    0 sess-local datalocs, 0.000000 update ratio, inf access count scalar /
    147456 sess-global datalocs, 0.000000 update ratio, inf access count scalar
[0.000s] Creating global buffer at 0x7fe3c0000000 of size 18874368 bytes.
[3.760s] Test is ready to start.
Test duration in range [10.000, 10.004] seconds
Num Accesses: 238791267.000000
Throughput: 23879126.700000
Num Accesses - Session Mean & Stddev: 2387912.670000,99369.133003
Num Phases Traversed: 1719.000000
Num Phases Traversed - Session Mean & Stddev: 17.190000,0.673721
Num Path Iterations: 1719.000000
Num Path Iterations - Session Mean & Stddev: 17.190000,0.673721
+ set +x
++ printf 'taskset -c 1-2 timeout 100 /home/bcurto/mem-access-simulator/accesstest/accesstest -v -s 100 -d 10 --sess-distr u %s fibre %s\n' '0/147456,0 0/147456,0' '-c 1,1'
+ taskset -c 1-2 timeout 100 /home/bcurto/mem-access-simulator/accesstest/accesstest -v -s 100 -d 10 --sess-distr u 0/147456,0 0/147456,0 fibre -c 1,1
[0.000s] Creating path with 2 phases.
  Phase 0:
    0 sess-local datalocs, 0.000000 update ratio, inf access count scalar /
    147456 sess-global datalocs, 0.000000 update ratio, inf access count scalar
  Phase 1:
    0 sess-local datalocs, 0.000000 update ratio, inf access count scalar /
    147456 sess-global datalocs, 0.000000 update ratio, inf access count scalar
[0.000s] Creating global buffer at 0x7f2a00000000 of size 18874368 bytes.
[3.705s] Test is ready to start.
Test duration in range [10.000, 10.012] seconds
Num Accesses: 230974138.000000
Throughput: 23097413.800000
Num Accesses - Session Mean & Stddev: 2309741.380000,69868.727804
Num Phases Traversed: 1666.000000
Num Phases Traversed - Session Mean & Stddev: 16.660000,0.473709
Num Path Iterations: 1666.000000
Num Path Iterations - Session Mean & Stddev: 16.660000,0.473709
+ set +x
++ printf 'taskset -c 1-2 timeout 100 /home/bcurto/mem-access-simulator/accesstest/accesstest -v -s 100 -d 10 --sess-distr u %s fibre %s\n' '0/147456,0 0/147456,0' '-c 1,1'
+ taskset -c 1-2 timeout 100 /home/bcurto/mem-access-simulator/accesstest/accesstest -v -s 100 -d 10 --sess-distr u 0/147456,0 0/147456,0 fibre -c 1,1
[0.000s] Creating path with 2 phases.
  Phase 0:
    0 sess-local datalocs, 0.000000 update ratio, inf access count scalar /
    147456 sess-global datalocs, 0.000000 update ratio, inf access count scalar
  Phase 1:
    0 sess-local datalocs, 0.000000 update ratio, inf access count scalar /
    147456 sess-global datalocs, 0.000000 update ratio, inf access count scalar
[0.000s] Creating global buffer at 0x7fa440000000 of size 18874368 bytes.
[3.729s] Test is ready to start.
Test duration in range [10.000, 10.012] seconds
Num Accesses: 230974138.000000
Throughput: 23097413.800000
Num Accesses - Session Mean & Stddev: 2309741.380000,69868.727804
Num Phases Traversed: 1666.000000
Num Phases Traversed - Session Mean & Stddev: 16.660000,0.473709
Num Path Iterations: 1666.000000
Num Path Iterations - Session Mean & Stddev: 16.660000,0.473709
+ set +x
++ printf 'taskset -c 1-2 timeout 100 /home/bcurto/mem-access-simulator/accesstest/accesstest -v -s 100 -d 10 --sess-distr u %s fibre %s\n' '0/147456,0 0/147456,0' '-c 1,1'
+ taskset -c 1-2 timeout 100 /home/bcurto/mem-access-simulator/accesstest/accesstest -v -s 100 -d 10 --sess-distr u 0/147456,0 0/147456,0 fibre -c 1,1
[0.000s] Creating path with 2 phases.
  Phase 0:
    0 sess-local datalocs, 0.000000 update ratio, inf access count scalar /
    147456 sess-global datalocs, 0.000000 update ratio, inf access count scalar
  Phase 1:
    0 sess-local datalocs, 0.000000 update ratio, inf access count scalar /
    147456 sess-global datalocs, 0.000000 update ratio, inf access count scalar
[0.000s] Creating global buffer at 0x7f8dc0000000 of size 18874368 bytes.
[3.752s] Test is ready to start.
Test duration in range [10.000, 10.009] seconds
Num Accesses: 230974138.000000
Throughput: 23097413.800000
Num Accesses - Session Mean & Stddev: 2309741.380000,69868.727804
Num Phases Traversed: 1666.000000
Num Phases Traversed - Session Mean & Stddev: 16.660000,0.473709
Num Path Iterations: 1666.000000
Num Path Iterations - Session Mean & Stddev: 16.660000,0.473709
+ set +x
++ printf 'taskset -c 1-2 timeout 100 /home/bcurto/mem-access-simulator/accesstest/accesstest -v -s 100 -d 10 --sess-distr u %s fibre %s\n' '0/147456,0 0/147456,0' '-c 1,1'
+ taskset -c 1-2 timeout 100 /home/bcurto/mem-access-simulator/accesstest/accesstest -v -s 100 -d 10 --sess-distr u 0/147456,0 0/147456,0 fibre -c 1,1
[0.000s] Creating path with 2 phases.
  Phase 0:
    0 sess-local datalocs, 0.000000 update ratio, inf access count scalar /
    147456 sess-global datalocs, 0.000000 update ratio, inf access count scalar
  Phase 1:
    0 sess-local datalocs, 0.000000 update ratio, inf access count scalar /
    147456 sess-global datalocs, 0.000000 update ratio, inf access count scalar
[0.000s] Creating global buffer at 0x7fb7c0000000 of size 18874368 bytes.
[3.700s] Test is ready to start.
Test duration in range [10.000, 10.012] seconds
Num Accesses: 230974138.000000
Throughput: 23097413.800000
Num Accesses - Session Mean & Stddev: 2309741.380000,69868.727804
Num Phases Traversed: 1666.000000
Num Phases Traversed - Session Mean & Stddev: 16.660000,0.473709
Num Path Iterations: 1666.000000
Num Path Iterations - Session Mean & Stddev: 16.660000,0.473709
+ set +x
++ printf 'taskset -c 1-2 timeout 100 /home/bcurto/mem-access-simulator/accesstest/accesstest -v -s 100 -d 10 --sess-distr u %s fibre %s\n' '0/147456,0 0/147456,0' '-c 1,1'
+ taskset -c 1-2 timeout 100 /home/bcurto/mem-access-simulator/accesstest/accesstest -v -s 100 -d 10 --sess-distr u 0/147456,0 0/147456,0 fibre -c 1,1
[0.000s] Creating path with 2 phases.
  Phase 0:
    0 sess-local datalocs, 0.000000 update ratio, inf access count scalar /
    147456 sess-global datalocs, 0.000000 update ratio, inf access count scalar
  Phase 1:
    0 sess-local datalocs, 0.000000 update ratio, inf access count scalar /
    147456 sess-global datalocs, 0.000000 update ratio, inf access count scalar
[0.000s] Creating global buffer at 0x7f61c0000000 of size 18874368 bytes.
[3.712s] Test is ready to start.
Test duration in range [10.000, 10.012] seconds
Num Accesses: 230974138.000000
Throughput: 23097413.800000
Num Accesses - Session Mean & Stddev: 2309741.380000,69868.727804
Num Phases Traversed: 1666.000000
Num Phases Traversed - Session Mean & Stddev: 16.660000,0.473709
Num Path Iterations: 1666.000000
Num Path Iterations - Session Mean & Stddev: 16.660000,0.473709
+ set +x
++ printf 'taskset -c 1-2 timeout 100 /home/bcurto/mem-access-simulator/accesstest/accesstest -v -s 100 -d 10 --sess-distr u %s fibre %s\n' '0/147456,0 0/147456,0' '-c 1,1'
+ taskset -c 1-2 timeout 100 /home/bcurto/mem-access-simulator/accesstest/accesstest -v -s 100 -d 10 --sess-distr u 0/147456,0 0/147456,0 fibre -c 1,1
[0.000s] Creating path with 2 phases.
  Phase 0:
    0 sess-local datalocs, 0.000000 update ratio, inf access count scalar /
    147456 sess-global datalocs, 0.000000 update ratio, inf access count scalar
  Phase 1:
    0 sess-local datalocs, 0.000000 update ratio, inf access count scalar /
    147456 sess-global datalocs, 0.000000 update ratio, inf access count scalar
[0.000s] Creating global buffer at 0x7f4dc0000000 of size 18874368 bytes.
[3.753s] Test is ready to start.
Test duration in range [10.000, 10.009] seconds
Num Accesses: 230974138.000000
Throughput: 23097413.800000
Num Accesses - Session Mean & Stddev: 2309741.380000,69868.727804
Num Phases Traversed: 1666.000000
Num Phases Traversed - Session Mean & Stddev: 16.660000,0.473709
Num Path Iterations: 1666.000000
Num Path Iterations - Session Mean & Stddev: 16.660000,0.473709
+ set +x
++ printf 'taskset -c 1-2 timeout 100 /home/bcurto/mem-access-simulator/accesstest/accesstest -v -s 100 -d 10 --sess-distr u %s fibre %s\n' '0/147456,0 0/147456,0' '-c 1,1'
+ taskset -c 1-2 timeout 100 /home/bcurto/mem-access-simulator/accesstest/accesstest -v -s 100 -d 10 --sess-distr u 0/147456,0 0/147456,0 fibre -c 1,1
[0.000s] Creating path with 2 phases.
  Phase 0:
    0 sess-local datalocs, 0.000000 update ratio, inf access count scalar /
    147456 sess-global datalocs, 0.000000 update ratio, inf access count scalar
  Phase 1:
    0 sess-local datalocs, 0.000000 update ratio, inf access count scalar /
    147456 sess-global datalocs, 0.000000 update ratio, inf access count scalar
[0.000s] Creating global buffer at 0x7fddc0000000 of size 18874368 bytes.
[3.748s] Test is ready to start.
Test duration in range [10.000, 10.009] seconds
Num Accesses: 230974138.000000
Throughput: 23097413.800000
Num Accesses - Session Mean & Stddev: 2309741.380000,69868.727804
Num Phases Traversed: 1666.000000
Num Phases Traversed - Session Mean & Stddev: 16.660000,0.473709
Num Path Iterations: 1666.000000
Num Path Iterations - Session Mean & Stddev: 16.660000,0.473709
+ set +x
++ printf 'taskset -c 1-2 timeout 100 /home/bcurto/mem-access-simulator/accesstest/accesstest -v -s 100 -d 10 --sess-distr u %s fibre %s\n' '0/147456,0 0/147456,0' '-c 1,1'
+ taskset -c 1-2 timeout 100 /home/bcurto/mem-access-simulator/accesstest/accesstest -v -s 100 -d 10 --sess-distr u 0/147456,0 0/147456,0 fibre -c 1,1
[0.000s] Creating path with 2 phases.
  Phase 0:
    0 sess-local datalocs, 0.000000 update ratio, inf access count scalar /
    147456 sess-global datalocs, 0.000000 update ratio, inf access count scalar
  Phase 1:
    0 sess-local datalocs, 0.000000 update ratio, inf access count scalar /
    147456 sess-global datalocs, 0.000000 update ratio, inf access count scalar
[0.000s] Creating global buffer at 0x7f9e40000000 of size 18874368 bytes.
[3.764s] Test is ready to start.
Test duration in range [10.000, 10.008] seconds
Num Accesses: 230974138.000000
Throughput: 23097413.800000
Num Accesses - Session Mean & Stddev: 2309741.380000,69868.727804
Num Phases Traversed: 1666.000000
Num Phases Traversed - Session Mean & Stddev: 16.660000,0.473709
Num Path Iterations: 1666.000000
Num Path Iterations - Session Mean & Stddev: 16.660000,0.473709
+ set +x
++ printf 'taskset -c 1-2 timeout 100 /home/bcurto/mem-access-simulator/accesstest/accesstest -v -s 100 -d 10 --sess-distr u %s fibre %s\n' '0/147456,0 0/147456,0' '-c 1,1'
+ taskset -c 1-2 timeout 100 /home/bcurto/mem-access-simulator/accesstest/accesstest -v -s 100 -d 10 --sess-distr u 0/147456,0 0/147456,0 fibre -c 1,1
[0.000s] Creating path with 2 phases.
  Phase 0:
    0 sess-local datalocs, 0.000000 update ratio, inf access count scalar /
    147456 sess-global datalocs, 0.000000 update ratio, inf access count scalar
  Phase 1:
    0 sess-local datalocs, 0.000000 update ratio, inf access count scalar /
    147456 sess-global datalocs, 0.000000 update ratio, inf access count scalar
[0.000s] Creating global buffer at 0x7fc540000000 of size 18874368 bytes.
[3.785s] Test is ready to start.
Test duration in range [10.000, 10.009] seconds
Num Accesses: 230974138.000000
Throughput: 23097413.800000
Num Accesses - Session Mean & Stddev: 2309741.380000,69868.727804
Num Phases Traversed: 1666.000000
Num Phases Traversed - Session Mean & Stddev: 16.660000,0.473709
Num Path Iterations: 1666.000000
Num Path Iterations - Session Mean & Stddev: 16.660000,0.473709
+ set +x
++ printf 'taskset -c 1-2 timeout 100 /home/bcurto/mem-access-simulator/accesstest/accesstest -v -s 100 -d 10 --sess-distr u %s fibre %s\n' '0/147456,0 0/147456,0' '-c 1,1'
+ taskset -c 1-2 timeout 100 /home/bcurto/mem-access-simulator/accesstest/accesstest -v -s 100 -d 10 --sess-distr u 0/147456,0 0/147456,0 fibre -c 1,1
[0.000s] Creating path with 2 phases.
  Phase 0:
    0 sess-local datalocs, 0.000000 update ratio, inf access count scalar /
    147456 sess-global datalocs, 0.000000 update ratio, inf access count scalar
  Phase 1:
    0 sess-local datalocs, 0.000000 update ratio, inf access count scalar /
    147456 sess-global datalocs, 0.000000 update ratio, inf access count scalar
[0.000s] Creating global buffer at 0x7f7c40000000 of size 18874368 bytes.
[3.759s] Test is ready to start.
Test duration in range [10.000, 10.009] seconds
Num Accesses: 230974138.000000
Throughput: 23097413.800000
Num Accesses - Session Mean & Stddev: 2309741.380000,69868.727804
Num Phases Traversed: 1666.000000
Num Phases Traversed - Session Mean & Stddev: 16.660000,0.473709
Num Path Iterations: 1666.000000
Num Path Iterations - Session Mean & Stddev: 16.660000,0.473709
+ set +x
