++ printf 'taskset -c 1-2 timeout 100 /home/bcurto/mem-access-simulator/accesstest/accesstest -v -s 100 -d 10 --sess-distr u %s fibre %s\n' '0/36864,0 0/36864,0' '-c 1,1'
+ taskset -c 1-2 timeout 100 /home/bcurto/mem-access-simulator/accesstest/accesstest -v -s 100 -d 10 --sess-distr u 0/36864,0 0/36864,0 fibre -c 1,1
[0.000s] Creating path with 2 phases.
  Phase 0:
    0 sess-local datalocs, 0.000000 update ratio, inf access count scalar /
    36864 sess-global datalocs, 0.000000 update ratio, inf access count scalar
  Phase 1:
    0 sess-local datalocs, 0.000000 update ratio, inf access count scalar /
    36864 sess-global datalocs, 0.000000 update ratio, inf access count scalar
[0.000s] Creating global buffer at 0x7f9540000000 of size 4718592 bytes.
[1.600s] Test is ready to start.
Test duration in range [10.000, 10.001] seconds
Num Accesses: 831933145.000000
Throughput: 83193314.500000
Num Accesses - Session Mean & Stddev: 8319331.450000,19785.956959
Num Phases Traversed: 22645.000000
Num Phases Traversed - Session Mean & Stddev: 226.450000,0.536190
Num Path Iterations: 22645.000000
Num Path Iterations - Session Mean & Stddev: 226.450000,0.536190
+ set +x
++ printf 'taskset -c 1-2 timeout 100 /home/bcurto/mem-access-simulator/accesstest/accesstest -v -s 100 -d 10 --sess-distr u %s fibre %s\n' '0/36864,0 0/36864,0' '-c 1,1'
+ taskset -c 1-2 timeout 100 /home/bcurto/mem-access-simulator/accesstest/accesstest -v -s 100 -d 10 --sess-distr u 0/36864,0 0/36864,0 fibre -c 1,1
[0.000s] Creating path with 2 phases.
  Phase 0:
    0 sess-local datalocs, 0.000000 update ratio, inf access count scalar /
    36864 sess-global datalocs, 0.000000 update ratio, inf access count scalar
  Phase 1:
    0 sess-local datalocs, 0.000000 update ratio, inf access count scalar /
    36864 sess-global datalocs, 0.000000 update ratio, inf access count scalar
[0.000s] Creating global buffer at 0x7fa2c0000000 of size 4718592 bytes.
[1.556s] Test is ready to start.
Test duration in range [10.000, 10.001] seconds
Num Accesses: 831564135.000000
Throughput: 83156413.500000
Num Accesses - Session Mean & Stddev: 8315641.350000,22370.042398
Num Phases Traversed: 22635.000000
Num Phases Traversed - Session Mean & Stddev: 226.350000,0.606218
Num Path Iterations: 22635.000000
Num Path Iterations - Session Mean & Stddev: 226.350000,0.606218
+ set +x
++ printf 'taskset -c 1-2 timeout 100 /home/bcurto/mem-access-simulator/accesstest/accesstest -v -s 100 -d 10 --sess-distr u %s fibre %s\n' '0/36864,0 0/36864,0' '-c 1,1'
+ taskset -c 1-2 timeout 100 /home/bcurto/mem-access-simulator/accesstest/accesstest -v -s 100 -d 10 --sess-distr u 0/36864,0 0/36864,0 fibre -c 1,1
[0.000s] Creating path with 2 phases.
  Phase 0:
    0 sess-local datalocs, 0.000000 update ratio, inf access count scalar /
    36864 sess-global datalocs, 0.000000 update ratio, inf access count scalar
  Phase 1:
    0 sess-local datalocs, 0.000000 update ratio, inf access count scalar /
    36864 sess-global datalocs, 0.000000 update ratio, inf access count scalar
[0.000s] Creating global buffer at 0x7f2080000000 of size 4718592 bytes.
[1.556s] Test is ready to start.
Test duration in range [10.000, 10.001] seconds
Num Accesses: 831564135.000000
Throughput: 83156413.500000
Num Accesses - Session Mean & Stddev: 8315641.350000,22370.042398
Num Phases Traversed: 22635.000000
Num Phases Traversed - Session Mean & Stddev: 226.350000,0.606218
Num Path Iterations: 22635.000000
Num Path Iterations - Session Mean & Stddev: 226.350000,0.606218
+ set +x
++ printf 'taskset -c 1-2 timeout 100 /home/bcurto/mem-access-simulator/accesstest/accesstest -v -s 100 -d 10 --sess-distr u %s fibre %s\n' '0/36864,0 0/36864,0' '-c 1,1'
+ taskset -c 1-2 timeout 100 /home/bcurto/mem-access-simulator/accesstest/accesstest -v -s 100 -d 10 --sess-distr u 0/36864,0 0/36864,0 fibre -c 1,1
[0.000s] Creating path with 2 phases.
  Phase 0:
    0 sess-local datalocs, 0.000000 update ratio, inf access count scalar /
    36864 sess-global datalocs, 0.000000 update ratio, inf access count scalar
  Phase 1:
    0 sess-local datalocs, 0.000000 update ratio, inf access count scalar /
    36864 sess-global datalocs, 0.000000 update ratio, inf access count scalar
[0.000s] Creating global buffer at 0x7fde00000000 of size 4718592 bytes.
[1.599s] Test is ready to start.
Test duration in range [10.000, 10.001] seconds
Num Accesses: 831933145.000000
Throughput: 83193314.500000
Num Accesses - Session Mean & Stddev: 8319331.450000,19785.956959
Num Phases Traversed: 22645.000000
Num Phases Traversed - Session Mean & Stddev: 226.450000,0.536190
Num Path Iterations: 22645.000000
Num Path Iterations - Session Mean & Stddev: 226.450000,0.536190
+ set +x
++ printf 'taskset -c 1-2 timeout 100 /home/bcurto/mem-access-simulator/accesstest/accesstest -v -s 100 -d 10 --sess-distr u %s fibre %s\n' '0/36864,0 0/36864,0' '-c 1,1'
+ taskset -c 1-2 timeout 100 /home/bcurto/mem-access-simulator/accesstest/accesstest -v -s 100 -d 10 --sess-distr u 0/36864,0 0/36864,0 fibre -c 1,1
[0.000s] Creating path with 2 phases.
  Phase 0:
    0 sess-local datalocs, 0.000000 update ratio, inf access count scalar /
    36864 sess-global datalocs, 0.000000 update ratio, inf access count scalar
  Phase 1:
    0 sess-local datalocs, 0.000000 update ratio, inf access count scalar /
    36864 sess-global datalocs, 0.000000 update ratio, inf access count scalar
[0.000s] Creating global buffer at 0x7fb440000000 of size 4718592 bytes.
[1.568s] Test is ready to start.
Test duration in range [10.000, 10.001] seconds
Num Accesses: 828538253.000000
Throughput: 82853825.300000
Num Accesses - Session Mean & Stddev: 8285382.530000,19142.338176
Num Phases Traversed: 22553.000000
Num Phases Traversed - Session Mean & Stddev: 225.530000,0.518748
Num Path Iterations: 22553.000000
Num Path Iterations - Session Mean & Stddev: 225.530000,0.518748
+ set +x
++ printf 'taskset -c 1-2 timeout 100 /home/bcurto/mem-access-simulator/accesstest/accesstest -v -s 100 -d 10 --sess-distr u %s fibre %s\n' '0/36864,0 0/36864,0' '-c 1,1'
+ taskset -c 1-2 timeout 100 /home/bcurto/mem-access-simulator/accesstest/accesstest -v -s 100 -d 10 --sess-distr u 0/36864,0 0/36864,0 fibre -c 1,1
[0.000s] Creating path with 2 phases.
  Phase 0:
    0 sess-local datalocs, 0.000000 update ratio, inf access count scalar /
    36864 sess-global datalocs, 0.000000 update ratio, inf access count scalar
  Phase 1:
    0 sess-local datalocs, 0.000000 update ratio, inf access count scalar /
    36864 sess-global datalocs, 0.000000 update ratio, inf access count scalar
[0.000s] Creating global buffer at 0x7f2200000000 of size 4718592 bytes.
[1.600s] Test is ready to start.
Test duration in range [10.000, 10.001] seconds
Num Accesses: 831933145.000000
Throughput: 83193314.500000
Num Accesses - Session Mean & Stddev: 8319331.450000,19785.956959
Num Phases Traversed: 22645.000000
Num Phases Traversed - Session Mean & Stddev: 226.450000,0.536190
Num Path Iterations: 22645.000000
Num Path Iterations - Session Mean & Stddev: 226.450000,0.536190
+ set +x
++ printf 'taskset -c 1-2 timeout 100 /home/bcurto/mem-access-simulator/accesstest/accesstest -v -s 100 -d 10 --sess-distr u %s fibre %s\n' '0/36864,0 0/36864,0' '-c 1,1'
+ taskset -c 1-2 timeout 100 /home/bcurto/mem-access-simulator/accesstest/accesstest -v -s 100 -d 10 --sess-distr u 0/36864,0 0/36864,0 fibre -c 1,1
[0.000s] Creating path with 2 phases.
  Phase 0:
    0 sess-local datalocs, 0.000000 update ratio, inf access count scalar /
    36864 sess-global datalocs, 0.000000 update ratio, inf access count scalar
  Phase 1:
    0 sess-local datalocs, 0.000000 update ratio, inf access count scalar /
    36864 sess-global datalocs, 0.000000 update ratio, inf access count scalar
[0.000s] Creating global buffer at 0x7f5740000000 of size 4718592 bytes.
[1.608s] Test is ready to start.
Test duration in range [10.000, 10.001] seconds
Num Accesses: 831933145.000000
Throughput: 83193314.500000
Num Accesses - Session Mean & Stddev: 8319331.450000,19785.956959
Num Phases Traversed: 22645.000000
Num Phases Traversed - Session Mean & Stddev: 226.450000,0.536190
Num Path Iterations: 22645.000000
Num Path Iterations - Session Mean & Stddev: 226.450000,0.536190
+ set +x
++ printf 'taskset -c 1-2 timeout 100 /home/bcurto/mem-access-simulator/accesstest/accesstest -v -s 100 -d 10 --sess-distr u %s fibre %s\n' '0/36864,0 0/36864,0' '-c 1,1'
+ taskset -c 1-2 timeout 100 /home/bcurto/mem-access-simulator/accesstest/accesstest -v -s 100 -d 10 --sess-distr u 0/36864,0 0/36864,0 fibre -c 1,1
[0.000s] Creating path with 2 phases.
  Phase 0:
    0 sess-local datalocs, 0.000000 update ratio, inf access count scalar /
    36864 sess-global datalocs, 0.000000 update ratio, inf access count scalar
  Phase 1:
    0 sess-local datalocs, 0.000000 update ratio, inf access count scalar /
    36864 sess-global datalocs, 0.000000 update ratio, inf access count scalar
[0.000s] Creating global buffer at 0x7f2380000000 of size 4718592 bytes.
[1.600s] Test is ready to start.
Test duration in range [10.000, 10.001] seconds
Num Accesses: 831933145.000000
Throughput: 83193314.500000
Num Accesses - Session Mean & Stddev: 8319331.450000,19785.956959
Num Phases Traversed: 22645.000000
Num Phases Traversed - Session Mean & Stddev: 226.450000,0.536190
Num Path Iterations: 22645.000000
Num Path Iterations - Session Mean & Stddev: 226.450000,0.536190
+ set +x
++ printf 'taskset -c 1-2 timeout 100 /home/bcurto/mem-access-simulator/accesstest/accesstest -v -s 100 -d 10 --sess-distr u %s fibre %s\n' '0/36864,0 0/36864,0' '-c 1,1'
+ taskset -c 1-2 timeout 100 /home/bcurto/mem-access-simulator/accesstest/accesstest -v -s 100 -d 10 --sess-distr u 0/36864,0 0/36864,0 fibre -c 1,1
[0.000s] Creating path with 2 phases.
  Phase 0:
    0 sess-local datalocs, 0.000000 update ratio, inf access count scalar /
    36864 sess-global datalocs, 0.000000 update ratio, inf access count scalar
  Phase 1:
    0 sess-local datalocs, 0.000000 update ratio, inf access count scalar /
    36864 sess-global datalocs, 0.000000 update ratio, inf access count scalar
[0.000s] Creating global buffer at 0x7f7380000000 of size 4718592 bytes.
[1.600s] Test is ready to start.
Test duration in range [10.000, 10.001] seconds
Num Accesses: 831933145.000000
Throughput: 83193314.500000
Num Accesses - Session Mean & Stddev: 8319331.450000,19785.956959
Num Phases Traversed: 22645.000000
Num Phases Traversed - Session Mean & Stddev: 226.450000,0.536190
Num Path Iterations: 22645.000000
Num Path Iterations - Session Mean & Stddev: 226.450000,0.536190
+ set +x
++ printf 'taskset -c 1-2 timeout 100 /home/bcurto/mem-access-simulator/accesstest/accesstest -v -s 100 -d 10 --sess-distr u %s fibre %s\n' '0/36864,0 0/36864,0' '-c 1,1'
+ taskset -c 1-2 timeout 100 /home/bcurto/mem-access-simulator/accesstest/accesstest -v -s 100 -d 10 --sess-distr u 0/36864,0 0/36864,0 fibre -c 1,1
[0.000s] Creating path with 2 phases.
  Phase 0:
    0 sess-local datalocs, 0.000000 update ratio, inf access count scalar /
    36864 sess-global datalocs, 0.000000 update ratio, inf access count scalar
  Phase 1:
    0 sess-local datalocs, 0.000000 update ratio, inf access count scalar /
    36864 sess-global datalocs, 0.000000 update ratio, inf access count scalar
[0.000s] Creating global buffer at 0x7f1300000000 of size 4718592 bytes.
[1.599s] Test is ready to start.
Test duration in range [10.000, 10.001] seconds
Num Accesses: 831933145.000000
Throughput: 83193314.500000
Num Accesses - Session Mean & Stddev: 8319331.450000,19785.956959
Num Phases Traversed: 22645.000000
Num Phases Traversed - Session Mean & Stddev: 226.450000,0.536190
Num Path Iterations: 22645.000000
Num Path Iterations - Session Mean & Stddev: 226.450000,0.536190
+ set +x
++ printf 'taskset -c 1-2 timeout 100 /home/bcurto/mem-access-simulator/accesstest/accesstest -v -s 100 -d 10 --sess-distr u %s fibre %s\n' '0/36864,0 0/36864,0' '-c 1,1'
+ taskset -c 1-2 timeout 100 /home/bcurto/mem-access-simulator/accesstest/accesstest -v -s 100 -d 10 --sess-distr u 0/36864,0 0/36864,0 fibre -c 1,1
[0.000s] Creating path with 2 phases.
  Phase 0:
    0 sess-local datalocs, 0.000000 update ratio, inf access count scalar /
    36864 sess-global datalocs, 0.000000 update ratio, inf access count scalar
  Phase 1:
    0 sess-local datalocs, 0.000000 update ratio, inf access count scalar /
    36864 sess-global datalocs, 0.000000 update ratio, inf access count scalar
[0.000s] Creating global buffer at 0x7fc280000000 of size 4718592 bytes.
[1.600s] Test is ready to start.
Test duration in range [10.000, 10.001] seconds
Num Accesses: 831933145.000000
Throughput: 83193314.500000
Num Accesses - Session Mean & Stddev: 8319331.450000,19785.956959
Num Phases Traversed: 22645.000000
Num Phases Traversed - Session Mean & Stddev: 226.450000,0.536190
Num Path Iterations: 22645.000000
Num Path Iterations - Session Mean & Stddev: 226.450000,0.536190
+ set +x
++ printf 'taskset -c 1-2 timeout 100 /home/bcurto/mem-access-simulator/accesstest/accesstest -v -s 100 -d 10 --sess-distr u %s fibre %s\n' '0/36864,0 0/36864,0' '-c 1,1'
+ taskset -c 1-2 timeout 100 /home/bcurto/mem-access-simulator/accesstest/accesstest -v -s 100 -d 10 --sess-distr u 0/36864,0 0/36864,0 fibre -c 1,1
[0.000s] Creating path with 2 phases.
  Phase 0:
    0 sess-local datalocs, 0.000000 update ratio, inf access count scalar /
    36864 sess-global datalocs, 0.000000 update ratio, inf access count scalar
  Phase 1:
    0 sess-local datalocs, 0.000000 update ratio, inf access count scalar /
    36864 sess-global datalocs, 0.000000 update ratio, inf access count scalar
[0.000s] Creating global buffer at 0x7fdb80000000 of size 4718592 bytes.
[1.600s] Test is ready to start.
Test duration in range [10.000, 10.001] seconds
Num Accesses: 831933145.000000
Throughput: 83193314.500000
Num Accesses - Session Mean & Stddev: 8319331.450000,19785.956959
Num Phases Traversed: 22645.000000
Num Phases Traversed - Session Mean & Stddev: 226.450000,0.536190
Num Path Iterations: 22645.000000
Num Path Iterations - Session Mean & Stddev: 226.450000,0.536190
+ set +x
++ printf 'taskset -c 1-2 timeout 100 /home/bcurto/mem-access-simulator/accesstest/accesstest -v -s 100 -d 10 --sess-distr u %s fibre %s\n' '0/36864,0 0/36864,0' '-c 1,1'
+ taskset -c 1-2 timeout 100 /home/bcurto/mem-access-simulator/accesstest/accesstest -v -s 100 -d 10 --sess-distr u 0/36864,0 0/36864,0 fibre -c 1,1
[0.000s] Creating path with 2 phases.
  Phase 0:
    0 sess-local datalocs, 0.000000 update ratio, inf access count scalar /
    36864 sess-global datalocs, 0.000000 update ratio, inf access count scalar
  Phase 1:
    0 sess-local datalocs, 0.000000 update ratio, inf access count scalar /
    36864 sess-global datalocs, 0.000000 update ratio, inf access count scalar
[0.000s] Creating global buffer at 0x7f8800000000 of size 4718592 bytes.
[1.600s] Test is ready to start.
Test duration in range [10.000, 10.001] seconds
Num Accesses: 831933145.000000
Throughput: 83193314.500000
Num Accesses - Session Mean & Stddev: 8319331.450000,19785.956959
Num Phases Traversed: 22645.000000
Num Phases Traversed - Session Mean & Stddev: 226.450000,0.536190
Num Path Iterations: 22645.000000
Num Path Iterations - Session Mean & Stddev: 226.450000,0.536190
+ set +x
++ printf 'taskset -c 1-2 timeout 100 /home/bcurto/mem-access-simulator/accesstest/accesstest -v -s 100 -d 10 --sess-distr u %s fibre %s\n' '0/36864,0 0/36864,0' '-c 1,1'
+ taskset -c 1-2 timeout 100 /home/bcurto/mem-access-simulator/accesstest/accesstest -v -s 100 -d 10 --sess-distr u 0/36864,0 0/36864,0 fibre -c 1,1
[0.000s] Creating path with 2 phases.
  Phase 0:
    0 sess-local datalocs, 0.000000 update ratio, inf access count scalar /
    36864 sess-global datalocs, 0.000000 update ratio, inf access count scalar
  Phase 1:
    0 sess-local datalocs, 0.000000 update ratio, inf access count scalar /
    36864 sess-global datalocs, 0.000000 update ratio, inf access count scalar
[0.000s] Creating global buffer at 0x7f1e00000000 of size 4718592 bytes.
[1.600s] Test is ready to start.
Test duration in range [10.000, 10.001] seconds
Num Accesses: 831933145.000000
Throughput: 83193314.500000
Num Accesses - Session Mean & Stddev: 8319331.450000,19785.956959
Num Phases Traversed: 22645.000000
Num Phases Traversed - Session Mean & Stddev: 226.450000,0.536190
Num Path Iterations: 22645.000000
Num Path Iterations - Session Mean & Stddev: 226.450000,0.536190
+ set +x
++ printf 'taskset -c 1-2 timeout 100 /home/bcurto/mem-access-simulator/accesstest/accesstest -v -s 100 -d 10 --sess-distr u %s fibre %s\n' '0/36864,0 0/36864,0' '-c 1,1'
+ taskset -c 1-2 timeout 100 /home/bcurto/mem-access-simulator/accesstest/accesstest -v -s 100 -d 10 --sess-distr u 0/36864,0 0/36864,0 fibre -c 1,1
[0.000s] Creating path with 2 phases.
  Phase 0:
    0 sess-local datalocs, 0.000000 update ratio, inf access count scalar /
    36864 sess-global datalocs, 0.000000 update ratio, inf access count scalar
  Phase 1:
    0 sess-local datalocs, 0.000000 update ratio, inf access count scalar /
    36864 sess-global datalocs, 0.000000 update ratio, inf access count scalar
[0.000s] Creating global buffer at 0x7f0a40000000 of size 4718592 bytes.
[1.600s] Test is ready to start.
Test duration in range [10.000, 10.001] seconds
Num Accesses: 831933145.000000
Throughput: 83193314.500000
Num Accesses - Session Mean & Stddev: 8319331.450000,19785.956959
Num Phases Traversed: 22645.000000
Num Phases Traversed - Session Mean & Stddev: 226.450000,0.536190
Num Path Iterations: 22645.000000
Num Path Iterations - Session Mean & Stddev: 226.450000,0.536190
+ set +x
++ printf 'taskset -c 1-2 timeout 100 /home/bcurto/mem-access-simulator/accesstest/accesstest -v -s 100 -d 10 --sess-distr u %s fibre %s\n' '0/36864,0 0/36864,0' '-c 1,1'
+ taskset -c 1-2 timeout 100 /home/bcurto/mem-access-simulator/accesstest/accesstest -v -s 100 -d 10 --sess-distr u 0/36864,0 0/36864,0 fibre -c 1,1
[0.000s] Creating path with 2 phases.
  Phase 0:
    0 sess-local datalocs, 0.000000 update ratio, inf access count scalar /
    36864 sess-global datalocs, 0.000000 update ratio, inf access count scalar
  Phase 1:
    0 sess-local datalocs, 0.000000 update ratio, inf access count scalar /
    36864 sess-global datalocs, 0.000000 update ratio, inf access count scalar
[0.000s] Creating global buffer at 0x7f7340000000 of size 4718592 bytes.
[1.599s] Test is ready to start.
Test duration in range [10.000, 10.001] seconds
Num Accesses: 831933145.000000
Throughput: 83193314.500000
Num Accesses - Session Mean & Stddev: 8319331.450000,19785.956959
Num Phases Traversed: 22645.000000
Num Phases Traversed - Session Mean & Stddev: 226.450000,0.536190
Num Path Iterations: 22645.000000
Num Path Iterations - Session Mean & Stddev: 226.450000,0.536190
+ set +x
++ printf 'taskset -c 1-2 timeout 100 /home/bcurto/mem-access-simulator/accesstest/accesstest -v -s 100 -d 10 --sess-distr u %s fibre %s\n' '0/36864,0 0/36864,0' '-c 1,1'
+ taskset -c 1-2 timeout 100 /home/bcurto/mem-access-simulator/accesstest/accesstest -v -s 100 -d 10 --sess-distr u 0/36864,0 0/36864,0 fibre -c 1,1
[0.000s] Creating path with 2 phases.
  Phase 0:
    0 sess-local datalocs, 0.000000 update ratio, inf access count scalar /
    36864 sess-global datalocs, 0.000000 update ratio, inf access count scalar
  Phase 1:
    0 sess-local datalocs, 0.000000 update ratio, inf access count scalar /
    36864 sess-global datalocs, 0.000000 update ratio, inf access count scalar
[0.000s] Creating global buffer at 0x7f49c0000000 of size 4718592 bytes.
[1.600s] Test is ready to start.
Test duration in range [10.000, 10.001] seconds
Num Accesses: 831933145.000000
Throughput: 83193314.500000
Num Accesses - Session Mean & Stddev: 8319331.450000,19785.956959
Num Phases Traversed: 22645.000000
Num Phases Traversed - Session Mean & Stddev: 226.450000,0.536190
Num Path Iterations: 22645.000000
Num Path Iterations - Session Mean & Stddev: 226.450000,0.536190
+ set +x
++ printf 'taskset -c 1-2 timeout 100 /home/bcurto/mem-access-simulator/accesstest/accesstest -v -s 100 -d 10 --sess-distr u %s fibre %s\n' '0/36864,0 0/36864,0' '-c 1,1'
+ taskset -c 1-2 timeout 100 /home/bcurto/mem-access-simulator/accesstest/accesstest -v -s 100 -d 10 --sess-distr u 0/36864,0 0/36864,0 fibre -c 1,1
[0.000s] Creating path with 2 phases.
  Phase 0:
    0 sess-local datalocs, 0.000000 update ratio, inf access count scalar /
    36864 sess-global datalocs, 0.000000 update ratio, inf access count scalar
  Phase 1:
    0 sess-local datalocs, 0.000000 update ratio, inf access count scalar /
    36864 sess-global datalocs, 0.000000 update ratio, inf access count scalar
[0.000s] Creating global buffer at 0x7f0380000000 of size 4718592 bytes.
[1.600s] Test is ready to start.
Test duration in range [10.000, 10.001] seconds
Num Accesses: 831933145.000000
Throughput: 83193314.500000
Num Accesses - Session Mean & Stddev: 8319331.450000,19785.956959
Num Phases Traversed: 22645.000000
Num Phases Traversed - Session Mean & Stddev: 226.450000,0.536190
Num Path Iterations: 22645.000000
Num Path Iterations - Session Mean & Stddev: 226.450000,0.536190
+ set +x
++ printf 'taskset -c 1-2 timeout 100 /home/bcurto/mem-access-simulator/accesstest/accesstest -v -s 100 -d 10 --sess-distr u %s fibre %s\n' '0/36864,0 0/36864,0' '-c 1,1'
+ taskset -c 1-2 timeout 100 /home/bcurto/mem-access-simulator/accesstest/accesstest -v -s 100 -d 10 --sess-distr u 0/36864,0 0/36864,0 fibre -c 1,1
[0.000s] Creating path with 2 phases.
  Phase 0:
    0 sess-local datalocs, 0.000000 update ratio, inf access count scalar /
    36864 sess-global datalocs, 0.000000 update ratio, inf access count scalar
  Phase 1:
    0 sess-local datalocs, 0.000000 update ratio, inf access count scalar /
    36864 sess-global datalocs, 0.000000 update ratio, inf access count scalar
[0.000s] Creating global buffer at 0x7f4a00000000 of size 4718592 bytes.
[1.600s] Test is ready to start.
Test duration in range [10.000, 10.001] seconds
Num Accesses: 831933145.000000
Throughput: 83193314.500000
Num Accesses - Session Mean & Stddev: 8319331.450000,19785.956959
Num Phases Traversed: 22645.000000
Num Phases Traversed - Session Mean & Stddev: 226.450000,0.536190
Num Path Iterations: 22645.000000
Num Path Iterations - Session Mean & Stddev: 226.450000,0.536190
+ set +x
++ printf 'taskset -c 1-2 timeout 100 /home/bcurto/mem-access-simulator/accesstest/accesstest -v -s 100 -d 10 --sess-distr u %s fibre %s\n' '0/36864,0 0/36864,0' '-c 1,1'
+ taskset -c 1-2 timeout 100 /home/bcurto/mem-access-simulator/accesstest/accesstest -v -s 100 -d 10 --sess-distr u 0/36864,0 0/36864,0 fibre -c 1,1
[0.000s] Creating path with 2 phases.
  Phase 0:
    0 sess-local datalocs, 0.000000 update ratio, inf access count scalar /
    36864 sess-global datalocs, 0.000000 update ratio, inf access count scalar
  Phase 1:
    0 sess-local datalocs, 0.000000 update ratio, inf access count scalar /
    36864 sess-global datalocs, 0.000000 update ratio, inf access count scalar
[0.000s] Creating global buffer at 0x7fb300000000 of size 4718592 bytes.
[1.612s] Test is ready to start.
Test duration in range [10.000, 10.001] seconds
Num Accesses: 831933145.000000
Throughput: 83193314.500000
Num Accesses - Session Mean & Stddev: 8319331.450000,19785.956959
Num Phases Traversed: 22645.000000
Num Phases Traversed - Session Mean & Stddev: 226.450000,0.536190
Num Path Iterations: 22645.000000
Num Path Iterations - Session Mean & Stddev: 226.450000,0.536190
+ set +x
