++ printf 'taskset -c 1-2 timeout 100 /home/bcurto/mem-access-simulator/accesstest/accesstest -v -s 100 -d 10 --sess-distr u %s fibre %s\n' '0/73728,1 0/73728,1' '-c 1,1'
+ taskset -c 1-2 timeout 100 /home/bcurto/mem-access-simulator/accesstest/accesstest -v -s 100 -d 10 --sess-distr u 0/73728,1 0/73728,1 fibre -c 1,1
[0.000s] Creating path with 2 phases.
  Phase 0:
    0 sess-local datalocs, 0.000000 update ratio, inf access count scalar /
    73728 sess-global datalocs, 1.000000 update ratio, inf access count scalar
  Phase 1:
    0 sess-local datalocs, 0.000000 update ratio, inf access count scalar /
    73728 sess-global datalocs, 1.000000 update ratio, inf access count scalar
[0.000s] Creating global buffer at 0x7f1840000000 of size 9437184 bytes.
[1.836s] Test is ready to start.
Test duration in range [10.000, 10.002] seconds
Num Accesses: 811120040.000000
Throughput: 81112004.000000
Num Accesses - Session Mean & Stddev: 8111200.400000,25382.020933
Num Phases Traversed: 11096.000000
Num Phases Traversed - Session Mean & Stddev: 110.960000,0.344093
Num Path Iterations: 11096.000000
Num Path Iterations - Session Mean & Stddev: 110.960000,0.344093
+ set +x
++ printf 'taskset -c 1-2 timeout 100 /home/bcurto/mem-access-simulator/accesstest/accesstest -v -s 100 -d 10 --sess-distr u %s fibre %s\n' '0/73728,1 0/73728,1' '-c 1,1'
+ taskset -c 1-2 timeout 100 /home/bcurto/mem-access-simulator/accesstest/accesstest -v -s 100 -d 10 --sess-distr u 0/73728,1 0/73728,1 fibre -c 1,1
[0.000s] Creating path with 2 phases.
  Phase 0:
    0 sess-local datalocs, 0.000000 update ratio, inf access count scalar /
    73728 sess-global datalocs, 1.000000 update ratio, inf access count scalar
  Phase 1:
    0 sess-local datalocs, 0.000000 update ratio, inf access count scalar /
    73728 sess-global datalocs, 1.000000 update ratio, inf access count scalar
[0.000s] Creating global buffer at 0x7fe640000000 of size 9437184 bytes.
[1.835s] Test is ready to start.
Test duration in range [10.000, 10.001] seconds
Num Accesses: 811120040.000000
Throughput: 81112004.000000
Num Accesses - Session Mean & Stddev: 8111200.400000,25382.020933
Num Phases Traversed: 11096.000000
Num Phases Traversed - Session Mean & Stddev: 110.960000,0.344093
Num Path Iterations: 11096.000000
Num Path Iterations - Session Mean & Stddev: 110.960000,0.344093
+ set +x
++ printf 'taskset -c 1-2 timeout 100 /home/bcurto/mem-access-simulator/accesstest/accesstest -v -s 100 -d 10 --sess-distr u %s fibre %s\n' '0/73728,1 0/73728,1' '-c 1,1'
+ taskset -c 1-2 timeout 100 /home/bcurto/mem-access-simulator/accesstest/accesstest -v -s 100 -d 10 --sess-distr u 0/73728,1 0/73728,1 fibre -c 1,1
[0.000s] Creating path with 2 phases.
  Phase 0:
    0 sess-local datalocs, 0.000000 update ratio, inf access count scalar /
    73728 sess-global datalocs, 1.000000 update ratio, inf access count scalar
  Phase 1:
    0 sess-local datalocs, 0.000000 update ratio, inf access count scalar /
    73728 sess-global datalocs, 1.000000 update ratio, inf access count scalar
[0.000s] Creating global buffer at 0x7f2280000000 of size 9437184 bytes.
[1.836s] Test is ready to start.
Test duration in range [10.000, 10.001] seconds
Num Accesses: 811120040.000000
Throughput: 81112004.000000
Num Accesses - Session Mean & Stddev: 8111200.400000,25382.020933
Num Phases Traversed: 11096.000000
Num Phases Traversed - Session Mean & Stddev: 110.960000,0.344093
Num Path Iterations: 11096.000000
Num Path Iterations - Session Mean & Stddev: 110.960000,0.344093
+ set +x
++ printf 'taskset -c 1-2 timeout 100 /home/bcurto/mem-access-simulator/accesstest/accesstest -v -s 100 -d 10 --sess-distr u %s fibre %s\n' '0/73728,1 0/73728,1' '-c 1,1'
+ taskset -c 1-2 timeout 100 /home/bcurto/mem-access-simulator/accesstest/accesstest -v -s 100 -d 10 --sess-distr u 0/73728,1 0/73728,1 fibre -c 1,1
[0.000s] Creating path with 2 phases.
  Phase 0:
    0 sess-local datalocs, 0.000000 update ratio, inf access count scalar /
    73728 sess-global datalocs, 1.000000 update ratio, inf access count scalar
  Phase 1:
    0 sess-local datalocs, 0.000000 update ratio, inf access count scalar /
    73728 sess-global datalocs, 1.000000 update ratio, inf access count scalar
[0.000s] Creating global buffer at 0x7fb240000000 of size 9437184 bytes.
[1.835s] Test is ready to start.
Test duration in range [10.000, 10.002] seconds
Num Accesses: 811120040.000000
Throughput: 81112004.000000
Num Accesses - Session Mean & Stddev: 8111200.400000,25382.020933
Num Phases Traversed: 11096.000000
Num Phases Traversed - Session Mean & Stddev: 110.960000,0.344093
Num Path Iterations: 11096.000000
Num Path Iterations - Session Mean & Stddev: 110.960000,0.344093
+ set +x
++ printf 'taskset -c 1-2 timeout 100 /home/bcurto/mem-access-simulator/accesstest/accesstest -v -s 100 -d 10 --sess-distr u %s fibre %s\n' '0/73728,1 0/73728,1' '-c 1,1'
+ taskset -c 1-2 timeout 100 /home/bcurto/mem-access-simulator/accesstest/accesstest -v -s 100 -d 10 --sess-distr u 0/73728,1 0/73728,1 fibre -c 1,1
[0.000s] Creating path with 2 phases.
  Phase 0:
    0 sess-local datalocs, 0.000000 update ratio, inf access count scalar /
    73728 sess-global datalocs, 1.000000 update ratio, inf access count scalar
  Phase 1:
    0 sess-local datalocs, 0.000000 update ratio, inf access count scalar /
    73728 sess-global datalocs, 1.000000 update ratio, inf access count scalar
[0.000s] Creating global buffer at 0x7f5fc0000000 of size 9437184 bytes.
[1.835s] Test is ready to start.
Test duration in range [10.000, 10.001] seconds
Num Accesses: 811193805.000000
Throughput: 81119380.500000
Num Accesses - Session Mean & Stddev: 8111938.050000,26504.124803
Num Phases Traversed: 11097.000000
Num Phases Traversed - Session Mean & Stddev: 110.970000,0.359305
Num Path Iterations: 11097.000000
Num Path Iterations - Session Mean & Stddev: 110.970000,0.359305
+ set +x
++ printf 'taskset -c 1-2 timeout 100 /home/bcurto/mem-access-simulator/accesstest/accesstest -v -s 100 -d 10 --sess-distr u %s fibre %s\n' '0/73728,1 0/73728,1' '-c 1,1'
+ taskset -c 1-2 timeout 100 /home/bcurto/mem-access-simulator/accesstest/accesstest -v -s 100 -d 10 --sess-distr u 0/73728,1 0/73728,1 fibre -c 1,1
[0.000s] Creating path with 2 phases.
  Phase 0:
    0 sess-local datalocs, 0.000000 update ratio, inf access count scalar /
    73728 sess-global datalocs, 1.000000 update ratio, inf access count scalar
  Phase 1:
    0 sess-local datalocs, 0.000000 update ratio, inf access count scalar /
    73728 sess-global datalocs, 1.000000 update ratio, inf access count scalar
[0.000s] Creating global buffer at 0x7f1280000000 of size 9437184 bytes.
[1.836s] Test is ready to start.
Test duration in range [10.000, 10.002] seconds
Num Accesses: 811193805.000000
Throughput: 81119380.500000
Num Accesses - Session Mean & Stddev: 8111938.050000,26504.124803
Num Phases Traversed: 11097.000000
Num Phases Traversed - Session Mean & Stddev: 110.970000,0.359305
Num Path Iterations: 11097.000000
Num Path Iterations - Session Mean & Stddev: 110.970000,0.359305
+ set +x
++ printf 'taskset -c 1-2 timeout 100 /home/bcurto/mem-access-simulator/accesstest/accesstest -v -s 100 -d 10 --sess-distr u %s fibre %s\n' '0/73728,1 0/73728,1' '-c 1,1'
+ taskset -c 1-2 timeout 100 /home/bcurto/mem-access-simulator/accesstest/accesstest -v -s 100 -d 10 --sess-distr u 0/73728,1 0/73728,1 fibre -c 1,1
[0.000s] Creating path with 2 phases.
  Phase 0:
    0 sess-local datalocs, 0.000000 update ratio, inf access count scalar /
    73728 sess-global datalocs, 1.000000 update ratio, inf access count scalar
  Phase 1:
    0 sess-local datalocs, 0.000000 update ratio, inf access count scalar /
    73728 sess-global datalocs, 1.000000 update ratio, inf access count scalar
[0.000s] Creating global buffer at 0x7f9d80000000 of size 9437184 bytes.
[1.807s] Test is ready to start.
Test duration in range [10.000, 10.002] seconds
Num Accesses: 811120040.000000
Throughput: 81112004.000000
Num Accesses - Session Mean & Stddev: 8111200.400000,27442.166298
Num Phases Traversed: 11096.000000
Num Phases Traversed - Session Mean & Stddev: 110.960000,0.372022
Num Path Iterations: 11096.000000
Num Path Iterations - Session Mean & Stddev: 110.960000,0.372022
+ set +x
++ printf 'taskset -c 1-2 timeout 100 /home/bcurto/mem-access-simulator/accesstest/accesstest -v -s 100 -d 10 --sess-distr u %s fibre %s\n' '0/73728,1 0/73728,1' '-c 1,1'
+ taskset -c 1-2 timeout 100 /home/bcurto/mem-access-simulator/accesstest/accesstest -v -s 100 -d 10 --sess-distr u 0/73728,1 0/73728,1 fibre -c 1,1
[0.000s] Creating path with 2 phases.
  Phase 0:
    0 sess-local datalocs, 0.000000 update ratio, inf access count scalar /
    73728 sess-global datalocs, 1.000000 update ratio, inf access count scalar
  Phase 1:
    0 sess-local datalocs, 0.000000 update ratio, inf access count scalar /
    73728 sess-global datalocs, 1.000000 update ratio, inf access count scalar
[0.000s] Creating global buffer at 0x7f9480000000 of size 9437184 bytes.
[1.807s] Test is ready to start.
Test duration in range [10.000, 10.001] seconds
Num Accesses: 811046275.000000
Throughput: 81104627.500000
Num Accesses - Session Mean & Stddev: 8110462.750000,28329.985805
Num Phases Traversed: 11095.000000
Num Phases Traversed - Session Mean & Stddev: 110.950000,0.384057
Num Path Iterations: 11095.000000
Num Path Iterations - Session Mean & Stddev: 110.950000,0.384057
+ set +x
++ printf 'taskset -c 1-2 timeout 100 /home/bcurto/mem-access-simulator/accesstest/accesstest -v -s 100 -d 10 --sess-distr u %s fibre %s\n' '0/73728,1 0/73728,1' '-c 1,1'
+ taskset -c 1-2 timeout 100 /home/bcurto/mem-access-simulator/accesstest/accesstest -v -s 100 -d 10 --sess-distr u 0/73728,1 0/73728,1 fibre -c 1,1
[0.000s] Creating path with 2 phases.
  Phase 0:
    0 sess-local datalocs, 0.000000 update ratio, inf access count scalar /
    73728 sess-global datalocs, 1.000000 update ratio, inf access count scalar
  Phase 1:
    0 sess-local datalocs, 0.000000 update ratio, inf access count scalar /
    73728 sess-global datalocs, 1.000000 update ratio, inf access count scalar
[0.000s] Creating global buffer at 0x7f6900000000 of size 9437184 bytes.
[1.840s] Test is ready to start.
Test duration in range [10.000, 10.002] seconds
Num Accesses: 811120040.000000
Throughput: 81112004.000000
Num Accesses - Session Mean & Stddev: 8111200.400000,25382.020933
Num Phases Traversed: 11096.000000
Num Phases Traversed - Session Mean & Stddev: 110.960000,0.344093
Num Path Iterations: 11096.000000
Num Path Iterations - Session Mean & Stddev: 110.960000,0.344093
+ set +x
++ printf 'taskset -c 1-2 timeout 100 /home/bcurto/mem-access-simulator/accesstest/accesstest -v -s 100 -d 10 --sess-distr u %s fibre %s\n' '0/73728,1 0/73728,1' '-c 1,1'
+ taskset -c 1-2 timeout 100 /home/bcurto/mem-access-simulator/accesstest/accesstest -v -s 100 -d 10 --sess-distr u 0/73728,1 0/73728,1 fibre -c 1,1
[0.000s] Creating path with 2 phases.
  Phase 0:
    0 sess-local datalocs, 0.000000 update ratio, inf access count scalar /
    73728 sess-global datalocs, 1.000000 update ratio, inf access count scalar
  Phase 1:
    0 sess-local datalocs, 0.000000 update ratio, inf access count scalar /
    73728 sess-global datalocs, 1.000000 update ratio, inf access count scalar
[0.000s] Creating global buffer at 0x7f67c0000000 of size 9437184 bytes.
[1.838s] Test is ready to start.
Test duration in range [10.000, 10.002] seconds
Num Accesses: 811120040.000000
Throughput: 81112004.000000
Num Accesses - Session Mean & Stddev: 8111200.400000,25382.020933
Num Phases Traversed: 11096.000000
Num Phases Traversed - Session Mean & Stddev: 110.960000,0.344093
Num Path Iterations: 11096.000000
Num Path Iterations - Session Mean & Stddev: 110.960000,0.344093
+ set +x
++ printf 'taskset -c 1-2 timeout 100 /home/bcurto/mem-access-simulator/accesstest/accesstest -v -s 100 -d 10 --sess-distr u %s fibre %s\n' '0/73728,1 0/73728,1' '-c 1,1'
+ taskset -c 1-2 timeout 100 /home/bcurto/mem-access-simulator/accesstest/accesstest -v -s 100 -d 10 --sess-distr u 0/73728,1 0/73728,1 fibre -c 1,1
[0.000s] Creating path with 2 phases.
  Phase 0:
    0 sess-local datalocs, 0.000000 update ratio, inf access count scalar /
    73728 sess-global datalocs, 1.000000 update ratio, inf access count scalar
  Phase 1:
    0 sess-local datalocs, 0.000000 update ratio, inf access count scalar /
    73728 sess-global datalocs, 1.000000 update ratio, inf access count scalar
[0.000s] Creating global buffer at 0x7f07c0000000 of size 9437184 bytes.
[1.835s] Test is ready to start.
Test duration in range [10.000, 10.002] seconds
Num Accesses: 811193805.000000
Throughput: 81119380.500000
Num Accesses - Session Mean & Stddev: 8111938.050000,26504.124803
Num Phases Traversed: 11097.000000
Num Phases Traversed - Session Mean & Stddev: 110.970000,0.359305
Num Path Iterations: 11097.000000
Num Path Iterations - Session Mean & Stddev: 110.970000,0.359305
+ set +x
++ printf 'taskset -c 1-2 timeout 100 /home/bcurto/mem-access-simulator/accesstest/accesstest -v -s 100 -d 10 --sess-distr u %s fibre %s\n' '0/73728,1 0/73728,1' '-c 1,1'
+ taskset -c 1-2 timeout 100 /home/bcurto/mem-access-simulator/accesstest/accesstest -v -s 100 -d 10 --sess-distr u 0/73728,1 0/73728,1 fibre -c 1,1
[0.000s] Creating path with 2 phases.
  Phase 0:
    0 sess-local datalocs, 0.000000 update ratio, inf access count scalar /
    73728 sess-global datalocs, 1.000000 update ratio, inf access count scalar
  Phase 1:
    0 sess-local datalocs, 0.000000 update ratio, inf access count scalar /
    73728 sess-global datalocs, 1.000000 update ratio, inf access count scalar
[0.000s] Creating global buffer at 0x7f4d80000000 of size 9437184 bytes.
[1.835s] Test is ready to start.
Test duration in range [10.000, 10.002] seconds
Num Accesses: 811193805.000000
Throughput: 81119380.500000
Num Accesses - Session Mean & Stddev: 8111938.050000,26504.124803
Num Phases Traversed: 11097.000000
Num Phases Traversed - Session Mean & Stddev: 110.970000,0.359305
Num Path Iterations: 11097.000000
Num Path Iterations - Session Mean & Stddev: 110.970000,0.359305
+ set +x
++ printf 'taskset -c 1-2 timeout 100 /home/bcurto/mem-access-simulator/accesstest/accesstest -v -s 100 -d 10 --sess-distr u %s fibre %s\n' '0/73728,1 0/73728,1' '-c 1,1'
+ taskset -c 1-2 timeout 100 /home/bcurto/mem-access-simulator/accesstest/accesstest -v -s 100 -d 10 --sess-distr u 0/73728,1 0/73728,1 fibre -c 1,1
[0.000s] Creating path with 2 phases.
  Phase 0:
    0 sess-local datalocs, 0.000000 update ratio, inf access count scalar /
    73728 sess-global datalocs, 1.000000 update ratio, inf access count scalar
  Phase 1:
    0 sess-local datalocs, 0.000000 update ratio, inf access count scalar /
    73728 sess-global datalocs, 1.000000 update ratio, inf access count scalar
[0.000s] Creating global buffer at 0x7f0b80000000 of size 9437184 bytes.
[1.839s] Test is ready to start.
Test duration in range [10.000, 10.002] seconds
Num Accesses: 811267570.000000
Throughput: 81126757.000000
Num Accesses - Session Mean & Stddev: 8112675.700000,25510.321772
Num Phases Traversed: 11098.000000
Num Phases Traversed - Session Mean & Stddev: 110.980000,0.345832
Num Path Iterations: 11098.000000
Num Path Iterations - Session Mean & Stddev: 110.980000,0.345832
+ set +x
++ printf 'taskset -c 1-2 timeout 100 /home/bcurto/mem-access-simulator/accesstest/accesstest -v -s 100 -d 10 --sess-distr u %s fibre %s\n' '0/73728,1 0/73728,1' '-c 1,1'
+ taskset -c 1-2 timeout 100 /home/bcurto/mem-access-simulator/accesstest/accesstest -v -s 100 -d 10 --sess-distr u 0/73728,1 0/73728,1 fibre -c 1,1
[0.000s] Creating path with 2 phases.
  Phase 0:
    0 sess-local datalocs, 0.000000 update ratio, inf access count scalar /
    73728 sess-global datalocs, 1.000000 update ratio, inf access count scalar
  Phase 1:
    0 sess-local datalocs, 0.000000 update ratio, inf access count scalar /
    73728 sess-global datalocs, 1.000000 update ratio, inf access count scalar
[0.000s] Creating global buffer at 0x7f4d80000000 of size 9437184 bytes.
[1.839s] Test is ready to start.
Test duration in range [10.000, 10.002] seconds
Num Accesses: 811193805.000000
Throughput: 81119380.500000
Num Accesses - Session Mean & Stddev: 8111938.050000,26504.124803
Num Phases Traversed: 11097.000000
Num Phases Traversed - Session Mean & Stddev: 110.970000,0.359305
Num Path Iterations: 11097.000000
Num Path Iterations - Session Mean & Stddev: 110.970000,0.359305
+ set +x
++ printf 'taskset -c 1-2 timeout 100 /home/bcurto/mem-access-simulator/accesstest/accesstest -v -s 100 -d 10 --sess-distr u %s fibre %s\n' '0/73728,1 0/73728,1' '-c 1,1'
+ taskset -c 1-2 timeout 100 /home/bcurto/mem-access-simulator/accesstest/accesstest -v -s 100 -d 10 --sess-distr u 0/73728,1 0/73728,1 fibre -c 1,1
[0.000s] Creating path with 2 phases.
  Phase 0:
    0 sess-local datalocs, 0.000000 update ratio, inf access count scalar /
    73728 sess-global datalocs, 1.000000 update ratio, inf access count scalar
  Phase 1:
    0 sess-local datalocs, 0.000000 update ratio, inf access count scalar /
    73728 sess-global datalocs, 1.000000 update ratio, inf access count scalar
[0.000s] Creating global buffer at 0x7f9940000000 of size 9437184 bytes.
[1.808s] Test is ready to start.
Test duration in range [10.000, 10.002] seconds
Num Accesses: 807653085.000000
Throughput: 80765308.500000
Num Accesses - Session Mean & Stddev: 8076530.850000,36875.122762
Num Phases Traversed: 11049.000000
Num Phases Traversed - Session Mean & Stddev: 110.490000,0.499900
Num Path Iterations: 11049.000000
Num Path Iterations - Session Mean & Stddev: 110.490000,0.499900
+ set +x
++ printf 'taskset -c 1-2 timeout 100 /home/bcurto/mem-access-simulator/accesstest/accesstest -v -s 100 -d 10 --sess-distr u %s fibre %s\n' '0/73728,1 0/73728,1' '-c 1,1'
+ taskset -c 1-2 timeout 100 /home/bcurto/mem-access-simulator/accesstest/accesstest -v -s 100 -d 10 --sess-distr u 0/73728,1 0/73728,1 fibre -c 1,1
[0.000s] Creating path with 2 phases.
  Phase 0:
    0 sess-local datalocs, 0.000000 update ratio, inf access count scalar /
    73728 sess-global datalocs, 1.000000 update ratio, inf access count scalar
  Phase 1:
    0 sess-local datalocs, 0.000000 update ratio, inf access count scalar /
    73728 sess-global datalocs, 1.000000 update ratio, inf access count scalar
[0.000s] Creating global buffer at 0x7ff7c0000000 of size 9437184 bytes.
[1.838s] Test is ready to start.
Test duration in range [10.000, 10.001] seconds
Num Accesses: 811193805.000000
Throughput: 81119380.500000
Num Accesses - Session Mean & Stddev: 8111938.050000,26504.124803
Num Phases Traversed: 11097.000000
Num Phases Traversed - Session Mean & Stddev: 110.970000,0.359305
Num Path Iterations: 11097.000000
Num Path Iterations - Session Mean & Stddev: 110.970000,0.359305
+ set +x
++ printf 'taskset -c 1-2 timeout 100 /home/bcurto/mem-access-simulator/accesstest/accesstest -v -s 100 -d 10 --sess-distr u %s fibre %s\n' '0/73728,1 0/73728,1' '-c 1,1'
+ taskset -c 1-2 timeout 100 /home/bcurto/mem-access-simulator/accesstest/accesstest -v -s 100 -d 10 --sess-distr u 0/73728,1 0/73728,1 fibre -c 1,1
[0.000s] Creating path with 2 phases.
  Phase 0:
    0 sess-local datalocs, 0.000000 update ratio, inf access count scalar /
    73728 sess-global datalocs, 1.000000 update ratio, inf access count scalar
  Phase 1:
    0 sess-local datalocs, 0.000000 update ratio, inf access count scalar /
    73728 sess-global datalocs, 1.000000 update ratio, inf access count scalar
[0.000s] Creating global buffer at 0x7f8d00000000 of size 9437184 bytes.
[1.804s] Test is ready to start.
Test duration in range [10.000, 10.001] seconds
Num Accesses: 807136730.000000
Throughput: 80713673.000000
Num Accesses - Session Mean & Stddev: 8071367.300000,36407.343281
Num Phases Traversed: 11042.000000
Num Phases Traversed - Session Mean & Stddev: 110.420000,0.493559
Num Path Iterations: 11042.000000
Num Path Iterations - Session Mean & Stddev: 110.420000,0.493559
+ set +x
++ printf 'taskset -c 1-2 timeout 100 /home/bcurto/mem-access-simulator/accesstest/accesstest -v -s 100 -d 10 --sess-distr u %s fibre %s\n' '0/73728,1 0/73728,1' '-c 1,1'
+ taskset -c 1-2 timeout 100 /home/bcurto/mem-access-simulator/accesstest/accesstest -v -s 100 -d 10 --sess-distr u 0/73728,1 0/73728,1 fibre -c 1,1
[0.000s] Creating path with 2 phases.
  Phase 0:
    0 sess-local datalocs, 0.000000 update ratio, inf access count scalar /
    73728 sess-global datalocs, 1.000000 update ratio, inf access count scalar
  Phase 1:
    0 sess-local datalocs, 0.000000 update ratio, inf access count scalar /
    73728 sess-global datalocs, 1.000000 update ratio, inf access count scalar
[0.000s] Creating global buffer at 0x7fba80000000 of size 9437184 bytes.
[1.836s] Test is ready to start.
Test duration in range [10.000, 10.002] seconds
Num Accesses: 811120040.000000
Throughput: 81112004.000000
Num Accesses - Session Mean & Stddev: 8111200.400000,25382.020933
Num Phases Traversed: 11096.000000
Num Phases Traversed - Session Mean & Stddev: 110.960000,0.344093
Num Path Iterations: 11096.000000
Num Path Iterations - Session Mean & Stddev: 110.960000,0.344093
+ set +x
++ printf 'taskset -c 1-2 timeout 100 /home/bcurto/mem-access-simulator/accesstest/accesstest -v -s 100 -d 10 --sess-distr u %s fibre %s\n' '0/73728,1 0/73728,1' '-c 1,1'
+ taskset -c 1-2 timeout 100 /home/bcurto/mem-access-simulator/accesstest/accesstest -v -s 100 -d 10 --sess-distr u 0/73728,1 0/73728,1 fibre -c 1,1
[0.000s] Creating path with 2 phases.
  Phase 0:
    0 sess-local datalocs, 0.000000 update ratio, inf access count scalar /
    73728 sess-global datalocs, 1.000000 update ratio, inf access count scalar
  Phase 1:
    0 sess-local datalocs, 0.000000 update ratio, inf access count scalar /
    73728 sess-global datalocs, 1.000000 update ratio, inf access count scalar
[0.000s] Creating global buffer at 0x7fcc80000000 of size 9437184 bytes.
[1.839s] Test is ready to start.
Test duration in range [10.000, 10.001] seconds
Num Accesses: 811193805.000000
Throughput: 81119380.500000
Num Accesses - Session Mean & Stddev: 8111938.050000,26504.124803
Num Phases Traversed: 11097.000000
Num Phases Traversed - Session Mean & Stddev: 110.970000,0.359305
Num Path Iterations: 11097.000000
Num Path Iterations - Session Mean & Stddev: 110.970000,0.359305
+ set +x
++ printf 'taskset -c 1-2 timeout 100 /home/bcurto/mem-access-simulator/accesstest/accesstest -v -s 100 -d 10 --sess-distr u %s fibre %s\n' '0/73728,1 0/73728,1' '-c 1,1'
+ taskset -c 1-2 timeout 100 /home/bcurto/mem-access-simulator/accesstest/accesstest -v -s 100 -d 10 --sess-distr u 0/73728,1 0/73728,1 fibre -c 1,1
[0.000s] Creating path with 2 phases.
  Phase 0:
    0 sess-local datalocs, 0.000000 update ratio, inf access count scalar /
    73728 sess-global datalocs, 1.000000 update ratio, inf access count scalar
  Phase 1:
    0 sess-local datalocs, 0.000000 update ratio, inf access count scalar /
    73728 sess-global datalocs, 1.000000 update ratio, inf access count scalar
[0.000s] Creating global buffer at 0x7fc7c0000000 of size 9437184 bytes.
[1.836s] Test is ready to start.
Test duration in range [10.000, 10.002] seconds
Num Accesses: 811120040.000000
Throughput: 81112004.000000
Num Accesses - Session Mean & Stddev: 8111200.400000,25382.020933
Num Phases Traversed: 11096.000000
Num Phases Traversed - Session Mean & Stddev: 110.960000,0.344093
Num Path Iterations: 11096.000000
Num Path Iterations - Session Mean & Stddev: 110.960000,0.344093
+ set +x
