++ printf 'taskset -c 1-2 timeout 100 /home/bcurto/mem-access-simulator/accesstest/accesstest -v -s 100 -d 10 --sess-distr u %s fibre %s\n' '0/233472,0.1 0/233472,0.1' '-c 1,1'
+ taskset -c 1-2 timeout 100 /home/bcurto/mem-access-simulator/accesstest/accesstest -v -s 100 -d 10 --sess-distr u 0/233472,0.1 0/233472,0.1 fibre -c 1,1
[0.000s] Creating path with 2 phases.
  Phase 0:
    0 sess-local datalocs, 0.000000 update ratio, inf access count scalar /
    233472 sess-global datalocs, 0.100000 update ratio, inf access count scalar
  Phase 1:
    0 sess-local datalocs, 0.000000 update ratio, inf access count scalar /
    233472 sess-global datalocs, 0.100000 update ratio, inf access count scalar
[0.000s] Creating global buffer at 0x7f3180000000 of size 29884416 bytes.
[5.788s] Test is ready to start.
Test duration in range [10.000, 10.016] seconds
Num Accesses: 228138393.000000
Throughput: 22813839.300000
Num Accesses - Session Mean & Stddev: 2281383.930000,98268.178169
Num Phases Traversed: 1077.000000
Num Phases Traversed - Session Mean & Stddev: 10.770000,0.420833
Num Path Iterations: 1077.000000
Num Path Iterations - Session Mean & Stddev: 10.770000,0.420833
+ set +x
++ printf 'taskset -c 1-2 timeout 100 /home/bcurto/mem-access-simulator/accesstest/accesstest -v -s 100 -d 10 --sess-distr u %s fibre %s\n' '0/233472,0.1 0/233472,0.1' '-c 1,1'
+ taskset -c 1-2 timeout 100 /home/bcurto/mem-access-simulator/accesstest/accesstest -v -s 100 -d 10 --sess-distr u 0/233472,0.1 0/233472,0.1 fibre -c 1,1
[0.000s] Creating path with 2 phases.
  Phase 0:
    0 sess-local datalocs, 0.000000 update ratio, inf access count scalar /
    233472 sess-global datalocs, 0.100000 update ratio, inf access count scalar
  Phase 1:
    0 sess-local datalocs, 0.000000 update ratio, inf access count scalar /
    233472 sess-global datalocs, 0.100000 update ratio, inf access count scalar
[0.000s] Creating global buffer at 0x7fb180000000 of size 29884416 bytes.
[5.720s] Test is ready to start.
Test duration in range [10.000, 10.019] seconds
Num Accesses: 228138393.000000
Throughput: 22813839.300000
Num Accesses - Session Mean & Stddev: 2281383.930000,98268.178169
Num Phases Traversed: 1077.000000
Num Phases Traversed - Session Mean & Stddev: 10.770000,0.420833
Num Path Iterations: 1077.000000
Num Path Iterations - Session Mean & Stddev: 10.770000,0.420833
+ set +x
++ printf 'taskset -c 1-2 timeout 100 /home/bcurto/mem-access-simulator/accesstest/accesstest -v -s 100 -d 10 --sess-distr u %s fibre %s\n' '0/233472,0.1 0/233472,0.1' '-c 1,1'
+ taskset -c 1-2 timeout 100 /home/bcurto/mem-access-simulator/accesstest/accesstest -v -s 100 -d 10 --sess-distr u 0/233472,0.1 0/233472,0.1 fibre -c 1,1
[0.000s] Creating path with 2 phases.
  Phase 0:
    0 sess-local datalocs, 0.000000 update ratio, inf access count scalar /
    233472 sess-global datalocs, 0.100000 update ratio, inf access count scalar
  Phase 1:
    0 sess-local datalocs, 0.000000 update ratio, inf access count scalar /
    233472 sess-global datalocs, 0.100000 update ratio, inf access count scalar
[0.000s] Creating global buffer at 0x7fa580000000 of size 29884416 bytes.
[5.722s] Test is ready to start.
Test duration in range [10.000, 10.009] seconds
Num Accesses: 227904884.000000
Throughput: 22790488.400000
Num Accesses - Session Mean & Stddev: 2279048.840000,99727.754622
Num Phases Traversed: 1076.000000
Num Phases Traversed - Session Mean & Stddev: 10.760000,0.427083
Num Path Iterations: 1076.000000
Num Path Iterations - Session Mean & Stddev: 10.760000,0.427083
+ set +x
++ printf 'taskset -c 1-2 timeout 100 /home/bcurto/mem-access-simulator/accesstest/accesstest -v -s 100 -d 10 --sess-distr u %s fibre %s\n' '0/233472,0.1 0/233472,0.1' '-c 1,1'
+ taskset -c 1-2 timeout 100 /home/bcurto/mem-access-simulator/accesstest/accesstest -v -s 100 -d 10 --sess-distr u 0/233472,0.1 0/233472,0.1 fibre -c 1,1
[0.000s] Creating path with 2 phases.
  Phase 0:
    0 sess-local datalocs, 0.000000 update ratio, inf access count scalar /
    233472 sess-global datalocs, 0.100000 update ratio, inf access count scalar
  Phase 1:
    0 sess-local datalocs, 0.000000 update ratio, inf access count scalar /
    233472 sess-global datalocs, 0.100000 update ratio, inf access count scalar
[0.000s] Creating global buffer at 0x7f05c0000000 of size 29884416 bytes.
[5.788s] Test is ready to start.
Test duration in range [10.000, 10.009] seconds
Num Accesses: 227904884.000000
Throughput: 22790488.400000
Num Accesses - Session Mean & Stddev: 2279048.840000,99727.754622
Num Phases Traversed: 1076.000000
Num Phases Traversed - Session Mean & Stddev: 10.760000,0.427083
Num Path Iterations: 1076.000000
Num Path Iterations - Session Mean & Stddev: 10.760000,0.427083
+ set +x
++ printf 'taskset -c 1-2 timeout 100 /home/bcurto/mem-access-simulator/accesstest/accesstest -v -s 100 -d 10 --sess-distr u %s fibre %s\n' '0/233472,0.1 0/233472,0.1' '-c 1,1'
+ taskset -c 1-2 timeout 100 /home/bcurto/mem-access-simulator/accesstest/accesstest -v -s 100 -d 10 --sess-distr u 0/233472,0.1 0/233472,0.1 fibre -c 1,1
[0.000s] Creating path with 2 phases.
  Phase 0:
    0 sess-local datalocs, 0.000000 update ratio, inf access count scalar /
    233472 sess-global datalocs, 0.100000 update ratio, inf access count scalar
  Phase 1:
    0 sess-local datalocs, 0.000000 update ratio, inf access count scalar /
    233472 sess-global datalocs, 0.100000 update ratio, inf access count scalar
[0.000s] Creating global buffer at 0x7fbd00000000 of size 29884416 bytes.
[5.788s] Test is ready to start.
Test duration in range [10.000, 10.019] seconds
Num Accesses: 228138393.000000
Throughput: 22813839.300000
Num Accesses - Session Mean & Stddev: 2281383.930000,98268.178169
Num Phases Traversed: 1077.000000
Num Phases Traversed - Session Mean & Stddev: 10.770000,0.420833
Num Path Iterations: 1077.000000
Num Path Iterations - Session Mean & Stddev: 10.770000,0.420833
+ set +x
++ printf 'taskset -c 1-2 timeout 100 /home/bcurto/mem-access-simulator/accesstest/accesstest -v -s 100 -d 10 --sess-distr u %s fibre %s\n' '0/233472,0.1 0/233472,0.1' '-c 1,1'
+ taskset -c 1-2 timeout 100 /home/bcurto/mem-access-simulator/accesstest/accesstest -v -s 100 -d 10 --sess-distr u 0/233472,0.1 0/233472,0.1 fibre -c 1,1
[0.000s] Creating path with 2 phases.
  Phase 0:
    0 sess-local datalocs, 0.000000 update ratio, inf access count scalar /
    233472 sess-global datalocs, 0.100000 update ratio, inf access count scalar
  Phase 1:
    0 sess-local datalocs, 0.000000 update ratio, inf access count scalar /
    233472 sess-global datalocs, 0.100000 update ratio, inf access count scalar
[0.000s] Creating global buffer at 0x7f6c80000000 of size 29884416 bytes.
[5.797s] Test is ready to start.
Test duration in range [10.000, 10.020] seconds
Num Accesses: 228138393.000000
Throughput: 22813839.300000
Num Accesses - Session Mean & Stddev: 2281383.930000,98268.178169
Num Phases Traversed: 1077.000000
Num Phases Traversed - Session Mean & Stddev: 10.770000,0.420833
Num Path Iterations: 1077.000000
Num Path Iterations - Session Mean & Stddev: 10.770000,0.420833
+ set +x
++ printf 'taskset -c 1-2 timeout 100 /home/bcurto/mem-access-simulator/accesstest/accesstest -v -s 100 -d 10 --sess-distr u %s fibre %s\n' '0/233472,0.1 0/233472,0.1' '-c 1,1'
+ taskset -c 1-2 timeout 100 /home/bcurto/mem-access-simulator/accesstest/accesstest -v -s 100 -d 10 --sess-distr u 0/233472,0.1 0/233472,0.1 fibre -c 1,1
[0.000s] Creating path with 2 phases.
  Phase 0:
    0 sess-local datalocs, 0.000000 update ratio, inf access count scalar /
    233472 sess-global datalocs, 0.100000 update ratio, inf access count scalar
  Phase 1:
    0 sess-local datalocs, 0.000000 update ratio, inf access count scalar /
    233472 sess-global datalocs, 0.100000 update ratio, inf access count scalar
[0.000s] Creating global buffer at 0x7fd380000000 of size 29884416 bytes.
[5.789s] Test is ready to start.
Test duration in range [10.000, 10.017] seconds
Num Accesses: 228138393.000000
Throughput: 22813839.300000
Num Accesses - Session Mean & Stddev: 2281383.930000,98268.178169
Num Phases Traversed: 1077.000000
Num Phases Traversed - Session Mean & Stddev: 10.770000,0.420833
Num Path Iterations: 1077.000000
Num Path Iterations - Session Mean & Stddev: 10.770000,0.420833
+ set +x
++ printf 'taskset -c 1-2 timeout 100 /home/bcurto/mem-access-simulator/accesstest/accesstest -v -s 100 -d 10 --sess-distr u %s fibre %s\n' '0/233472,0.1 0/233472,0.1' '-c 1,1'
+ taskset -c 1-2 timeout 100 /home/bcurto/mem-access-simulator/accesstest/accesstest -v -s 100 -d 10 --sess-distr u 0/233472,0.1 0/233472,0.1 fibre -c 1,1
[0.000s] Creating path with 2 phases.
  Phase 0:
    0 sess-local datalocs, 0.000000 update ratio, inf access count scalar /
    233472 sess-global datalocs, 0.100000 update ratio, inf access count scalar
  Phase 1:
    0 sess-local datalocs, 0.000000 update ratio, inf access count scalar /
    233472 sess-global datalocs, 0.100000 update ratio, inf access count scalar
[0.000s] Creating global buffer at 0x7fa700000000 of size 29884416 bytes.
[5.788s] Test is ready to start.
Test duration in range [10.000, 10.019] seconds
Num Accesses: 228138393.000000
Throughput: 22813839.300000
Num Accesses - Session Mean & Stddev: 2281383.930000,98268.178169
Num Phases Traversed: 1077.000000
Num Phases Traversed - Session Mean & Stddev: 10.770000,0.420833
Num Path Iterations: 1077.000000
Num Path Iterations - Session Mean & Stddev: 10.770000,0.420833
+ set +x
++ printf 'taskset -c 1-2 timeout 100 /home/bcurto/mem-access-simulator/accesstest/accesstest -v -s 100 -d 10 --sess-distr u %s fibre %s\n' '0/233472,0.1 0/233472,0.1' '-c 1,1'
+ taskset -c 1-2 timeout 100 /home/bcurto/mem-access-simulator/accesstest/accesstest -v -s 100 -d 10 --sess-distr u 0/233472,0.1 0/233472,0.1 fibre -c 1,1
[0.000s] Creating path with 2 phases.
  Phase 0:
    0 sess-local datalocs, 0.000000 update ratio, inf access count scalar /
    233472 sess-global datalocs, 0.100000 update ratio, inf access count scalar
  Phase 1:
    0 sess-local datalocs, 0.000000 update ratio, inf access count scalar /
    233472 sess-global datalocs, 0.100000 update ratio, inf access count scalar
[0.000s] Creating global buffer at 0x7f2f00000000 of size 29884416 bytes.
[5.788s] Test is ready to start.
Test duration in range [10.000, 10.016] seconds
Num Accesses: 228138393.000000
Throughput: 22813839.300000
Num Accesses - Session Mean & Stddev: 2281383.930000,98268.178169
Num Phases Traversed: 1077.000000
Num Phases Traversed - Session Mean & Stddev: 10.770000,0.420833
Num Path Iterations: 1077.000000
Num Path Iterations - Session Mean & Stddev: 10.770000,0.420833
+ set +x
++ printf 'taskset -c 1-2 timeout 100 /home/bcurto/mem-access-simulator/accesstest/accesstest -v -s 100 -d 10 --sess-distr u %s fibre %s\n' '0/233472,0.1 0/233472,0.1' '-c 1,1'
+ taskset -c 1-2 timeout 100 /home/bcurto/mem-access-simulator/accesstest/accesstest -v -s 100 -d 10 --sess-distr u 0/233472,0.1 0/233472,0.1 fibre -c 1,1
[0.000s] Creating path with 2 phases.
  Phase 0:
    0 sess-local datalocs, 0.000000 update ratio, inf access count scalar /
    233472 sess-global datalocs, 0.100000 update ratio, inf access count scalar
  Phase 1:
    0 sess-local datalocs, 0.000000 update ratio, inf access count scalar /
    233472 sess-global datalocs, 0.100000 update ratio, inf access count scalar
[0.000s] Creating global buffer at 0x7f6280000000 of size 29884416 bytes.
[5.720s] Test is ready to start.
Test duration in range [10.000, 10.020] seconds
Num Accesses: 228138393.000000
Throughput: 22813839.300000
Num Accesses - Session Mean & Stddev: 2281383.930000,98268.178169
Num Phases Traversed: 1077.000000
Num Phases Traversed - Session Mean & Stddev: 10.770000,0.420833
Num Path Iterations: 1077.000000
Num Path Iterations - Session Mean & Stddev: 10.770000,0.420833
+ set +x
++ printf 'taskset -c 1-2 timeout 100 /home/bcurto/mem-access-simulator/accesstest/accesstest -v -s 100 -d 10 --sess-distr u %s fibre %s\n' '0/233472,0.1 0/233472,0.1' '-c 1,1'
+ taskset -c 1-2 timeout 100 /home/bcurto/mem-access-simulator/accesstest/accesstest -v -s 100 -d 10 --sess-distr u 0/233472,0.1 0/233472,0.1 fibre -c 1,1
[0.000s] Creating path with 2 phases.
  Phase 0:
    0 sess-local datalocs, 0.000000 update ratio, inf access count scalar /
    233472 sess-global datalocs, 0.100000 update ratio, inf access count scalar
  Phase 1:
    0 sess-local datalocs, 0.000000 update ratio, inf access count scalar /
    233472 sess-global datalocs, 0.100000 update ratio, inf access count scalar
[0.000s] Creating global buffer at 0x7f9780000000 of size 29884416 bytes.
[5.789s] Test is ready to start.
Test duration in range [10.000, 10.016] seconds
Num Accesses: 228138393.000000
Throughput: 22813839.300000
Num Accesses - Session Mean & Stddev: 2281383.930000,98268.178169
Num Phases Traversed: 1077.000000
Num Phases Traversed - Session Mean & Stddev: 10.770000,0.420833
Num Path Iterations: 1077.000000
Num Path Iterations - Session Mean & Stddev: 10.770000,0.420833
+ set +x
++ printf 'taskset -c 1-2 timeout 100 /home/bcurto/mem-access-simulator/accesstest/accesstest -v -s 100 -d 10 --sess-distr u %s fibre %s\n' '0/233472,0.1 0/233472,0.1' '-c 1,1'
+ taskset -c 1-2 timeout 100 /home/bcurto/mem-access-simulator/accesstest/accesstest -v -s 100 -d 10 --sess-distr u 0/233472,0.1 0/233472,0.1 fibre -c 1,1
[0.000s] Creating path with 2 phases.
  Phase 0:
    0 sess-local datalocs, 0.000000 update ratio, inf access count scalar /
    233472 sess-global datalocs, 0.100000 update ratio, inf access count scalar
  Phase 1:
    0 sess-local datalocs, 0.000000 update ratio, inf access count scalar /
    233472 sess-global datalocs, 0.100000 update ratio, inf access count scalar
[0.000s] Creating global buffer at 0x7f9200000000 of size 29884416 bytes.
[5.717s] Test is ready to start.
Test duration in range [10.000, 10.016] seconds
Num Accesses: 227204357.000000
Throughput: 22720435.700000
Num Accesses - Session Mean & Stddev: 2272043.570000,103668.528987
Num Phases Traversed: 1073.000000
Num Phases Traversed - Session Mean & Stddev: 10.730000,0.443959
Num Path Iterations: 1073.000000
Num Path Iterations - Session Mean & Stddev: 10.730000,0.443959
+ set +x
++ printf 'taskset -c 1-2 timeout 100 /home/bcurto/mem-access-simulator/accesstest/accesstest -v -s 100 -d 10 --sess-distr u %s fibre %s\n' '0/233472,0.1 0/233472,0.1' '-c 1,1'
+ taskset -c 1-2 timeout 100 /home/bcurto/mem-access-simulator/accesstest/accesstest -v -s 100 -d 10 --sess-distr u 0/233472,0.1 0/233472,0.1 fibre -c 1,1
[0.000s] Creating path with 2 phases.
  Phase 0:
    0 sess-local datalocs, 0.000000 update ratio, inf access count scalar /
    233472 sess-global datalocs, 0.100000 update ratio, inf access count scalar
  Phase 1:
    0 sess-local datalocs, 0.000000 update ratio, inf access count scalar /
    233472 sess-global datalocs, 0.100000 update ratio, inf access count scalar
[0.000s] Creating global buffer at 0x7fd4c0000000 of size 29884416 bytes.
[5.721s] Test is ready to start.
Test duration in range [10.000, 10.018] seconds
Num Accesses: 227437866.000000
Throughput: 22743786.600000
Num Accesses - Session Mean & Stddev: 2274378.660000,102425.043680
Num Phases Traversed: 1074.000000
Num Phases Traversed - Session Mean & Stddev: 10.740000,0.438634
Num Path Iterations: 1074.000000
Num Path Iterations - Session Mean & Stddev: 10.740000,0.438634
+ set +x
++ printf 'taskset -c 1-2 timeout 100 /home/bcurto/mem-access-simulator/accesstest/accesstest -v -s 100 -d 10 --sess-distr u %s fibre %s\n' '0/233472,0.1 0/233472,0.1' '-c 1,1'
+ taskset -c 1-2 timeout 100 /home/bcurto/mem-access-simulator/accesstest/accesstest -v -s 100 -d 10 --sess-distr u 0/233472,0.1 0/233472,0.1 fibre -c 1,1
[0.000s] Creating path with 2 phases.
  Phase 0:
    0 sess-local datalocs, 0.000000 update ratio, inf access count scalar /
    233472 sess-global datalocs, 0.100000 update ratio, inf access count scalar
  Phase 1:
    0 sess-local datalocs, 0.000000 update ratio, inf access count scalar /
    233472 sess-global datalocs, 0.100000 update ratio, inf access count scalar
[0.000s] Creating global buffer at 0x7f24c0000000 of size 29884416 bytes.
[5.790s] Test is ready to start.
Test duration in range [10.000, 10.011] seconds
Num Accesses: 228138393.000000
Throughput: 22813839.300000
Num Accesses - Session Mean & Stddev: 2281383.930000,98268.178169
Num Phases Traversed: 1077.000000
Num Phases Traversed - Session Mean & Stddev: 10.770000,0.420833
Num Path Iterations: 1077.000000
Num Path Iterations - Session Mean & Stddev: 10.770000,0.420833
+ set +x
++ printf 'taskset -c 1-2 timeout 100 /home/bcurto/mem-access-simulator/accesstest/accesstest -v -s 100 -d 10 --sess-distr u %s fibre %s\n' '0/233472,0.1 0/233472,0.1' '-c 1,1'
+ taskset -c 1-2 timeout 100 /home/bcurto/mem-access-simulator/accesstest/accesstest -v -s 100 -d 10 --sess-distr u 0/233472,0.1 0/233472,0.1 fibre -c 1,1
[0.000s] Creating path with 2 phases.
  Phase 0:
    0 sess-local datalocs, 0.000000 update ratio, inf access count scalar /
    233472 sess-global datalocs, 0.100000 update ratio, inf access count scalar
  Phase 1:
    0 sess-local datalocs, 0.000000 update ratio, inf access count scalar /
    233472 sess-global datalocs, 0.100000 update ratio, inf access count scalar
[0.000s] Creating global buffer at 0x7f2d40000000 of size 29884416 bytes.
[5.786s] Test is ready to start.
Test duration in range [10.000, 10.020] seconds
Num Accesses: 228138393.000000
Throughput: 22813839.300000
Num Accesses - Session Mean & Stddev: 2281383.930000,98268.178169
Num Phases Traversed: 1077.000000
Num Phases Traversed - Session Mean & Stddev: 10.770000,0.420833
Num Path Iterations: 1077.000000
Num Path Iterations - Session Mean & Stddev: 10.770000,0.420833
+ set +x
++ printf 'taskset -c 1-2 timeout 100 /home/bcurto/mem-access-simulator/accesstest/accesstest -v -s 100 -d 10 --sess-distr u %s fibre %s\n' '0/233472,0.1 0/233472,0.1' '-c 1,1'
+ taskset -c 1-2 timeout 100 /home/bcurto/mem-access-simulator/accesstest/accesstest -v -s 100 -d 10 --sess-distr u 0/233472,0.1 0/233472,0.1 fibre -c 1,1
[0.000s] Creating path with 2 phases.
  Phase 0:
    0 sess-local datalocs, 0.000000 update ratio, inf access count scalar /
    233472 sess-global datalocs, 0.100000 update ratio, inf access count scalar
  Phase 1:
    0 sess-local datalocs, 0.000000 update ratio, inf access count scalar /
    233472 sess-global datalocs, 0.100000 update ratio, inf access count scalar
[0.000s] Creating global buffer at 0x7fba80000000 of size 29884416 bytes.
[5.789s] Test is ready to start.
Test duration in range [10.000, 10.018] seconds
Num Accesses: 228138393.000000
Throughput: 22813839.300000
Num Accesses - Session Mean & Stddev: 2281383.930000,98268.178169
Num Phases Traversed: 1077.000000
Num Phases Traversed - Session Mean & Stddev: 10.770000,0.420833
Num Path Iterations: 1077.000000
Num Path Iterations - Session Mean & Stddev: 10.770000,0.420833
+ set +x
++ printf 'taskset -c 1-2 timeout 100 /home/bcurto/mem-access-simulator/accesstest/accesstest -v -s 100 -d 10 --sess-distr u %s fibre %s\n' '0/233472,0.1 0/233472,0.1' '-c 1,1'
+ taskset -c 1-2 timeout 100 /home/bcurto/mem-access-simulator/accesstest/accesstest -v -s 100 -d 10 --sess-distr u 0/233472,0.1 0/233472,0.1 fibre -c 1,1
[0.000s] Creating path with 2 phases.
  Phase 0:
    0 sess-local datalocs, 0.000000 update ratio, inf access count scalar /
    233472 sess-global datalocs, 0.100000 update ratio, inf access count scalar
  Phase 1:
    0 sess-local datalocs, 0.000000 update ratio, inf access count scalar /
    233472 sess-global datalocs, 0.100000 update ratio, inf access count scalar
[0.000s] Creating global buffer at 0x7fd200000000 of size 29884416 bytes.
[5.775s] Test is ready to start.
Test duration in range [10.000, 10.019] seconds
Num Accesses: 228138393.000000
Throughput: 22813839.300000
Num Accesses - Session Mean & Stddev: 2281383.930000,98268.178169
Num Phases Traversed: 1077.000000
Num Phases Traversed - Session Mean & Stddev: 10.770000,0.420833
Num Path Iterations: 1077.000000
Num Path Iterations - Session Mean & Stddev: 10.770000,0.420833
+ set +x
++ printf 'taskset -c 1-2 timeout 100 /home/bcurto/mem-access-simulator/accesstest/accesstest -v -s 100 -d 10 --sess-distr u %s fibre %s\n' '0/233472,0.1 0/233472,0.1' '-c 1,1'
+ taskset -c 1-2 timeout 100 /home/bcurto/mem-access-simulator/accesstest/accesstest -v -s 100 -d 10 --sess-distr u 0/233472,0.1 0/233472,0.1 fibre -c 1,1
[0.000s] Creating path with 2 phases.
  Phase 0:
    0 sess-local datalocs, 0.000000 update ratio, inf access count scalar /
    233472 sess-global datalocs, 0.100000 update ratio, inf access count scalar
  Phase 1:
    0 sess-local datalocs, 0.000000 update ratio, inf access count scalar /
    233472 sess-global datalocs, 0.100000 update ratio, inf access count scalar
[0.000s] Creating global buffer at 0x7fd080000000 of size 29884416 bytes.
[5.720s] Test is ready to start.
Test duration in range [10.000, 10.008] seconds
Num Accesses: 227904884.000000
Throughput: 22790488.400000
Num Accesses - Session Mean & Stddev: 2279048.840000,99727.754622
Num Phases Traversed: 1076.000000
Num Phases Traversed - Session Mean & Stddev: 10.760000,0.427083
Num Path Iterations: 1076.000000
Num Path Iterations - Session Mean & Stddev: 10.760000,0.427083
+ set +x
++ printf 'taskset -c 1-2 timeout 100 /home/bcurto/mem-access-simulator/accesstest/accesstest -v -s 100 -d 10 --sess-distr u %s fibre %s\n' '0/233472,0.1 0/233472,0.1' '-c 1,1'
+ taskset -c 1-2 timeout 100 /home/bcurto/mem-access-simulator/accesstest/accesstest -v -s 100 -d 10 --sess-distr u 0/233472,0.1 0/233472,0.1 fibre -c 1,1
[0.000s] Creating path with 2 phases.
  Phase 0:
    0 sess-local datalocs, 0.000000 update ratio, inf access count scalar /
    233472 sess-global datalocs, 0.100000 update ratio, inf access count scalar
  Phase 1:
    0 sess-local datalocs, 0.000000 update ratio, inf access count scalar /
    233472 sess-global datalocs, 0.100000 update ratio, inf access count scalar
[0.000s] Creating global buffer at 0x7fac80000000 of size 29884416 bytes.
[5.785s] Test is ready to start.
Test duration in range [10.000, 10.020] seconds
Num Accesses: 228138393.000000
Throughput: 22813839.300000
Num Accesses - Session Mean & Stddev: 2281383.930000,98268.178169
Num Phases Traversed: 1077.000000
Num Phases Traversed - Session Mean & Stddev: 10.770000,0.420833
Num Path Iterations: 1077.000000
Num Path Iterations - Session Mean & Stddev: 10.770000,0.420833
+ set +x
++ printf 'taskset -c 1-2 timeout 100 /home/bcurto/mem-access-simulator/accesstest/accesstest -v -s 100 -d 10 --sess-distr u %s fibre %s\n' '0/233472,0.1 0/233472,0.1' '-c 1,1'
+ taskset -c 1-2 timeout 100 /home/bcurto/mem-access-simulator/accesstest/accesstest -v -s 100 -d 10 --sess-distr u 0/233472,0.1 0/233472,0.1 fibre -c 1,1
[0.000s] Creating path with 2 phases.
  Phase 0:
    0 sess-local datalocs, 0.000000 update ratio, inf access count scalar /
    233472 sess-global datalocs, 0.100000 update ratio, inf access count scalar
  Phase 1:
    0 sess-local datalocs, 0.000000 update ratio, inf access count scalar /
    233472 sess-global datalocs, 0.100000 update ratio, inf access count scalar
[0.000s] Creating global buffer at 0x7f3400000000 of size 29884416 bytes.
[5.789s] Test is ready to start.
Test duration in range [10.000, 10.020] seconds
Num Accesses: 228138393.000000
Throughput: 22813839.300000
Num Accesses - Session Mean & Stddev: 2281383.930000,98268.178169
Num Phases Traversed: 1077.000000
Num Phases Traversed - Session Mean & Stddev: 10.770000,0.420833
Num Path Iterations: 1077.000000
Num Path Iterations - Session Mean & Stddev: 10.770000,0.420833
+ set +x
