++ printf 'taskset -c 1-2 timeout 100 /home/bcurto/mem-access-simulator/accesstest/accesstest -v -s 100 -d 10 --sess-distr u %s fibre %s\n' '0/135168,1 0/135168,1' '-c 1,1'
+ taskset -c 1-2 timeout 100 /home/bcurto/mem-access-simulator/accesstest/accesstest -v -s 100 -d 10 --sess-distr u 0/135168,1 0/135168,1 fibre -c 1,1
[0.000s] Creating path with 2 phases.
  Phase 0:
    0 sess-local datalocs, 0.000000 update ratio, inf access count scalar /
    135168 sess-global datalocs, 1.000000 update ratio, inf access count scalar
  Phase 1:
    0 sess-local datalocs, 0.000000 update ratio, inf access count scalar /
    135168 sess-global datalocs, 1.000000 update ratio, inf access count scalar
[0.000s] Creating global buffer at 0x7f1a40000000 of size 17301504 bytes.
[3.431s] Test is ready to start.
Test duration in range [10.000, 10.010] seconds
Num Accesses: 250805375.000000
Throughput: 25080537.500000
Num Accesses - Session Mean & Stddev: 2508053.750000,67263.638217
Num Phases Traversed: 1955.000000
Num Phases Traversed - Session Mean & Stddev: 19.550000,0.497494
Num Path Iterations: 1955.000000
Num Path Iterations - Session Mean & Stddev: 19.550000,0.497494
+ set +x
++ printf 'taskset -c 1-2 timeout 100 /home/bcurto/mem-access-simulator/accesstest/accesstest -v -s 100 -d 10 --sess-distr u %s fibre %s\n' '0/135168,1 0/135168,1' '-c 1,1'
+ taskset -c 1-2 timeout 100 /home/bcurto/mem-access-simulator/accesstest/accesstest -v -s 100 -d 10 --sess-distr u 0/135168,1 0/135168,1 fibre -c 1,1
[0.000s] Creating path with 2 phases.
  Phase 0:
    0 sess-local datalocs, 0.000000 update ratio, inf access count scalar /
    135168 sess-global datalocs, 1.000000 update ratio, inf access count scalar
  Phase 1:
    0 sess-local datalocs, 0.000000 update ratio, inf access count scalar /
    135168 sess-global datalocs, 1.000000 update ratio, inf access count scalar
[0.000s] Creating global buffer at 0x7f5440000000 of size 17301504 bytes.
[3.427s] Test is ready to start.
Test duration in range [10.000, 10.009] seconds
Num Accesses: 250805375.000000
Throughput: 25080537.500000
Num Accesses - Session Mean & Stddev: 2508053.750000,67263.638217
Num Phases Traversed: 1955.000000
Num Phases Traversed - Session Mean & Stddev: 19.550000,0.497494
Num Path Iterations: 1955.000000
Num Path Iterations - Session Mean & Stddev: 19.550000,0.497494
+ set +x
++ printf 'taskset -c 1-2 timeout 100 /home/bcurto/mem-access-simulator/accesstest/accesstest -v -s 100 -d 10 --sess-distr u %s fibre %s\n' '0/135168,1 0/135168,1' '-c 1,1'
+ taskset -c 1-2 timeout 100 /home/bcurto/mem-access-simulator/accesstest/accesstest -v -s 100 -d 10 --sess-distr u 0/135168,1 0/135168,1 fibre -c 1,1
[0.000s] Creating path with 2 phases.
  Phase 0:
    0 sess-local datalocs, 0.000000 update ratio, inf access count scalar /
    135168 sess-global datalocs, 1.000000 update ratio, inf access count scalar
  Phase 1:
    0 sess-local datalocs, 0.000000 update ratio, inf access count scalar /
    135168 sess-global datalocs, 1.000000 update ratio, inf access count scalar
[0.000s] Creating global buffer at 0x7f9980000000 of size 17301504 bytes.
[3.436s] Test is ready to start.
Test duration in range [10.000, 10.008] seconds
Num Accesses: 250805375.000000
Throughput: 25080537.500000
Num Accesses - Session Mean & Stddev: 2508053.750000,67263.638217
Num Phases Traversed: 1955.000000
Num Phases Traversed - Session Mean & Stddev: 19.550000,0.497494
Num Path Iterations: 1955.000000
Num Path Iterations - Session Mean & Stddev: 19.550000,0.497494
+ set +x
++ printf 'taskset -c 1-2 timeout 100 /home/bcurto/mem-access-simulator/accesstest/accesstest -v -s 100 -d 10 --sess-distr u %s fibre %s\n' '0/135168,1 0/135168,1' '-c 1,1'
+ taskset -c 1-2 timeout 100 /home/bcurto/mem-access-simulator/accesstest/accesstest -v -s 100 -d 10 --sess-distr u 0/135168,1 0/135168,1 fibre -c 1,1
[0.000s] Creating path with 2 phases.
  Phase 0:
    0 sess-local datalocs, 0.000000 update ratio, inf access count scalar /
    135168 sess-global datalocs, 1.000000 update ratio, inf access count scalar
  Phase 1:
    0 sess-local datalocs, 0.000000 update ratio, inf access count scalar /
    135168 sess-global datalocs, 1.000000 update ratio, inf access count scalar
[0.000s] Creating global buffer at 0x7f7640000000 of size 17301504 bytes.
[3.433s] Test is ready to start.
Test duration in range [10.000, 10.008] seconds
Num Accesses: 250805375.000000
Throughput: 25080537.500000
Num Accesses - Session Mean & Stddev: 2508053.750000,67263.638217
Num Phases Traversed: 1955.000000
Num Phases Traversed - Session Mean & Stddev: 19.550000,0.497494
Num Path Iterations: 1955.000000
Num Path Iterations - Session Mean & Stddev: 19.550000,0.497494
+ set +x
++ printf 'taskset -c 1-2 timeout 100 /home/bcurto/mem-access-simulator/accesstest/accesstest -v -s 100 -d 10 --sess-distr u %s fibre %s\n' '0/135168,1 0/135168,1' '-c 1,1'
+ taskset -c 1-2 timeout 100 /home/bcurto/mem-access-simulator/accesstest/accesstest -v -s 100 -d 10 --sess-distr u 0/135168,1 0/135168,1 fibre -c 1,1
[0.000s] Creating path with 2 phases.
  Phase 0:
    0 sess-local datalocs, 0.000000 update ratio, inf access count scalar /
    135168 sess-global datalocs, 1.000000 update ratio, inf access count scalar
  Phase 1:
    0 sess-local datalocs, 0.000000 update ratio, inf access count scalar /
    135168 sess-global datalocs, 1.000000 update ratio, inf access count scalar
[0.000s] Creating global buffer at 0x7f3bc0000000 of size 17301504 bytes.
[3.424s] Test is ready to start.
Test duration in range [10.000, 10.010] seconds
Num Accesses: 250805375.000000
Throughput: 25080537.500000
Num Accesses - Session Mean & Stddev: 2508053.750000,67263.638217
Num Phases Traversed: 1955.000000
Num Phases Traversed - Session Mean & Stddev: 19.550000,0.497494
Num Path Iterations: 1955.000000
Num Path Iterations - Session Mean & Stddev: 19.550000,0.497494
+ set +x
++ printf 'taskset -c 1-2 timeout 100 /home/bcurto/mem-access-simulator/accesstest/accesstest -v -s 100 -d 10 --sess-distr u %s fibre %s\n' '0/135168,1 0/135168,1' '-c 1,1'
+ taskset -c 1-2 timeout 100 /home/bcurto/mem-access-simulator/accesstest/accesstest -v -s 100 -d 10 --sess-distr u 0/135168,1 0/135168,1 fibre -c 1,1
[0.000s] Creating path with 2 phases.
  Phase 0:
    0 sess-local datalocs, 0.000000 update ratio, inf access count scalar /
    135168 sess-global datalocs, 1.000000 update ratio, inf access count scalar
  Phase 1:
    0 sess-local datalocs, 0.000000 update ratio, inf access count scalar /
    135168 sess-global datalocs, 1.000000 update ratio, inf access count scalar
[0.000s] Creating global buffer at 0x7f4a40000000 of size 17301504 bytes.
[3.423s] Test is ready to start.
Test duration in range [10.000, 10.009] seconds
Num Accesses: 250805375.000000
Throughput: 25080537.500000
Num Accesses - Session Mean & Stddev: 2508053.750000,67263.638217
Num Phases Traversed: 1955.000000
Num Phases Traversed - Session Mean & Stddev: 19.550000,0.497494
Num Path Iterations: 1955.000000
Num Path Iterations - Session Mean & Stddev: 19.550000,0.497494
+ set +x
++ printf 'taskset -c 1-2 timeout 100 /home/bcurto/mem-access-simulator/accesstest/accesstest -v -s 100 -d 10 --sess-distr u %s fibre %s\n' '0/135168,1 0/135168,1' '-c 1,1'
+ taskset -c 1-2 timeout 100 /home/bcurto/mem-access-simulator/accesstest/accesstest -v -s 100 -d 10 --sess-distr u 0/135168,1 0/135168,1 fibre -c 1,1
[0.000s] Creating path with 2 phases.
  Phase 0:
    0 sess-local datalocs, 0.000000 update ratio, inf access count scalar /
    135168 sess-global datalocs, 1.000000 update ratio, inf access count scalar
  Phase 1:
    0 sess-local datalocs, 0.000000 update ratio, inf access count scalar /
    135168 sess-global datalocs, 1.000000 update ratio, inf access count scalar
[0.000s] Creating global buffer at 0x7f8880000000 of size 17301504 bytes.
[3.428s] Test is ready to start.
Test duration in range [10.000, 10.007] seconds
Num Accesses: 250805375.000000
Throughput: 25080537.500000
Num Accesses - Session Mean & Stddev: 2508053.750000,67263.638217
Num Phases Traversed: 1955.000000
Num Phases Traversed - Session Mean & Stddev: 19.550000,0.497494
Num Path Iterations: 1955.000000
Num Path Iterations - Session Mean & Stddev: 19.550000,0.497494
+ set +x
++ printf 'taskset -c 1-2 timeout 100 /home/bcurto/mem-access-simulator/accesstest/accesstest -v -s 100 -d 10 --sess-distr u %s fibre %s\n' '0/135168,1 0/135168,1' '-c 1,1'
+ taskset -c 1-2 timeout 100 /home/bcurto/mem-access-simulator/accesstest/accesstest -v -s 100 -d 10 --sess-distr u 0/135168,1 0/135168,1 fibre -c 1,1
[0.000s] Creating path with 2 phases.
  Phase 0:
    0 sess-local datalocs, 0.000000 update ratio, inf access count scalar /
    135168 sess-global datalocs, 1.000000 update ratio, inf access count scalar
  Phase 1:
    0 sess-local datalocs, 0.000000 update ratio, inf access count scalar /
    135168 sess-global datalocs, 1.000000 update ratio, inf access count scalar
[0.000s] Creating global buffer at 0x7f1040000000 of size 17301504 bytes.
[3.426s] Test is ready to start.
Test duration in range [10.000, 10.010] seconds
Num Accesses: 250805375.000000
Throughput: 25080537.500000
Num Accesses - Session Mean & Stddev: 2508053.750000,67263.638217
Num Phases Traversed: 1955.000000
Num Phases Traversed - Session Mean & Stddev: 19.550000,0.497494
Num Path Iterations: 1955.000000
Num Path Iterations - Session Mean & Stddev: 19.550000,0.497494
+ set +x
++ printf 'taskset -c 1-2 timeout 100 /home/bcurto/mem-access-simulator/accesstest/accesstest -v -s 100 -d 10 --sess-distr u %s fibre %s\n' '0/135168,1 0/135168,1' '-c 1,1'
+ taskset -c 1-2 timeout 100 /home/bcurto/mem-access-simulator/accesstest/accesstest -v -s 100 -d 10 --sess-distr u 0/135168,1 0/135168,1 fibre -c 1,1
[0.000s] Creating path with 2 phases.
  Phase 0:
    0 sess-local datalocs, 0.000000 update ratio, inf access count scalar /
    135168 sess-global datalocs, 1.000000 update ratio, inf access count scalar
  Phase 1:
    0 sess-local datalocs, 0.000000 update ratio, inf access count scalar /
    135168 sess-global datalocs, 1.000000 update ratio, inf access count scalar
[0.000s] Creating global buffer at 0x7f2f00000000 of size 17301504 bytes.
[3.423s] Test is ready to start.
Test duration in range [10.000, 10.010] seconds
Num Accesses: 250805375.000000
Throughput: 25080537.500000
Num Accesses - Session Mean & Stddev: 2508053.750000,67263.638217
Num Phases Traversed: 1955.000000
Num Phases Traversed - Session Mean & Stddev: 19.550000,0.497494
Num Path Iterations: 1955.000000
Num Path Iterations - Session Mean & Stddev: 19.550000,0.497494
+ set +x
++ printf 'taskset -c 1-2 timeout 100 /home/bcurto/mem-access-simulator/accesstest/accesstest -v -s 100 -d 10 --sess-distr u %s fibre %s\n' '0/135168,1 0/135168,1' '-c 1,1'
+ taskset -c 1-2 timeout 100 /home/bcurto/mem-access-simulator/accesstest/accesstest -v -s 100 -d 10 --sess-distr u 0/135168,1 0/135168,1 fibre -c 1,1
[0.000s] Creating path with 2 phases.
  Phase 0:
    0 sess-local datalocs, 0.000000 update ratio, inf access count scalar /
    135168 sess-global datalocs, 1.000000 update ratio, inf access count scalar
  Phase 1:
    0 sess-local datalocs, 0.000000 update ratio, inf access count scalar /
    135168 sess-global datalocs, 1.000000 update ratio, inf access count scalar
[0.000s] Creating global buffer at 0x7f7080000000 of size 17301504 bytes.
[3.394s] Test is ready to start.
Test duration in range [10.000, 10.010] seconds
Num Accesses: 250670170.000000
Throughput: 25067017.000000
Num Accesses - Session Mean & Stddev: 2506701.700000,67385.824763
Num Phases Traversed: 1954.000000
Num Phases Traversed - Session Mean & Stddev: 19.540000,0.498397
Num Path Iterations: 1954.000000
Num Path Iterations - Session Mean & Stddev: 19.540000,0.498397
+ set +x
++ printf 'taskset -c 1-2 timeout 100 /home/bcurto/mem-access-simulator/accesstest/accesstest -v -s 100 -d 10 --sess-distr u %s fibre %s\n' '0/135168,1 0/135168,1' '-c 1,1'
+ taskset -c 1-2 timeout 100 /home/bcurto/mem-access-simulator/accesstest/accesstest -v -s 100 -d 10 --sess-distr u 0/135168,1 0/135168,1 fibre -c 1,1
[0.000s] Creating path with 2 phases.
  Phase 0:
    0 sess-local datalocs, 0.000000 update ratio, inf access count scalar /
    135168 sess-global datalocs, 1.000000 update ratio, inf access count scalar
  Phase 1:
    0 sess-local datalocs, 0.000000 update ratio, inf access count scalar /
    135168 sess-global datalocs, 1.000000 update ratio, inf access count scalar
[0.000s] Creating global buffer at 0x7f1940000000 of size 17301504 bytes.
[3.427s] Test is ready to start.
Test duration in range [10.000, 10.008] seconds
Num Accesses: 250670170.000000
Throughput: 25067017.000000
Num Accesses - Session Mean & Stddev: 2506701.700000,67385.824763
Num Phases Traversed: 1954.000000
Num Phases Traversed - Session Mean & Stddev: 19.540000,0.498397
Num Path Iterations: 1954.000000
Num Path Iterations - Session Mean & Stddev: 19.540000,0.498397
+ set +x
++ printf 'taskset -c 1-2 timeout 100 /home/bcurto/mem-access-simulator/accesstest/accesstest -v -s 100 -d 10 --sess-distr u %s fibre %s\n' '0/135168,1 0/135168,1' '-c 1,1'
+ taskset -c 1-2 timeout 100 /home/bcurto/mem-access-simulator/accesstest/accesstest -v -s 100 -d 10 --sess-distr u 0/135168,1 0/135168,1 fibre -c 1,1
[0.000s] Creating path with 2 phases.
  Phase 0:
    0 sess-local datalocs, 0.000000 update ratio, inf access count scalar /
    135168 sess-global datalocs, 1.000000 update ratio, inf access count scalar
  Phase 1:
    0 sess-local datalocs, 0.000000 update ratio, inf access count scalar /
    135168 sess-global datalocs, 1.000000 update ratio, inf access count scalar
[0.000s] Creating global buffer at 0x7f7300000000 of size 17301504 bytes.
[3.425s] Test is ready to start.
Test duration in range [10.000, 10.007] seconds
Num Accesses: 250805375.000000
Throughput: 25080537.500000
Num Accesses - Session Mean & Stddev: 2508053.750000,67263.638217
Num Phases Traversed: 1955.000000
Num Phases Traversed - Session Mean & Stddev: 19.550000,0.497494
Num Path Iterations: 1955.000000
Num Path Iterations - Session Mean & Stddev: 19.550000,0.497494
+ set +x
++ printf 'taskset -c 1-2 timeout 100 /home/bcurto/mem-access-simulator/accesstest/accesstest -v -s 100 -d 10 --sess-distr u %s fibre %s\n' '0/135168,1 0/135168,1' '-c 1,1'
+ taskset -c 1-2 timeout 100 /home/bcurto/mem-access-simulator/accesstest/accesstest -v -s 100 -d 10 --sess-distr u 0/135168,1 0/135168,1 fibre -c 1,1
[0.000s] Creating path with 2 phases.
  Phase 0:
    0 sess-local datalocs, 0.000000 update ratio, inf access count scalar /
    135168 sess-global datalocs, 1.000000 update ratio, inf access count scalar
  Phase 1:
    0 sess-local datalocs, 0.000000 update ratio, inf access count scalar /
    135168 sess-global datalocs, 1.000000 update ratio, inf access count scalar
[0.000s] Creating global buffer at 0x7f8140000000 of size 17301504 bytes.
[3.434s] Test is ready to start.
Test duration in range [10.000, 10.008] seconds
Num Accesses: 250805375.000000
Throughput: 25080537.500000
Num Accesses - Session Mean & Stddev: 2508053.750000,67263.638217
Num Phases Traversed: 1955.000000
Num Phases Traversed - Session Mean & Stddev: 19.550000,0.497494
Num Path Iterations: 1955.000000
Num Path Iterations - Session Mean & Stddev: 19.550000,0.497494
+ set +x
++ printf 'taskset -c 1-2 timeout 100 /home/bcurto/mem-access-simulator/accesstest/accesstest -v -s 100 -d 10 --sess-distr u %s fibre %s\n' '0/135168,1 0/135168,1' '-c 1,1'
+ taskset -c 1-2 timeout 100 /home/bcurto/mem-access-simulator/accesstest/accesstest -v -s 100 -d 10 --sess-distr u 0/135168,1 0/135168,1 fibre -c 1,1
[0.000s] Creating path with 2 phases.
  Phase 0:
    0 sess-local datalocs, 0.000000 update ratio, inf access count scalar /
    135168 sess-global datalocs, 1.000000 update ratio, inf access count scalar
  Phase 1:
    0 sess-local datalocs, 0.000000 update ratio, inf access count scalar /
    135168 sess-global datalocs, 1.000000 update ratio, inf access count scalar
[0.000s] Creating global buffer at 0x7f8c00000000 of size 17301504 bytes.
[3.425s] Test is ready to start.
Test duration in range [10.000, 10.007] seconds
Num Accesses: 249858940.000000
Throughput: 24985894.000000
Num Accesses - Session Mean & Stddev: 2498589.400000,67548.396350
Num Phases Traversed: 1948.000000
Num Phases Traversed - Session Mean & Stddev: 19.480000,0.499600
Num Path Iterations: 1948.000000
Num Path Iterations - Session Mean & Stddev: 19.480000,0.499600
+ set +x
++ printf 'taskset -c 1-2 timeout 100 /home/bcurto/mem-access-simulator/accesstest/accesstest -v -s 100 -d 10 --sess-distr u %s fibre %s\n' '0/135168,1 0/135168,1' '-c 1,1'
+ taskset -c 1-2 timeout 100 /home/bcurto/mem-access-simulator/accesstest/accesstest -v -s 100 -d 10 --sess-distr u 0/135168,1 0/135168,1 fibre -c 1,1
[0.000s] Creating path with 2 phases.
  Phase 0:
    0 sess-local datalocs, 0.000000 update ratio, inf access count scalar /
    135168 sess-global datalocs, 1.000000 update ratio, inf access count scalar
  Phase 1:
    0 sess-local datalocs, 0.000000 update ratio, inf access count scalar /
    135168 sess-global datalocs, 1.000000 update ratio, inf access count scalar
[0.000s] Creating global buffer at 0x7f84c0000000 of size 17301504 bytes.
[3.429s] Test is ready to start.
Test duration in range [10.000, 10.008] seconds
Num Accesses: 250805375.000000
Throughput: 25080537.500000
Num Accesses - Session Mean & Stddev: 2508053.750000,67263.638217
Num Phases Traversed: 1955.000000
Num Phases Traversed - Session Mean & Stddev: 19.550000,0.497494
Num Path Iterations: 1955.000000
Num Path Iterations - Session Mean & Stddev: 19.550000,0.497494
+ set +x
++ printf 'taskset -c 1-2 timeout 100 /home/bcurto/mem-access-simulator/accesstest/accesstest -v -s 100 -d 10 --sess-distr u %s fibre %s\n' '0/135168,1 0/135168,1' '-c 1,1'
+ taskset -c 1-2 timeout 100 /home/bcurto/mem-access-simulator/accesstest/accesstest -v -s 100 -d 10 --sess-distr u 0/135168,1 0/135168,1 fibre -c 1,1
[0.000s] Creating path with 2 phases.
  Phase 0:
    0 sess-local datalocs, 0.000000 update ratio, inf access count scalar /
    135168 sess-global datalocs, 1.000000 update ratio, inf access count scalar
  Phase 1:
    0 sess-local datalocs, 0.000000 update ratio, inf access count scalar /
    135168 sess-global datalocs, 1.000000 update ratio, inf access count scalar
[0.000s] Creating global buffer at 0x7f0140000000 of size 17301504 bytes.
[3.429s] Test is ready to start.
Test duration in range [10.000, 10.006] seconds
Num Accesses: 250805375.000000
Throughput: 25080537.500000
Num Accesses - Session Mean & Stddev: 2508053.750000,67263.638217
Num Phases Traversed: 1955.000000
Num Phases Traversed - Session Mean & Stddev: 19.550000,0.497494
Num Path Iterations: 1955.000000
Num Path Iterations - Session Mean & Stddev: 19.550000,0.497494
+ set +x
++ printf 'taskset -c 1-2 timeout 100 /home/bcurto/mem-access-simulator/accesstest/accesstest -v -s 100 -d 10 --sess-distr u %s fibre %s\n' '0/135168,1 0/135168,1' '-c 1,1'
+ taskset -c 1-2 timeout 100 /home/bcurto/mem-access-simulator/accesstest/accesstest -v -s 100 -d 10 --sess-distr u 0/135168,1 0/135168,1 fibre -c 1,1
[0.000s] Creating path with 2 phases.
  Phase 0:
    0 sess-local datalocs, 0.000000 update ratio, inf access count scalar /
    135168 sess-global datalocs, 1.000000 update ratio, inf access count scalar
  Phase 1:
    0 sess-local datalocs, 0.000000 update ratio, inf access count scalar /
    135168 sess-global datalocs, 1.000000 update ratio, inf access count scalar
[0.000s] Creating global buffer at 0x7f4480000000 of size 17301504 bytes.
[3.427s] Test is ready to start.
Test duration in range [10.000, 10.008] seconds
Num Accesses: 250805375.000000
Throughput: 25080537.500000
Num Accesses - Session Mean & Stddev: 2508053.750000,67263.638217
Num Phases Traversed: 1955.000000
Num Phases Traversed - Session Mean & Stddev: 19.550000,0.497494
Num Path Iterations: 1955.000000
Num Path Iterations - Session Mean & Stddev: 19.550000,0.497494
+ set +x
++ printf 'taskset -c 1-2 timeout 100 /home/bcurto/mem-access-simulator/accesstest/accesstest -v -s 100 -d 10 --sess-distr u %s fibre %s\n' '0/135168,1 0/135168,1' '-c 1,1'
+ taskset -c 1-2 timeout 100 /home/bcurto/mem-access-simulator/accesstest/accesstest -v -s 100 -d 10 --sess-distr u 0/135168,1 0/135168,1 fibre -c 1,1
[0.000s] Creating path with 2 phases.
  Phase 0:
    0 sess-local datalocs, 0.000000 update ratio, inf access count scalar /
    135168 sess-global datalocs, 1.000000 update ratio, inf access count scalar
  Phase 1:
    0 sess-local datalocs, 0.000000 update ratio, inf access count scalar /
    135168 sess-global datalocs, 1.000000 update ratio, inf access count scalar
[0.000s] Creating global buffer at 0x7f3080000000 of size 17301504 bytes.
[3.425s] Test is ready to start.
Test duration in range [10.000, 10.008] seconds
Num Accesses: 250805375.000000
Throughput: 25080537.500000
Num Accesses - Session Mean & Stddev: 2508053.750000,67263.638217
Num Phases Traversed: 1955.000000
Num Phases Traversed - Session Mean & Stddev: 19.550000,0.497494
Num Path Iterations: 1955.000000
Num Path Iterations - Session Mean & Stddev: 19.550000,0.497494
+ set +x
++ printf 'taskset -c 1-2 timeout 100 /home/bcurto/mem-access-simulator/accesstest/accesstest -v -s 100 -d 10 --sess-distr u %s fibre %s\n' '0/135168,1 0/135168,1' '-c 1,1'
+ taskset -c 1-2 timeout 100 /home/bcurto/mem-access-simulator/accesstest/accesstest -v -s 100 -d 10 --sess-distr u 0/135168,1 0/135168,1 fibre -c 1,1
[0.000s] Creating path with 2 phases.
  Phase 0:
    0 sess-local datalocs, 0.000000 update ratio, inf access count scalar /
    135168 sess-global datalocs, 1.000000 update ratio, inf access count scalar
  Phase 1:
    0 sess-local datalocs, 0.000000 update ratio, inf access count scalar /
    135168 sess-global datalocs, 1.000000 update ratio, inf access count scalar
[0.000s] Creating global buffer at 0x7fe780000000 of size 17301504 bytes.
[3.425s] Test is ready to start.
Test duration in range [10.000, 10.009] seconds
Num Accesses: 250805375.000000
Throughput: 25080537.500000
Num Accesses - Session Mean & Stddev: 2508053.750000,67263.638217
Num Phases Traversed: 1955.000000
Num Phases Traversed - Session Mean & Stddev: 19.550000,0.497494
Num Path Iterations: 1955.000000
Num Path Iterations - Session Mean & Stddev: 19.550000,0.497494
+ set +x
++ printf 'taskset -c 1-2 timeout 100 /home/bcurto/mem-access-simulator/accesstest/accesstest -v -s 100 -d 10 --sess-distr u %s fibre %s\n' '0/135168,1 0/135168,1' '-c 1,1'
+ taskset -c 1-2 timeout 100 /home/bcurto/mem-access-simulator/accesstest/accesstest -v -s 100 -d 10 --sess-distr u 0/135168,1 0/135168,1 fibre -c 1,1
[0.000s] Creating path with 2 phases.
  Phase 0:
    0 sess-local datalocs, 0.000000 update ratio, inf access count scalar /
    135168 sess-global datalocs, 1.000000 update ratio, inf access count scalar
  Phase 1:
    0 sess-local datalocs, 0.000000 update ratio, inf access count scalar /
    135168 sess-global datalocs, 1.000000 update ratio, inf access count scalar
[0.000s] Creating global buffer at 0x7f9080000000 of size 17301504 bytes.
[3.427s] Test is ready to start.
Test duration in range [10.000, 10.005] seconds
Num Accesses: 250670170.000000
Throughput: 25067017.000000
Num Accesses - Session Mean & Stddev: 2506701.700000,67385.824763
Num Phases Traversed: 1954.000000
Num Phases Traversed - Session Mean & Stddev: 19.540000,0.498397
Num Path Iterations: 1954.000000
Num Path Iterations - Session Mean & Stddev: 19.540000,0.498397
+ set +x
