++ printf 'taskset -c 1-2 timeout 100 /home/bcurto/mem-access-simulator/accesstest/accesstest -v -s 100 -d 10 --sess-distr u %s fibre %s\n' '0/233472,1 0/233472,1' '-c 1,1'
+ taskset -c 1-2 timeout 100 /home/bcurto/mem-access-simulator/accesstest/accesstest -v -s 100 -d 10 --sess-distr u 0/233472,1 0/233472,1 fibre -c 1,1
[0.000s] Creating path with 2 phases.
  Phase 0:
    0 sess-local datalocs, 0.000000 update ratio, inf access count scalar /
    233472 sess-global datalocs, 1.000000 update ratio, inf access count scalar
  Phase 1:
    0 sess-local datalocs, 0.000000 update ratio, inf access count scalar /
    233472 sess-global datalocs, 1.000000 update ratio, inf access count scalar
[0.000s] Creating global buffer at 0x7f4840000000 of size 29884416 bytes.
[5.796s] Test is ready to start.
Test duration in range [10.000, 10.011] seconds
Num Accesses: 229772956.000000
Throughput: 22977295.600000
Num Accesses - Session Mean & Stddev: 2297729.560000,85605.813436
Num Phases Traversed: 1084.000000
Num Phases Traversed - Session Mean & Stddev: 10.840000,0.366606
Num Path Iterations: 1084.000000
Num Path Iterations - Session Mean & Stddev: 10.840000,0.366606
+ set +x
++ printf 'taskset -c 1-2 timeout 100 /home/bcurto/mem-access-simulator/accesstest/accesstest -v -s 100 -d 10 --sess-distr u %s fibre %s\n' '0/233472,1 0/233472,1' '-c 1,1'
+ taskset -c 1-2 timeout 100 /home/bcurto/mem-access-simulator/accesstest/accesstest -v -s 100 -d 10 --sess-distr u 0/233472,1 0/233472,1 fibre -c 1,1
[0.000s] Creating path with 2 phases.
  Phase 0:
    0 sess-local datalocs, 0.000000 update ratio, inf access count scalar /
    233472 sess-global datalocs, 1.000000 update ratio, inf access count scalar
  Phase 1:
    0 sess-local datalocs, 0.000000 update ratio, inf access count scalar /
    233472 sess-global datalocs, 1.000000 update ratio, inf access count scalar
[0.000s] Creating global buffer at 0x7f8200000000 of size 29884416 bytes.
[5.826s] Test is ready to start.
Test duration in range [10.000, 10.011] seconds
Num Accesses: 229772956.000000
Throughput: 22977295.600000
Num Accesses - Session Mean & Stddev: 2297729.560000,85605.813436
Num Phases Traversed: 1084.000000
Num Phases Traversed - Session Mean & Stddev: 10.840000,0.366606
Num Path Iterations: 1084.000000
Num Path Iterations - Session Mean & Stddev: 10.840000,0.366606
+ set +x
++ printf 'taskset -c 1-2 timeout 100 /home/bcurto/mem-access-simulator/accesstest/accesstest -v -s 100 -d 10 --sess-distr u %s fibre %s\n' '0/233472,1 0/233472,1' '-c 1,1'
+ taskset -c 1-2 timeout 100 /home/bcurto/mem-access-simulator/accesstest/accesstest -v -s 100 -d 10 --sess-distr u 0/233472,1 0/233472,1 fibre -c 1,1
[0.000s] Creating path with 2 phases.
  Phase 0:
    0 sess-local datalocs, 0.000000 update ratio, inf access count scalar /
    233472 sess-global datalocs, 1.000000 update ratio, inf access count scalar
  Phase 1:
    0 sess-local datalocs, 0.000000 update ratio, inf access count scalar /
    233472 sess-global datalocs, 1.000000 update ratio, inf access count scalar
[0.000s] Creating global buffer at 0x7f2380000000 of size 29884416 bytes.
[5.826s] Test is ready to start.
Test duration in range [10.000, 10.009] seconds
Num Accesses: 229772956.000000
Throughput: 22977295.600000
Num Accesses - Session Mean & Stddev: 2297729.560000,85605.813436
Num Phases Traversed: 1084.000000
Num Phases Traversed - Session Mean & Stddev: 10.840000,0.366606
Num Path Iterations: 1084.000000
Num Path Iterations - Session Mean & Stddev: 10.840000,0.366606
+ set +x
++ printf 'taskset -c 1-2 timeout 100 /home/bcurto/mem-access-simulator/accesstest/accesstest -v -s 100 -d 10 --sess-distr u %s fibre %s\n' '0/233472,1 0/233472,1' '-c 1,1'
+ taskset -c 1-2 timeout 100 /home/bcurto/mem-access-simulator/accesstest/accesstest -v -s 100 -d 10 --sess-distr u 0/233472,1 0/233472,1 fibre -c 1,1
[0.000s] Creating path with 2 phases.
  Phase 0:
    0 sess-local datalocs, 0.000000 update ratio, inf access count scalar /
    233472 sess-global datalocs, 1.000000 update ratio, inf access count scalar
  Phase 1:
    0 sess-local datalocs, 0.000000 update ratio, inf access count scalar /
    233472 sess-global datalocs, 1.000000 update ratio, inf access count scalar
[0.000s] Creating global buffer at 0x7f8040000000 of size 29884416 bytes.
[5.831s] Test is ready to start.
Test duration in range [10.000, 10.011] seconds
Num Accesses: 229772956.000000
Throughput: 22977295.600000
Num Accesses - Session Mean & Stddev: 2297729.560000,85605.813436
Num Phases Traversed: 1084.000000
Num Phases Traversed - Session Mean & Stddev: 10.840000,0.366606
Num Path Iterations: 1084.000000
Num Path Iterations - Session Mean & Stddev: 10.840000,0.366606
+ set +x
++ printf 'taskset -c 1-2 timeout 100 /home/bcurto/mem-access-simulator/accesstest/accesstest -v -s 100 -d 10 --sess-distr u %s fibre %s\n' '0/233472,1 0/233472,1' '-c 1,1'
+ taskset -c 1-2 timeout 100 /home/bcurto/mem-access-simulator/accesstest/accesstest -v -s 100 -d 10 --sess-distr u 0/233472,1 0/233472,1 fibre -c 1,1
[0.000s] Creating path with 2 phases.
  Phase 0:
    0 sess-local datalocs, 0.000000 update ratio, inf access count scalar /
    233472 sess-global datalocs, 1.000000 update ratio, inf access count scalar
  Phase 1:
    0 sess-local datalocs, 0.000000 update ratio, inf access count scalar /
    233472 sess-global datalocs, 1.000000 update ratio, inf access count scalar
[0.000s] Creating global buffer at 0x7f2e00000000 of size 29884416 bytes.
[5.826s] Test is ready to start.
Test duration in range [10.000, 10.009] seconds
Num Accesses: 229772956.000000
Throughput: 22977295.600000
Num Accesses - Session Mean & Stddev: 2297729.560000,85605.813436
Num Phases Traversed: 1084.000000
Num Phases Traversed - Session Mean & Stddev: 10.840000,0.366606
Num Path Iterations: 1084.000000
Num Path Iterations - Session Mean & Stddev: 10.840000,0.366606
+ set +x
++ printf 'taskset -c 1-2 timeout 100 /home/bcurto/mem-access-simulator/accesstest/accesstest -v -s 100 -d 10 --sess-distr u %s fibre %s\n' '0/233472,1 0/233472,1' '-c 1,1'
+ taskset -c 1-2 timeout 100 /home/bcurto/mem-access-simulator/accesstest/accesstest -v -s 100 -d 10 --sess-distr u 0/233472,1 0/233472,1 fibre -c 1,1
[0.000s] Creating path with 2 phases.
  Phase 0:
    0 sess-local datalocs, 0.000000 update ratio, inf access count scalar /
    233472 sess-global datalocs, 1.000000 update ratio, inf access count scalar
  Phase 1:
    0 sess-local datalocs, 0.000000 update ratio, inf access count scalar /
    233472 sess-global datalocs, 1.000000 update ratio, inf access count scalar
[0.000s] Creating global buffer at 0x7f6c40000000 of size 29884416 bytes.
[5.760s] Test is ready to start.
Test duration in range [10.000, 10.010] seconds
Num Accesses: 229772956.000000
Throughput: 22977295.600000
Num Accesses - Session Mean & Stddev: 2297729.560000,85605.813436
Num Phases Traversed: 1084.000000
Num Phases Traversed - Session Mean & Stddev: 10.840000,0.366606
Num Path Iterations: 1084.000000
Num Path Iterations - Session Mean & Stddev: 10.840000,0.366606
+ set +x
++ printf 'taskset -c 1-2 timeout 100 /home/bcurto/mem-access-simulator/accesstest/accesstest -v -s 100 -d 10 --sess-distr u %s fibre %s\n' '0/233472,1 0/233472,1' '-c 1,1'
+ taskset -c 1-2 timeout 100 /home/bcurto/mem-access-simulator/accesstest/accesstest -v -s 100 -d 10 --sess-distr u 0/233472,1 0/233472,1 fibre -c 1,1
[0.000s] Creating path with 2 phases.
  Phase 0:
    0 sess-local datalocs, 0.000000 update ratio, inf access count scalar /
    233472 sess-global datalocs, 1.000000 update ratio, inf access count scalar
  Phase 1:
    0 sess-local datalocs, 0.000000 update ratio, inf access count scalar /
    233472 sess-global datalocs, 1.000000 update ratio, inf access count scalar
[0.000s] Creating global buffer at 0x7f91c0000000 of size 29884416 bytes.
[5.827s] Test is ready to start.
Test duration in range [10.000, 10.008] seconds
Num Accesses: 229772956.000000
Throughput: 22977295.600000
Num Accesses - Session Mean & Stddev: 2297729.560000,85605.813436
Num Phases Traversed: 1084.000000
Num Phases Traversed - Session Mean & Stddev: 10.840000,0.366606
Num Path Iterations: 1084.000000
Num Path Iterations - Session Mean & Stddev: 10.840000,0.366606
+ set +x
++ printf 'taskset -c 1-2 timeout 100 /home/bcurto/mem-access-simulator/accesstest/accesstest -v -s 100 -d 10 --sess-distr u %s fibre %s\n' '0/233472,1 0/233472,1' '-c 1,1'
+ taskset -c 1-2 timeout 100 /home/bcurto/mem-access-simulator/accesstest/accesstest -v -s 100 -d 10 --sess-distr u 0/233472,1 0/233472,1 fibre -c 1,1
[0.000s] Creating path with 2 phases.
  Phase 0:
    0 sess-local datalocs, 0.000000 update ratio, inf access count scalar /
    233472 sess-global datalocs, 1.000000 update ratio, inf access count scalar
  Phase 1:
    0 sess-local datalocs, 0.000000 update ratio, inf access count scalar /
    233472 sess-global datalocs, 1.000000 update ratio, inf access count scalar
[0.000s] Creating global buffer at 0x7f4380000000 of size 29884416 bytes.
[5.832s] Test is ready to start.
Test duration in range [10.000, 10.009] seconds
Num Accesses: 229772956.000000
Throughput: 22977295.600000
Num Accesses - Session Mean & Stddev: 2297729.560000,85605.813436
Num Phases Traversed: 1084.000000
Num Phases Traversed - Session Mean & Stddev: 10.840000,0.366606
Num Path Iterations: 1084.000000
Num Path Iterations - Session Mean & Stddev: 10.840000,0.366606
+ set +x
++ printf 'taskset -c 1-2 timeout 100 /home/bcurto/mem-access-simulator/accesstest/accesstest -v -s 100 -d 10 --sess-distr u %s fibre %s\n' '0/233472,1 0/233472,1' '-c 1,1'
+ taskset -c 1-2 timeout 100 /home/bcurto/mem-access-simulator/accesstest/accesstest -v -s 100 -d 10 --sess-distr u 0/233472,1 0/233472,1 fibre -c 1,1
[0.000s] Creating path with 2 phases.
  Phase 0:
    0 sess-local datalocs, 0.000000 update ratio, inf access count scalar /
    233472 sess-global datalocs, 1.000000 update ratio, inf access count scalar
  Phase 1:
    0 sess-local datalocs, 0.000000 update ratio, inf access count scalar /
    233472 sess-global datalocs, 1.000000 update ratio, inf access count scalar
[0.000s] Creating global buffer at 0x7fc400000000 of size 29884416 bytes.
[5.827s] Test is ready to start.
Test duration in range [10.000, 10.011] seconds
Num Accesses: 229772956.000000
Throughput: 22977295.600000
Num Accesses - Session Mean & Stddev: 2297729.560000,85605.813436
Num Phases Traversed: 1084.000000
Num Phases Traversed - Session Mean & Stddev: 10.840000,0.366606
Num Path Iterations: 1084.000000
Num Path Iterations - Session Mean & Stddev: 10.840000,0.366606
+ set +x
++ printf 'taskset -c 1-2 timeout 100 /home/bcurto/mem-access-simulator/accesstest/accesstest -v -s 100 -d 10 --sess-distr u %s fibre %s\n' '0/233472,1 0/233472,1' '-c 1,1'
+ taskset -c 1-2 timeout 100 /home/bcurto/mem-access-simulator/accesstest/accesstest -v -s 100 -d 10 --sess-distr u 0/233472,1 0/233472,1 fibre -c 1,1
[0.000s] Creating path with 2 phases.
  Phase 0:
    0 sess-local datalocs, 0.000000 update ratio, inf access count scalar /
    233472 sess-global datalocs, 1.000000 update ratio, inf access count scalar
  Phase 1:
    0 sess-local datalocs, 0.000000 update ratio, inf access count scalar /
    233472 sess-global datalocs, 1.000000 update ratio, inf access count scalar
[0.000s] Creating global buffer at 0x7fe500000000 of size 29884416 bytes.
[5.826s] Test is ready to start.
Test duration in range [10.000, 10.011] seconds
Num Accesses: 229772956.000000
Throughput: 22977295.600000
Num Accesses - Session Mean & Stddev: 2297729.560000,85605.813436
Num Phases Traversed: 1084.000000
Num Phases Traversed - Session Mean & Stddev: 10.840000,0.366606
Num Path Iterations: 1084.000000
Num Path Iterations - Session Mean & Stddev: 10.840000,0.366606
+ set +x
++ printf 'taskset -c 1-2 timeout 100 /home/bcurto/mem-access-simulator/accesstest/accesstest -v -s 100 -d 10 --sess-distr u %s fibre %s\n' '0/233472,1 0/233472,1' '-c 1,1'
+ taskset -c 1-2 timeout 100 /home/bcurto/mem-access-simulator/accesstest/accesstest -v -s 100 -d 10 --sess-distr u 0/233472,1 0/233472,1 fibre -c 1,1
[0.000s] Creating path with 2 phases.
  Phase 0:
    0 sess-local datalocs, 0.000000 update ratio, inf access count scalar /
    233472 sess-global datalocs, 1.000000 update ratio, inf access count scalar
  Phase 1:
    0 sess-local datalocs, 0.000000 update ratio, inf access count scalar /
    233472 sess-global datalocs, 1.000000 update ratio, inf access count scalar
[0.000s] Creating global buffer at 0x7f8900000000 of size 29884416 bytes.
[5.826s] Test is ready to start.
Test duration in range [10.000, 10.008] seconds
Num Accesses: 229772956.000000
Throughput: 22977295.600000
Num Accesses - Session Mean & Stddev: 2297729.560000,85605.813436
Num Phases Traversed: 1084.000000
Num Phases Traversed - Session Mean & Stddev: 10.840000,0.366606
Num Path Iterations: 1084.000000
Num Path Iterations - Session Mean & Stddev: 10.840000,0.366606
+ set +x
++ printf 'taskset -c 1-2 timeout 100 /home/bcurto/mem-access-simulator/accesstest/accesstest -v -s 100 -d 10 --sess-distr u %s fibre %s\n' '0/233472,1 0/233472,1' '-c 1,1'
+ taskset -c 1-2 timeout 100 /home/bcurto/mem-access-simulator/accesstest/accesstest -v -s 100 -d 10 --sess-distr u 0/233472,1 0/233472,1 fibre -c 1,1
[0.000s] Creating path with 2 phases.
  Phase 0:
    0 sess-local datalocs, 0.000000 update ratio, inf access count scalar /
    233472 sess-global datalocs, 1.000000 update ratio, inf access count scalar
  Phase 1:
    0 sess-local datalocs, 0.000000 update ratio, inf access count scalar /
    233472 sess-global datalocs, 1.000000 update ratio, inf access count scalar
[0.000s] Creating global buffer at 0x7fc1c0000000 of size 29884416 bytes.
[5.828s] Test is ready to start.
Test duration in range [10.000, 10.011] seconds
Num Accesses: 229772956.000000
Throughput: 22977295.600000
Num Accesses - Session Mean & Stddev: 2297729.560000,85605.813436
Num Phases Traversed: 1084.000000
Num Phases Traversed - Session Mean & Stddev: 10.840000,0.366606
Num Path Iterations: 1084.000000
Num Path Iterations - Session Mean & Stddev: 10.840000,0.366606
+ set +x
++ printf 'taskset -c 1-2 timeout 100 /home/bcurto/mem-access-simulator/accesstest/accesstest -v -s 100 -d 10 --sess-distr u %s fibre %s\n' '0/233472,1 0/233472,1' '-c 1,1'
+ taskset -c 1-2 timeout 100 /home/bcurto/mem-access-simulator/accesstest/accesstest -v -s 100 -d 10 --sess-distr u 0/233472,1 0/233472,1 fibre -c 1,1
[0.000s] Creating path with 2 phases.
  Phase 0:
    0 sess-local datalocs, 0.000000 update ratio, inf access count scalar /
    233472 sess-global datalocs, 1.000000 update ratio, inf access count scalar
  Phase 1:
    0 sess-local datalocs, 0.000000 update ratio, inf access count scalar /
    233472 sess-global datalocs, 1.000000 update ratio, inf access count scalar
[0.000s] Creating global buffer at 0x7fa980000000 of size 29884416 bytes.
[5.826s] Test is ready to start.
Test duration in range [10.000, 10.010] seconds
Num Accesses: 229772956.000000
Throughput: 22977295.600000
Num Accesses - Session Mean & Stddev: 2297729.560000,85605.813436
Num Phases Traversed: 1084.000000
Num Phases Traversed - Session Mean & Stddev: 10.840000,0.366606
Num Path Iterations: 1084.000000
Num Path Iterations - Session Mean & Stddev: 10.840000,0.366606
+ set +x
++ printf 'taskset -c 1-2 timeout 100 /home/bcurto/mem-access-simulator/accesstest/accesstest -v -s 100 -d 10 --sess-distr u %s fibre %s\n' '0/233472,1 0/233472,1' '-c 1,1'
+ taskset -c 1-2 timeout 100 /home/bcurto/mem-access-simulator/accesstest/accesstest -v -s 100 -d 10 --sess-distr u 0/233472,1 0/233472,1 fibre -c 1,1
[0.000s] Creating path with 2 phases.
  Phase 0:
    0 sess-local datalocs, 0.000000 update ratio, inf access count scalar /
    233472 sess-global datalocs, 1.000000 update ratio, inf access count scalar
  Phase 1:
    0 sess-local datalocs, 0.000000 update ratio, inf access count scalar /
    233472 sess-global datalocs, 1.000000 update ratio, inf access count scalar
[0.000s] Creating global buffer at 0x7fd580000000 of size 29884416 bytes.
[5.827s] Test is ready to start.
Test duration in range [10.000, 10.010] seconds
Num Accesses: 229772956.000000
Throughput: 22977295.600000
Num Accesses - Session Mean & Stddev: 2297729.560000,85605.813436
Num Phases Traversed: 1084.000000
Num Phases Traversed - Session Mean & Stddev: 10.840000,0.366606
Num Path Iterations: 1084.000000
Num Path Iterations - Session Mean & Stddev: 10.840000,0.366606
+ set +x
++ printf 'taskset -c 1-2 timeout 100 /home/bcurto/mem-access-simulator/accesstest/accesstest -v -s 100 -d 10 --sess-distr u %s fibre %s\n' '0/233472,1 0/233472,1' '-c 1,1'
+ taskset -c 1-2 timeout 100 /home/bcurto/mem-access-simulator/accesstest/accesstest -v -s 100 -d 10 --sess-distr u 0/233472,1 0/233472,1 fibre -c 1,1
[0.000s] Creating path with 2 phases.
  Phase 0:
    0 sess-local datalocs, 0.000000 update ratio, inf access count scalar /
    233472 sess-global datalocs, 1.000000 update ratio, inf access count scalar
  Phase 1:
    0 sess-local datalocs, 0.000000 update ratio, inf access count scalar /
    233472 sess-global datalocs, 1.000000 update ratio, inf access count scalar
[0.000s] Creating global buffer at 0x7fdbc0000000 of size 29884416 bytes.
[5.827s] Test is ready to start.
Test duration in range [10.000, 10.009] seconds
Num Accesses: 229772956.000000
Throughput: 22977295.600000
Num Accesses - Session Mean & Stddev: 2297729.560000,85605.813436
Num Phases Traversed: 1084.000000
Num Phases Traversed - Session Mean & Stddev: 10.840000,0.366606
Num Path Iterations: 1084.000000
Num Path Iterations - Session Mean & Stddev: 10.840000,0.366606
+ set +x
++ printf 'taskset -c 1-2 timeout 100 /home/bcurto/mem-access-simulator/accesstest/accesstest -v -s 100 -d 10 --sess-distr u %s fibre %s\n' '0/233472,1 0/233472,1' '-c 1,1'
+ taskset -c 1-2 timeout 100 /home/bcurto/mem-access-simulator/accesstest/accesstest -v -s 100 -d 10 --sess-distr u 0/233472,1 0/233472,1 fibre -c 1,1
[0.000s] Creating path with 2 phases.
  Phase 0:
    0 sess-local datalocs, 0.000000 update ratio, inf access count scalar /
    233472 sess-global datalocs, 1.000000 update ratio, inf access count scalar
  Phase 1:
    0 sess-local datalocs, 0.000000 update ratio, inf access count scalar /
    233472 sess-global datalocs, 1.000000 update ratio, inf access count scalar
[0.000s] Creating global buffer at 0x7f1640000000 of size 29884416 bytes.
[5.826s] Test is ready to start.
Test duration in range [10.000, 10.008] seconds
Num Accesses: 229772956.000000
Throughput: 22977295.600000
Num Accesses - Session Mean & Stddev: 2297729.560000,85605.813436
Num Phases Traversed: 1084.000000
Num Phases Traversed - Session Mean & Stddev: 10.840000,0.366606
Num Path Iterations: 1084.000000
Num Path Iterations - Session Mean & Stddev: 10.840000,0.366606
+ set +x
++ printf 'taskset -c 1-2 timeout 100 /home/bcurto/mem-access-simulator/accesstest/accesstest -v -s 100 -d 10 --sess-distr u %s fibre %s\n' '0/233472,1 0/233472,1' '-c 1,1'
+ taskset -c 1-2 timeout 100 /home/bcurto/mem-access-simulator/accesstest/accesstest -v -s 100 -d 10 --sess-distr u 0/233472,1 0/233472,1 fibre -c 1,1
[0.000s] Creating path with 2 phases.
  Phase 0:
    0 sess-local datalocs, 0.000000 update ratio, inf access count scalar /
    233472 sess-global datalocs, 1.000000 update ratio, inf access count scalar
  Phase 1:
    0 sess-local datalocs, 0.000000 update ratio, inf access count scalar /
    233472 sess-global datalocs, 1.000000 update ratio, inf access count scalar
[0.000s] Creating global buffer at 0x7f0ec0000000 of size 29884416 bytes.
[5.825s] Test is ready to start.
Test duration in range [10.000, 10.013] seconds
Num Accesses: 229772956.000000
Throughput: 22977295.600000
Num Accesses - Session Mean & Stddev: 2297729.560000,85605.813436
Num Phases Traversed: 1084.000000
Num Phases Traversed - Session Mean & Stddev: 10.840000,0.366606
Num Path Iterations: 1084.000000
Num Path Iterations - Session Mean & Stddev: 10.840000,0.366606
+ set +x
++ printf 'taskset -c 1-2 timeout 100 /home/bcurto/mem-access-simulator/accesstest/accesstest -v -s 100 -d 10 --sess-distr u %s fibre %s\n' '0/233472,1 0/233472,1' '-c 1,1'
+ taskset -c 1-2 timeout 100 /home/bcurto/mem-access-simulator/accesstest/accesstest -v -s 100 -d 10 --sess-distr u 0/233472,1 0/233472,1 fibre -c 1,1
[0.000s] Creating path with 2 phases.
  Phase 0:
    0 sess-local datalocs, 0.000000 update ratio, inf access count scalar /
    233472 sess-global datalocs, 1.000000 update ratio, inf access count scalar
  Phase 1:
    0 sess-local datalocs, 0.000000 update ratio, inf access count scalar /
    233472 sess-global datalocs, 1.000000 update ratio, inf access count scalar
[0.000s] Creating global buffer at 0x7f8140000000 of size 29884416 bytes.
[5.828s] Test is ready to start.
Test duration in range [10.000, 10.010] seconds
Num Accesses: 229772956.000000
Throughput: 22977295.600000
Num Accesses - Session Mean & Stddev: 2297729.560000,85605.813436
Num Phases Traversed: 1084.000000
Num Phases Traversed - Session Mean & Stddev: 10.840000,0.366606
Num Path Iterations: 1084.000000
Num Path Iterations - Session Mean & Stddev: 10.840000,0.366606
+ set +x
++ printf 'taskset -c 1-2 timeout 100 /home/bcurto/mem-access-simulator/accesstest/accesstest -v -s 100 -d 10 --sess-distr u %s fibre %s\n' '0/233472,1 0/233472,1' '-c 1,1'
+ taskset -c 1-2 timeout 100 /home/bcurto/mem-access-simulator/accesstest/accesstest -v -s 100 -d 10 --sess-distr u 0/233472,1 0/233472,1 fibre -c 1,1
[0.000s] Creating path with 2 phases.
  Phase 0:
    0 sess-local datalocs, 0.000000 update ratio, inf access count scalar /
    233472 sess-global datalocs, 1.000000 update ratio, inf access count scalar
  Phase 1:
    0 sess-local datalocs, 0.000000 update ratio, inf access count scalar /
    233472 sess-global datalocs, 1.000000 update ratio, inf access count scalar
[0.000s] Creating global buffer at 0x7f9640000000 of size 29884416 bytes.
[5.835s] Test is ready to start.
Test duration in range [10.000, 10.011] seconds
Num Accesses: 229772956.000000
Throughput: 22977295.600000
Num Accesses - Session Mean & Stddev: 2297729.560000,85605.813436
Num Phases Traversed: 1084.000000
Num Phases Traversed - Session Mean & Stddev: 10.840000,0.366606
Num Path Iterations: 1084.000000
Num Path Iterations - Session Mean & Stddev: 10.840000,0.366606
+ set +x
++ printf 'taskset -c 1-2 timeout 100 /home/bcurto/mem-access-simulator/accesstest/accesstest -v -s 100 -d 10 --sess-distr u %s fibre %s\n' '0/233472,1 0/233472,1' '-c 1,1'
+ taskset -c 1-2 timeout 100 /home/bcurto/mem-access-simulator/accesstest/accesstest -v -s 100 -d 10 --sess-distr u 0/233472,1 0/233472,1 fibre -c 1,1
[0.000s] Creating path with 2 phases.
  Phase 0:
    0 sess-local datalocs, 0.000000 update ratio, inf access count scalar /
    233472 sess-global datalocs, 1.000000 update ratio, inf access count scalar
  Phase 1:
    0 sess-local datalocs, 0.000000 update ratio, inf access count scalar /
    233472 sess-global datalocs, 1.000000 update ratio, inf access count scalar
[0.000s] Creating global buffer at 0x7f6380000000 of size 29884416 bytes.
[5.825s] Test is ready to start.
Test duration in range [10.000, 10.008] seconds
Num Accesses: 229772956.000000
Throughput: 22977295.600000
Num Accesses - Session Mean & Stddev: 2297729.560000,85605.813436
Num Phases Traversed: 1084.000000
Num Phases Traversed - Session Mean & Stddev: 10.840000,0.366606
Num Path Iterations: 1084.000000
Num Path Iterations - Session Mean & Stddev: 10.840000,0.366606
+ set +x
