++ printf 'taskset -c 1-2 timeout 100 /home/bcurto/mem-access-simulator/accesstest/accesstest -v -s 100 -d 10 --sess-distr u %s fibre %s\n' '0/233472,0.001 0/233472,0.001' '-g 1,1'
+ taskset -c 1-2 timeout 100 /home/bcurto/mem-access-simulator/accesstest/accesstest -v -s 100 -d 10 --sess-distr u 0/233472,0.001 0/233472,0.001 fibre -g 1,1
[0.000s] Creating path with 2 phases.
  Phase 0:
    0 sess-local datalocs, 0.000000 update ratio, inf access count scalar /
    233472 sess-global datalocs, 0.001000 update ratio, inf access count scalar
  Phase 1:
    0 sess-local datalocs, 0.000000 update ratio, inf access count scalar /
    233472 sess-global datalocs, 0.001000 update ratio, inf access count scalar
[0.000s] Creating global buffer at 0x7fea40000000 of size 29884416 bytes.
[6.227s] Test is ready to start.
Test duration in range [10.000, 10.011] seconds
Num Accesses: 211559254.000000
Throughput: 21155925.400000
Num Accesses - Session Mean & Stddev: 2115592.540000,55455.314928
Num Phases Traversed: 1006.000000
Num Phases Traversed - Session Mean & Stddev: 10.060000,0.237487
Num Path Iterations: 1006.000000
Num Path Iterations - Session Mean & Stddev: 10.060000,0.237487
+ set +x
++ printf 'taskset -c 1-2 timeout 100 /home/bcurto/mem-access-simulator/accesstest/accesstest -v -s 100 -d 10 --sess-distr u %s fibre %s\n' '0/233472,0.001 0/233472,0.001' '-g 1,1'
+ taskset -c 1-2 timeout 100 /home/bcurto/mem-access-simulator/accesstest/accesstest -v -s 100 -d 10 --sess-distr u 0/233472,0.001 0/233472,0.001 fibre -g 1,1
[0.000s] Creating path with 2 phases.
  Phase 0:
    0 sess-local datalocs, 0.000000 update ratio, inf access count scalar /
    233472 sess-global datalocs, 0.001000 update ratio, inf access count scalar
  Phase 1:
    0 sess-local datalocs, 0.000000 update ratio, inf access count scalar /
    233472 sess-global datalocs, 0.001000 update ratio, inf access count scalar
[0.000s] Creating global buffer at 0x7f3580000000 of size 29884416 bytes.
[6.225s] Test is ready to start.
Test duration in range [10.000, 10.011] seconds
Num Accesses: 211559254.000000
Throughput: 21155925.400000
Num Accesses - Session Mean & Stddev: 2115592.540000,55455.314928
Num Phases Traversed: 1006.000000
Num Phases Traversed - Session Mean & Stddev: 10.060000,0.237487
Num Path Iterations: 1006.000000
Num Path Iterations - Session Mean & Stddev: 10.060000,0.237487
+ set +x
++ printf 'taskset -c 1-2 timeout 100 /home/bcurto/mem-access-simulator/accesstest/accesstest -v -s 100 -d 10 --sess-distr u %s fibre %s\n' '0/233472,0.001 0/233472,0.001' '-g 1,1'
+ taskset -c 1-2 timeout 100 /home/bcurto/mem-access-simulator/accesstest/accesstest -v -s 100 -d 10 --sess-distr u 0/233472,0.001 0/233472,0.001 fibre -g 1,1
[0.000s] Creating path with 2 phases.
  Phase 0:
    0 sess-local datalocs, 0.000000 update ratio, inf access count scalar /
    233472 sess-global datalocs, 0.001000 update ratio, inf access count scalar
  Phase 1:
    0 sess-local datalocs, 0.000000 update ratio, inf access count scalar /
    233472 sess-global datalocs, 0.001000 update ratio, inf access count scalar
[0.000s] Creating global buffer at 0x7fc540000000 of size 29884416 bytes.
[6.221s] Test is ready to start.
Test duration in range [10.000, 10.011] seconds
Num Accesses: 211559254.000000
Throughput: 21155925.400000
Num Accesses - Session Mean & Stddev: 2115592.540000,55455.314928
Num Phases Traversed: 1006.000000
Num Phases Traversed - Session Mean & Stddev: 10.060000,0.237487
Num Path Iterations: 1006.000000
Num Path Iterations - Session Mean & Stddev: 10.060000,0.237487
+ set +x
++ printf 'taskset -c 1-2 timeout 100 /home/bcurto/mem-access-simulator/accesstest/accesstest -v -s 100 -d 10 --sess-distr u %s fibre %s\n' '0/233472,0.001 0/233472,0.001' '-g 1,1'
+ taskset -c 1-2 timeout 100 /home/bcurto/mem-access-simulator/accesstest/accesstest -v -s 100 -d 10 --sess-distr u 0/233472,0.001 0/233472,0.001 fibre -g 1,1
[0.000s] Creating path with 2 phases.
  Phase 0:
    0 sess-local datalocs, 0.000000 update ratio, inf access count scalar /
    233472 sess-global datalocs, 0.001000 update ratio, inf access count scalar
  Phase 1:
    0 sess-local datalocs, 0.000000 update ratio, inf access count scalar /
    233472 sess-global datalocs, 0.001000 update ratio, inf access count scalar
[0.000s] Creating global buffer at 0x7fdec0000000 of size 29884416 bytes.
[6.233s] Test is ready to start.
Test duration in range [10.000, 10.012] seconds
Num Accesses: 211559254.000000
Throughput: 21155925.400000
Num Accesses - Session Mean & Stddev: 2115592.540000,55455.314928
Num Phases Traversed: 1006.000000
Num Phases Traversed - Session Mean & Stddev: 10.060000,0.237487
Num Path Iterations: 1006.000000
Num Path Iterations - Session Mean & Stddev: 10.060000,0.237487
+ set +x
++ printf 'taskset -c 1-2 timeout 100 /home/bcurto/mem-access-simulator/accesstest/accesstest -v -s 100 -d 10 --sess-distr u %s fibre %s\n' '0/233472,0.001 0/233472,0.001' '-g 1,1'
+ taskset -c 1-2 timeout 100 /home/bcurto/mem-access-simulator/accesstest/accesstest -v -s 100 -d 10 --sess-distr u 0/233472,0.001 0/233472,0.001 fibre -g 1,1
[0.000s] Creating path with 2 phases.
  Phase 0:
    0 sess-local datalocs, 0.000000 update ratio, inf access count scalar /
    233472 sess-global datalocs, 0.001000 update ratio, inf access count scalar
  Phase 1:
    0 sess-local datalocs, 0.000000 update ratio, inf access count scalar /
    233472 sess-global datalocs, 0.001000 update ratio, inf access count scalar
[0.000s] Creating global buffer at 0x7f12c0000000 of size 29884416 bytes.
[6.224s] Test is ready to start.
Test duration in range [10.000, 10.011] seconds
Num Accesses: 211559254.000000
Throughput: 21155925.400000
Num Accesses - Session Mean & Stddev: 2115592.540000,55455.314928
Num Phases Traversed: 1006.000000
Num Phases Traversed - Session Mean & Stddev: 10.060000,0.237487
Num Path Iterations: 1006.000000
Num Path Iterations - Session Mean & Stddev: 10.060000,0.237487
+ set +x
++ printf 'taskset -c 1-2 timeout 100 /home/bcurto/mem-access-simulator/accesstest/accesstest -v -s 100 -d 10 --sess-distr u %s fibre %s\n' '0/233472,0.001 0/233472,0.001' '-g 1,1'
+ taskset -c 1-2 timeout 100 /home/bcurto/mem-access-simulator/accesstest/accesstest -v -s 100 -d 10 --sess-distr u 0/233472,0.001 0/233472,0.001 fibre -g 1,1
[0.000s] Creating path with 2 phases.
  Phase 0:
    0 sess-local datalocs, 0.000000 update ratio, inf access count scalar /
    233472 sess-global datalocs, 0.001000 update ratio, inf access count scalar
  Phase 1:
    0 sess-local datalocs, 0.000000 update ratio, inf access count scalar /
    233472 sess-global datalocs, 0.001000 update ratio, inf access count scalar
[0.000s] Creating global buffer at 0x7f8f00000000 of size 29884416 bytes.
[6.222s] Test is ready to start.
Test duration in range [10.000, 10.011] seconds
Num Accesses: 211559254.000000
Throughput: 21155925.400000
Num Accesses - Session Mean & Stddev: 2115592.540000,55455.314928
Num Phases Traversed: 1006.000000
Num Phases Traversed - Session Mean & Stddev: 10.060000,0.237487
Num Path Iterations: 1006.000000
Num Path Iterations - Session Mean & Stddev: 10.060000,0.237487
+ set +x
++ printf 'taskset -c 1-2 timeout 100 /home/bcurto/mem-access-simulator/accesstest/accesstest -v -s 100 -d 10 --sess-distr u %s fibre %s\n' '0/233472,0.001 0/233472,0.001' '-g 1,1'
+ taskset -c 1-2 timeout 100 /home/bcurto/mem-access-simulator/accesstest/accesstest -v -s 100 -d 10 --sess-distr u 0/233472,0.001 0/233472,0.001 fibre -g 1,1
[0.000s] Creating path with 2 phases.
  Phase 0:
    0 sess-local datalocs, 0.000000 update ratio, inf access count scalar /
    233472 sess-global datalocs, 0.001000 update ratio, inf access count scalar
  Phase 1:
    0 sess-local datalocs, 0.000000 update ratio, inf access count scalar /
    233472 sess-global datalocs, 0.001000 update ratio, inf access count scalar
[0.000s] Creating global buffer at 0x7ff880000000 of size 29884416 bytes.
[6.181s] Test is ready to start.
Test duration in range [10.000, 10.012] seconds
Num Accesses: 211559254.000000
Throughput: 21155925.400000
Num Accesses - Session Mean & Stddev: 2115592.540000,55455.314928
Num Phases Traversed: 1006.000000
Num Phases Traversed - Session Mean & Stddev: 10.060000,0.237487
Num Path Iterations: 1006.000000
Num Path Iterations - Session Mean & Stddev: 10.060000,0.237487
+ set +x
++ printf 'taskset -c 1-2 timeout 100 /home/bcurto/mem-access-simulator/accesstest/accesstest -v -s 100 -d 10 --sess-distr u %s fibre %s\n' '0/233472,0.001 0/233472,0.001' '-g 1,1'
+ taskset -c 1-2 timeout 100 /home/bcurto/mem-access-simulator/accesstest/accesstest -v -s 100 -d 10 --sess-distr u 0/233472,0.001 0/233472,0.001 fibre -g 1,1
[0.000s] Creating path with 2 phases.
  Phase 0:
    0 sess-local datalocs, 0.000000 update ratio, inf access count scalar /
    233472 sess-global datalocs, 0.001000 update ratio, inf access count scalar
  Phase 1:
    0 sess-local datalocs, 0.000000 update ratio, inf access count scalar /
    233472 sess-global datalocs, 0.001000 update ratio, inf access count scalar
[0.000s] Creating global buffer at 0x7f6740000000 of size 29884416 bytes.
[6.224s] Test is ready to start.
Test duration in range [10.000, 10.011] seconds
Num Accesses: 211559254.000000
Throughput: 21155925.400000
Num Accesses - Session Mean & Stddev: 2115592.540000,55455.314928
Num Phases Traversed: 1006.000000
Num Phases Traversed - Session Mean & Stddev: 10.060000,0.237487
Num Path Iterations: 1006.000000
Num Path Iterations - Session Mean & Stddev: 10.060000,0.237487
+ set +x
++ printf 'taskset -c 1-2 timeout 100 /home/bcurto/mem-access-simulator/accesstest/accesstest -v -s 100 -d 10 --sess-distr u %s fibre %s\n' '0/233472,0.001 0/233472,0.001' '-g 1,1'
+ taskset -c 1-2 timeout 100 /home/bcurto/mem-access-simulator/accesstest/accesstest -v -s 100 -d 10 --sess-distr u 0/233472,0.001 0/233472,0.001 fibre -g 1,1
[0.000s] Creating path with 2 phases.
  Phase 0:
    0 sess-local datalocs, 0.000000 update ratio, inf access count scalar /
    233472 sess-global datalocs, 0.001000 update ratio, inf access count scalar
  Phase 1:
    0 sess-local datalocs, 0.000000 update ratio, inf access count scalar /
    233472 sess-global datalocs, 0.001000 update ratio, inf access count scalar
[0.000s] Creating global buffer at 0x7f1ac0000000 of size 29884416 bytes.
[6.225s] Test is ready to start.
Test duration in range [10.000, 10.011] seconds
Num Accesses: 211559254.000000
Throughput: 21155925.400000
Num Accesses - Session Mean & Stddev: 2115592.540000,55455.314928
Num Phases Traversed: 1006.000000
Num Phases Traversed - Session Mean & Stddev: 10.060000,0.237487
Num Path Iterations: 1006.000000
Num Path Iterations - Session Mean & Stddev: 10.060000,0.237487
+ set +x
++ printf 'taskset -c 1-2 timeout 100 /home/bcurto/mem-access-simulator/accesstest/accesstest -v -s 100 -d 10 --sess-distr u %s fibre %s\n' '0/233472,0.001 0/233472,0.001' '-g 1,1'
+ taskset -c 1-2 timeout 100 /home/bcurto/mem-access-simulator/accesstest/accesstest -v -s 100 -d 10 --sess-distr u 0/233472,0.001 0/233472,0.001 fibre -g 1,1
[0.000s] Creating path with 2 phases.
  Phase 0:
    0 sess-local datalocs, 0.000000 update ratio, inf access count scalar /
    233472 sess-global datalocs, 0.001000 update ratio, inf access count scalar
  Phase 1:
    0 sess-local datalocs, 0.000000 update ratio, inf access count scalar /
    233472 sess-global datalocs, 0.001000 update ratio, inf access count scalar
[0.000s] Creating global buffer at 0x7f3400000000 of size 29884416 bytes.
[6.225s] Test is ready to start.
Test duration in range [10.000, 10.011] seconds
Num Accesses: 211559254.000000
Throughput: 21155925.400000
Num Accesses - Session Mean & Stddev: 2115592.540000,55455.314928
Num Phases Traversed: 1006.000000
Num Phases Traversed - Session Mean & Stddev: 10.060000,0.237487
Num Path Iterations: 1006.000000
Num Path Iterations - Session Mean & Stddev: 10.060000,0.237487
+ set +x
++ printf 'taskset -c 1-2 timeout 100 /home/bcurto/mem-access-simulator/accesstest/accesstest -v -s 100 -d 10 --sess-distr u %s fibre %s\n' '0/233472,0.001 0/233472,0.001' '-g 1,1'
+ taskset -c 1-2 timeout 100 /home/bcurto/mem-access-simulator/accesstest/accesstest -v -s 100 -d 10 --sess-distr u 0/233472,0.001 0/233472,0.001 fibre -g 1,1
[0.000s] Creating path with 2 phases.
  Phase 0:
    0 sess-local datalocs, 0.000000 update ratio, inf access count scalar /
    233472 sess-global datalocs, 0.001000 update ratio, inf access count scalar
  Phase 1:
    0 sess-local datalocs, 0.000000 update ratio, inf access count scalar /
    233472 sess-global datalocs, 0.001000 update ratio, inf access count scalar
[0.000s] Creating global buffer at 0x7f4640000000 of size 29884416 bytes.
[6.225s] Test is ready to start.
Test duration in range [10.000, 10.011] seconds
Num Accesses: 211559254.000000
Throughput: 21155925.400000
Num Accesses - Session Mean & Stddev: 2115592.540000,55455.314928
Num Phases Traversed: 1006.000000
Num Phases Traversed - Session Mean & Stddev: 10.060000,0.237487
Num Path Iterations: 1006.000000
Num Path Iterations - Session Mean & Stddev: 10.060000,0.237487
+ set +x
++ printf 'taskset -c 1-2 timeout 100 /home/bcurto/mem-access-simulator/accesstest/accesstest -v -s 100 -d 10 --sess-distr u %s fibre %s\n' '0/233472,0.001 0/233472,0.001' '-g 1,1'
+ taskset -c 1-2 timeout 100 /home/bcurto/mem-access-simulator/accesstest/accesstest -v -s 100 -d 10 --sess-distr u 0/233472,0.001 0/233472,0.001 fibre -g 1,1
[0.000s] Creating path with 2 phases.
  Phase 0:
    0 sess-local datalocs, 0.000000 update ratio, inf access count scalar /
    233472 sess-global datalocs, 0.001000 update ratio, inf access count scalar
  Phase 1:
    0 sess-local datalocs, 0.000000 update ratio, inf access count scalar /
    233472 sess-global datalocs, 0.001000 update ratio, inf access count scalar
[0.000s] Creating global buffer at 0x7f0a00000000 of size 29884416 bytes.
[6.225s] Test is ready to start.
Test duration in range [10.000, 10.012] seconds
Num Accesses: 211559254.000000
Throughput: 21155925.400000
Num Accesses - Session Mean & Stddev: 2115592.540000,55455.314928
Num Phases Traversed: 1006.000000
Num Phases Traversed - Session Mean & Stddev: 10.060000,0.237487
Num Path Iterations: 1006.000000
Num Path Iterations - Session Mean & Stddev: 10.060000,0.237487
+ set +x
++ printf 'taskset -c 1-2 timeout 100 /home/bcurto/mem-access-simulator/accesstest/accesstest -v -s 100 -d 10 --sess-distr u %s fibre %s\n' '0/233472,0.001 0/233472,0.001' '-g 1,1'
+ taskset -c 1-2 timeout 100 /home/bcurto/mem-access-simulator/accesstest/accesstest -v -s 100 -d 10 --sess-distr u 0/233472,0.001 0/233472,0.001 fibre -g 1,1
[0.000s] Creating path with 2 phases.
  Phase 0:
    0 sess-local datalocs, 0.000000 update ratio, inf access count scalar /
    233472 sess-global datalocs, 0.001000 update ratio, inf access count scalar
  Phase 1:
    0 sess-local datalocs, 0.000000 update ratio, inf access count scalar /
    233472 sess-global datalocs, 0.001000 update ratio, inf access count scalar
[0.000s] Creating global buffer at 0x7fecc0000000 of size 29884416 bytes.
[6.224s] Test is ready to start.
Test duration in range [10.000, 10.011] seconds
Num Accesses: 211559254.000000
Throughput: 21155925.400000
Num Accesses - Session Mean & Stddev: 2115592.540000,55455.314928
Num Phases Traversed: 1006.000000
Num Phases Traversed - Session Mean & Stddev: 10.060000,0.237487
Num Path Iterations: 1006.000000
Num Path Iterations - Session Mean & Stddev: 10.060000,0.237487
+ set +x
++ printf 'taskset -c 1-2 timeout 100 /home/bcurto/mem-access-simulator/accesstest/accesstest -v -s 100 -d 10 --sess-distr u %s fibre %s\n' '0/233472,0.001 0/233472,0.001' '-g 1,1'
+ taskset -c 1-2 timeout 100 /home/bcurto/mem-access-simulator/accesstest/accesstest -v -s 100 -d 10 --sess-distr u 0/233472,0.001 0/233472,0.001 fibre -g 1,1
[0.000s] Creating path with 2 phases.
  Phase 0:
    0 sess-local datalocs, 0.000000 update ratio, inf access count scalar /
    233472 sess-global datalocs, 0.001000 update ratio, inf access count scalar
  Phase 1:
    0 sess-local datalocs, 0.000000 update ratio, inf access count scalar /
    233472 sess-global datalocs, 0.001000 update ratio, inf access count scalar
[0.000s] Creating global buffer at 0x7f4300000000 of size 29884416 bytes.
[6.225s] Test is ready to start.
Test duration in range [10.000, 10.010] seconds
Num Accesses: 211559254.000000
Throughput: 21155925.400000
Num Accesses - Session Mean & Stddev: 2115592.540000,55455.314928
Num Phases Traversed: 1006.000000
Num Phases Traversed - Session Mean & Stddev: 10.060000,0.237487
Num Path Iterations: 1006.000000
Num Path Iterations - Session Mean & Stddev: 10.060000,0.237487
+ set +x
++ printf 'taskset -c 1-2 timeout 100 /home/bcurto/mem-access-simulator/accesstest/accesstest -v -s 100 -d 10 --sess-distr u %s fibre %s\n' '0/233472,0.001 0/233472,0.001' '-g 1,1'
+ taskset -c 1-2 timeout 100 /home/bcurto/mem-access-simulator/accesstest/accesstest -v -s 100 -d 10 --sess-distr u 0/233472,0.001 0/233472,0.001 fibre -g 1,1
[0.000s] Creating path with 2 phases.
  Phase 0:
    0 sess-local datalocs, 0.000000 update ratio, inf access count scalar /
    233472 sess-global datalocs, 0.001000 update ratio, inf access count scalar
  Phase 1:
    0 sess-local datalocs, 0.000000 update ratio, inf access count scalar /
    233472 sess-global datalocs, 0.001000 update ratio, inf access count scalar
[0.000s] Creating global buffer at 0x7fa180000000 of size 29884416 bytes.
[6.222s] Test is ready to start.
Test duration in range [10.000, 10.012] seconds
Num Accesses: 211559254.000000
Throughput: 21155925.400000
Num Accesses - Session Mean & Stddev: 2115592.540000,55455.314928
Num Phases Traversed: 1006.000000
Num Phases Traversed - Session Mean & Stddev: 10.060000,0.237487
Num Path Iterations: 1006.000000
Num Path Iterations - Session Mean & Stddev: 10.060000,0.237487
+ set +x
++ printf 'taskset -c 1-2 timeout 100 /home/bcurto/mem-access-simulator/accesstest/accesstest -v -s 100 -d 10 --sess-distr u %s fibre %s\n' '0/233472,0.001 0/233472,0.001' '-g 1,1'
+ taskset -c 1-2 timeout 100 /home/bcurto/mem-access-simulator/accesstest/accesstest -v -s 100 -d 10 --sess-distr u 0/233472,0.001 0/233472,0.001 fibre -g 1,1
[0.000s] Creating path with 2 phases.
  Phase 0:
    0 sess-local datalocs, 0.000000 update ratio, inf access count scalar /
    233472 sess-global datalocs, 0.001000 update ratio, inf access count scalar
  Phase 1:
    0 sess-local datalocs, 0.000000 update ratio, inf access count scalar /
    233472 sess-global datalocs, 0.001000 update ratio, inf access count scalar
[0.000s] Creating global buffer at 0x7fab80000000 of size 29884416 bytes.
[6.228s] Test is ready to start.
Test duration in range [10.000, 10.011] seconds
Num Accesses: 211559254.000000
Throughput: 21155925.400000
Num Accesses - Session Mean & Stddev: 2115592.540000,55455.314928
Num Phases Traversed: 1006.000000
Num Phases Traversed - Session Mean & Stddev: 10.060000,0.237487
Num Path Iterations: 1006.000000
Num Path Iterations - Session Mean & Stddev: 10.060000,0.237487
+ set +x
++ printf 'taskset -c 1-2 timeout 100 /home/bcurto/mem-access-simulator/accesstest/accesstest -v -s 100 -d 10 --sess-distr u %s fibre %s\n' '0/233472,0.001 0/233472,0.001' '-g 1,1'
+ taskset -c 1-2 timeout 100 /home/bcurto/mem-access-simulator/accesstest/accesstest -v -s 100 -d 10 --sess-distr u 0/233472,0.001 0/233472,0.001 fibre -g 1,1
[0.000s] Creating path with 2 phases.
  Phase 0:
    0 sess-local datalocs, 0.000000 update ratio, inf access count scalar /
    233472 sess-global datalocs, 0.001000 update ratio, inf access count scalar
  Phase 1:
    0 sess-local datalocs, 0.000000 update ratio, inf access count scalar /
    233472 sess-global datalocs, 0.001000 update ratio, inf access count scalar
[0.000s] Creating global buffer at 0x7f9000000000 of size 29884416 bytes.
[6.225s] Test is ready to start.
Test duration in range [10.000, 10.012] seconds
Num Accesses: 211559254.000000
Throughput: 21155925.400000
Num Accesses - Session Mean & Stddev: 2115592.540000,55455.314928
Num Phases Traversed: 1006.000000
Num Phases Traversed - Session Mean & Stddev: 10.060000,0.237487
Num Path Iterations: 1006.000000
Num Path Iterations - Session Mean & Stddev: 10.060000,0.237487
+ set +x
++ printf 'taskset -c 1-2 timeout 100 /home/bcurto/mem-access-simulator/accesstest/accesstest -v -s 100 -d 10 --sess-distr u %s fibre %s\n' '0/233472,0.001 0/233472,0.001' '-g 1,1'
+ taskset -c 1-2 timeout 100 /home/bcurto/mem-access-simulator/accesstest/accesstest -v -s 100 -d 10 --sess-distr u 0/233472,0.001 0/233472,0.001 fibre -g 1,1
[0.000s] Creating path with 2 phases.
  Phase 0:
    0 sess-local datalocs, 0.000000 update ratio, inf access count scalar /
    233472 sess-global datalocs, 0.001000 update ratio, inf access count scalar
  Phase 1:
    0 sess-local datalocs, 0.000000 update ratio, inf access count scalar /
    233472 sess-global datalocs, 0.001000 update ratio, inf access count scalar
[0.000s] Creating global buffer at 0x7fb200000000 of size 29884416 bytes.
[6.225s] Test is ready to start.
Test duration in range [10.000, 10.012] seconds
Num Accesses: 211559254.000000
Throughput: 21155925.400000
Num Accesses - Session Mean & Stddev: 2115592.540000,55455.314928
Num Phases Traversed: 1006.000000
Num Phases Traversed - Session Mean & Stddev: 10.060000,0.237487
Num Path Iterations: 1006.000000
Num Path Iterations - Session Mean & Stddev: 10.060000,0.237487
+ set +x
++ printf 'taskset -c 1-2 timeout 100 /home/bcurto/mem-access-simulator/accesstest/accesstest -v -s 100 -d 10 --sess-distr u %s fibre %s\n' '0/233472,0.001 0/233472,0.001' '-g 1,1'
+ taskset -c 1-2 timeout 100 /home/bcurto/mem-access-simulator/accesstest/accesstest -v -s 100 -d 10 --sess-distr u 0/233472,0.001 0/233472,0.001 fibre -g 1,1
[0.000s] Creating path with 2 phases.
  Phase 0:
    0 sess-local datalocs, 0.000000 update ratio, inf access count scalar /
    233472 sess-global datalocs, 0.001000 update ratio, inf access count scalar
  Phase 1:
    0 sess-local datalocs, 0.000000 update ratio, inf access count scalar /
    233472 sess-global datalocs, 0.001000 update ratio, inf access count scalar
[0.000s] Creating global buffer at 0x7f30c0000000 of size 29884416 bytes.
[6.224s] Test is ready to start.
Test duration in range [10.000, 10.012] seconds
Num Accesses: 211559254.000000
Throughput: 21155925.400000
Num Accesses - Session Mean & Stddev: 2115592.540000,55455.314928
Num Phases Traversed: 1006.000000
Num Phases Traversed - Session Mean & Stddev: 10.060000,0.237487
Num Path Iterations: 1006.000000
Num Path Iterations - Session Mean & Stddev: 10.060000,0.237487
+ set +x
++ printf 'taskset -c 1-2 timeout 100 /home/bcurto/mem-access-simulator/accesstest/accesstest -v -s 100 -d 10 --sess-distr u %s fibre %s\n' '0/233472,0.001 0/233472,0.001' '-g 1,1'
+ taskset -c 1-2 timeout 100 /home/bcurto/mem-access-simulator/accesstest/accesstest -v -s 100 -d 10 --sess-distr u 0/233472,0.001 0/233472,0.001 fibre -g 1,1
[0.000s] Creating path with 2 phases.
  Phase 0:
    0 sess-local datalocs, 0.000000 update ratio, inf access count scalar /
    233472 sess-global datalocs, 0.001000 update ratio, inf access count scalar
  Phase 1:
    0 sess-local datalocs, 0.000000 update ratio, inf access count scalar /
    233472 sess-global datalocs, 0.001000 update ratio, inf access count scalar
[0.000s] Creating global buffer at 0x7faa40000000 of size 29884416 bytes.
[6.224s] Test is ready to start.
Test duration in range [10.000, 10.011] seconds
Num Accesses: 211559254.000000
Throughput: 21155925.400000
Num Accesses - Session Mean & Stddev: 2115592.540000,55455.314928
Num Phases Traversed: 1006.000000
Num Phases Traversed - Session Mean & Stddev: 10.060000,0.237487
Num Path Iterations: 1006.000000
Num Path Iterations - Session Mean & Stddev: 10.060000,0.237487
+ set +x
