++ printf 'taskset -c 1-2 timeout 100 /home/bcurto/mem-access-simulator/accesstest/accesstest -v -s 100 -d 10 --sess-distr u %s fibre %s\n' '0/233472,0.001 0/233472,0.001' '-c 1,1'
+ taskset -c 1-2 timeout 100 /home/bcurto/mem-access-simulator/accesstest/accesstest -v -s 100 -d 10 --sess-distr u 0/233472,0.001 0/233472,0.001 fibre -c 1,1
[0.000s] Creating path with 2 phases.
  Phase 0:
    0 sess-local datalocs, 0.000000 update ratio, inf access count scalar /
    233472 sess-global datalocs, 0.001000 update ratio, inf access count scalar
  Phase 1:
    0 sess-local datalocs, 0.000000 update ratio, inf access count scalar /
    233472 sess-global datalocs, 0.001000 update ratio, inf access count scalar
[0.000s] Creating global buffer at 0x7ff780000000 of size 29884416 bytes.
[5.783s] Test is ready to start.
Test duration in range [10.000, 10.008] seconds
Num Accesses: 230706992.000000
Throughput: 23070699.200000
Num Accesses - Session Mean & Stddev: 2307069.920000,75881.443353
Num Phases Traversed: 1088.000000
Num Phases Traversed - Session Mean & Stddev: 10.880000,0.324962
Num Path Iterations: 1088.000000
Num Path Iterations - Session Mean & Stddev: 10.880000,0.324962
+ set +x
++ printf 'taskset -c 1-2 timeout 100 /home/bcurto/mem-access-simulator/accesstest/accesstest -v -s 100 -d 10 --sess-distr u %s fibre %s\n' '0/233472,0.001 0/233472,0.001' '-c 1,1'
+ taskset -c 1-2 timeout 100 /home/bcurto/mem-access-simulator/accesstest/accesstest -v -s 100 -d 10 --sess-distr u 0/233472,0.001 0/233472,0.001 fibre -c 1,1
[0.000s] Creating path with 2 phases.
  Phase 0:
    0 sess-local datalocs, 0.000000 update ratio, inf access count scalar /
    233472 sess-global datalocs, 0.001000 update ratio, inf access count scalar
  Phase 1:
    0 sess-local datalocs, 0.000000 update ratio, inf access count scalar /
    233472 sess-global datalocs, 0.001000 update ratio, inf access count scalar
[0.000s] Creating global buffer at 0x7fe2c0000000 of size 29884416 bytes.
[5.781s] Test is ready to start.
Test duration in range [10.000, 10.008] seconds
Num Accesses: 230706992.000000
Throughput: 23070699.200000
Num Accesses - Session Mean & Stddev: 2307069.920000,75881.443353
Num Phases Traversed: 1088.000000
Num Phases Traversed - Session Mean & Stddev: 10.880000,0.324962
Num Path Iterations: 1088.000000
Num Path Iterations - Session Mean & Stddev: 10.880000,0.324962
+ set +x
++ printf 'taskset -c 1-2 timeout 100 /home/bcurto/mem-access-simulator/accesstest/accesstest -v -s 100 -d 10 --sess-distr u %s fibre %s\n' '0/233472,0.001 0/233472,0.001' '-c 1,1'
+ taskset -c 1-2 timeout 100 /home/bcurto/mem-access-simulator/accesstest/accesstest -v -s 100 -d 10 --sess-distr u 0/233472,0.001 0/233472,0.001 fibre -c 1,1
[0.000s] Creating path with 2 phases.
  Phase 0:
    0 sess-local datalocs, 0.000000 update ratio, inf access count scalar /
    233472 sess-global datalocs, 0.001000 update ratio, inf access count scalar
  Phase 1:
    0 sess-local datalocs, 0.000000 update ratio, inf access count scalar /
    233472 sess-global datalocs, 0.001000 update ratio, inf access count scalar
[0.000s] Creating global buffer at 0x7f7f00000000 of size 29884416 bytes.
[5.716s] Test is ready to start.
Test duration in range [10.000, 10.020] seconds
Num Accesses: 230473483.000000
Throughput: 23047348.300000
Num Accesses - Session Mean & Stddev: 2304734.830000,78529.878667
Num Phases Traversed: 1087.000000
Num Phases Traversed - Session Mean & Stddev: 10.870000,0.336303
Num Path Iterations: 1087.000000
Num Path Iterations - Session Mean & Stddev: 10.870000,0.336303
+ set +x
++ printf 'taskset -c 1-2 timeout 100 /home/bcurto/mem-access-simulator/accesstest/accesstest -v -s 100 -d 10 --sess-distr u %s fibre %s\n' '0/233472,0.001 0/233472,0.001' '-c 1,1'
+ taskset -c 1-2 timeout 100 /home/bcurto/mem-access-simulator/accesstest/accesstest -v -s 100 -d 10 --sess-distr u 0/233472,0.001 0/233472,0.001 fibre -c 1,1
[0.000s] Creating path with 2 phases.
  Phase 0:
    0 sess-local datalocs, 0.000000 update ratio, inf access count scalar /
    233472 sess-global datalocs, 0.001000 update ratio, inf access count scalar
  Phase 1:
    0 sess-local datalocs, 0.000000 update ratio, inf access count scalar /
    233472 sess-global datalocs, 0.001000 update ratio, inf access count scalar
[0.000s] Creating global buffer at 0x7f7900000000 of size 29884416 bytes.
[5.781s] Test is ready to start.
Test duration in range [10.000, 10.008] seconds
Num Accesses: 230706992.000000
Throughput: 23070699.200000
Num Accesses - Session Mean & Stddev: 2307069.920000,75881.443353
Num Phases Traversed: 1088.000000
Num Phases Traversed - Session Mean & Stddev: 10.880000,0.324962
Num Path Iterations: 1088.000000
Num Path Iterations - Session Mean & Stddev: 10.880000,0.324962
+ set +x
++ printf 'taskset -c 1-2 timeout 100 /home/bcurto/mem-access-simulator/accesstest/accesstest -v -s 100 -d 10 --sess-distr u %s fibre %s\n' '0/233472,0.001 0/233472,0.001' '-c 1,1'
+ taskset -c 1-2 timeout 100 /home/bcurto/mem-access-simulator/accesstest/accesstest -v -s 100 -d 10 --sess-distr u 0/233472,0.001 0/233472,0.001 fibre -c 1,1
[0.000s] Creating path with 2 phases.
  Phase 0:
    0 sess-local datalocs, 0.000000 update ratio, inf access count scalar /
    233472 sess-global datalocs, 0.001000 update ratio, inf access count scalar
  Phase 1:
    0 sess-local datalocs, 0.000000 update ratio, inf access count scalar /
    233472 sess-global datalocs, 0.001000 update ratio, inf access count scalar
[0.000s] Creating global buffer at 0x7fca40000000 of size 29884416 bytes.
[5.781s] Test is ready to start.
Test duration in range [10.000, 10.008] seconds
Num Accesses: 230706992.000000
Throughput: 23070699.200000
Num Accesses - Session Mean & Stddev: 2307069.920000,75881.443353
Num Phases Traversed: 1088.000000
Num Phases Traversed - Session Mean & Stddev: 10.880000,0.324962
Num Path Iterations: 1088.000000
Num Path Iterations - Session Mean & Stddev: 10.880000,0.324962
+ set +x
++ printf 'taskset -c 1-2 timeout 100 /home/bcurto/mem-access-simulator/accesstest/accesstest -v -s 100 -d 10 --sess-distr u %s fibre %s\n' '0/233472,0.001 0/233472,0.001' '-c 1,1'
+ taskset -c 1-2 timeout 100 /home/bcurto/mem-access-simulator/accesstest/accesstest -v -s 100 -d 10 --sess-distr u 0/233472,0.001 0/233472,0.001 fibre -c 1,1
[0.000s] Creating path with 2 phases.
  Phase 0:
    0 sess-local datalocs, 0.000000 update ratio, inf access count scalar /
    233472 sess-global datalocs, 0.001000 update ratio, inf access count scalar
  Phase 1:
    0 sess-local datalocs, 0.000000 update ratio, inf access count scalar /
    233472 sess-global datalocs, 0.001000 update ratio, inf access count scalar
[0.000s] Creating global buffer at 0x7f8d40000000 of size 29884416 bytes.
[5.797s] Test is ready to start.
Test duration in range [10.000, 10.015] seconds
Num Accesses: 230706992.000000
Throughput: 23070699.200000
Num Accesses - Session Mean & Stddev: 2307069.920000,75881.443353
Num Phases Traversed: 1088.000000
Num Phases Traversed - Session Mean & Stddev: 10.880000,0.324962
Num Path Iterations: 1088.000000
Num Path Iterations - Session Mean & Stddev: 10.880000,0.324962
+ set +x
++ printf 'taskset -c 1-2 timeout 100 /home/bcurto/mem-access-simulator/accesstest/accesstest -v -s 100 -d 10 --sess-distr u %s fibre %s\n' '0/233472,0.001 0/233472,0.001' '-c 1,1'
+ taskset -c 1-2 timeout 100 /home/bcurto/mem-access-simulator/accesstest/accesstest -v -s 100 -d 10 --sess-distr u 0/233472,0.001 0/233472,0.001 fibre -c 1,1
[0.000s] Creating path with 2 phases.
  Phase 0:
    0 sess-local datalocs, 0.000000 update ratio, inf access count scalar /
    233472 sess-global datalocs, 0.001000 update ratio, inf access count scalar
  Phase 1:
    0 sess-local datalocs, 0.000000 update ratio, inf access count scalar /
    233472 sess-global datalocs, 0.001000 update ratio, inf access count scalar
[0.000s] Creating global buffer at 0x7f9500000000 of size 29884416 bytes.
[5.781s] Test is ready to start.
Test duration in range [10.000, 10.008] seconds
Num Accesses: 230706992.000000
Throughput: 23070699.200000
Num Accesses - Session Mean & Stddev: 2307069.920000,75881.443353
Num Phases Traversed: 1088.000000
Num Phases Traversed - Session Mean & Stddev: 10.880000,0.324962
Num Path Iterations: 1088.000000
Num Path Iterations - Session Mean & Stddev: 10.880000,0.324962
+ set +x
++ printf 'taskset -c 1-2 timeout 100 /home/bcurto/mem-access-simulator/accesstest/accesstest -v -s 100 -d 10 --sess-distr u %s fibre %s\n' '0/233472,0.001 0/233472,0.001' '-c 1,1'
+ taskset -c 1-2 timeout 100 /home/bcurto/mem-access-simulator/accesstest/accesstest -v -s 100 -d 10 --sess-distr u 0/233472,0.001 0/233472,0.001 fibre -c 1,1
[0.000s] Creating path with 2 phases.
  Phase 0:
    0 sess-local datalocs, 0.000000 update ratio, inf access count scalar /
    233472 sess-global datalocs, 0.001000 update ratio, inf access count scalar
  Phase 1:
    0 sess-local datalocs, 0.000000 update ratio, inf access count scalar /
    233472 sess-global datalocs, 0.001000 update ratio, inf access count scalar
[0.000s] Creating global buffer at 0x7f9740000000 of size 29884416 bytes.
[5.785s] Test is ready to start.
Test duration in range [10.000, 10.008] seconds
Num Accesses: 230706992.000000
Throughput: 23070699.200000
Num Accesses - Session Mean & Stddev: 2307069.920000,75881.443353
Num Phases Traversed: 1088.000000
Num Phases Traversed - Session Mean & Stddev: 10.880000,0.324962
Num Path Iterations: 1088.000000
Num Path Iterations - Session Mean & Stddev: 10.880000,0.324962
+ set +x
++ printf 'taskset -c 1-2 timeout 100 /home/bcurto/mem-access-simulator/accesstest/accesstest -v -s 100 -d 10 --sess-distr u %s fibre %s\n' '0/233472,0.001 0/233472,0.001' '-c 1,1'
+ taskset -c 1-2 timeout 100 /home/bcurto/mem-access-simulator/accesstest/accesstest -v -s 100 -d 10 --sess-distr u 0/233472,0.001 0/233472,0.001 fibre -c 1,1
[0.000s] Creating path with 2 phases.
  Phase 0:
    0 sess-local datalocs, 0.000000 update ratio, inf access count scalar /
    233472 sess-global datalocs, 0.001000 update ratio, inf access count scalar
  Phase 1:
    0 sess-local datalocs, 0.000000 update ratio, inf access count scalar /
    233472 sess-global datalocs, 0.001000 update ratio, inf access count scalar
[0.000s] Creating global buffer at 0x7f8e00000000 of size 29884416 bytes.
[5.793s] Test is ready to start.
Test duration in range [10.000, 10.008] seconds
Num Accesses: 230706992.000000
Throughput: 23070699.200000
Num Accesses - Session Mean & Stddev: 2307069.920000,75881.443353
Num Phases Traversed: 1088.000000
Num Phases Traversed - Session Mean & Stddev: 10.880000,0.324962
Num Path Iterations: 1088.000000
Num Path Iterations - Session Mean & Stddev: 10.880000,0.324962
+ set +x
++ printf 'taskset -c 1-2 timeout 100 /home/bcurto/mem-access-simulator/accesstest/accesstest -v -s 100 -d 10 --sess-distr u %s fibre %s\n' '0/233472,0.001 0/233472,0.001' '-c 1,1'
+ taskset -c 1-2 timeout 100 /home/bcurto/mem-access-simulator/accesstest/accesstest -v -s 100 -d 10 --sess-distr u 0/233472,0.001 0/233472,0.001 fibre -c 1,1
[0.000s] Creating path with 2 phases.
  Phase 0:
    0 sess-local datalocs, 0.000000 update ratio, inf access count scalar /
    233472 sess-global datalocs, 0.001000 update ratio, inf access count scalar
  Phase 1:
    0 sess-local datalocs, 0.000000 update ratio, inf access count scalar /
    233472 sess-global datalocs, 0.001000 update ratio, inf access count scalar
[0.000s] Creating global buffer at 0x7f69c0000000 of size 29884416 bytes.
[5.789s] Test is ready to start.
Test duration in range [10.000, 10.007] seconds
Num Accesses: 230706992.000000
Throughput: 23070699.200000
Num Accesses - Session Mean & Stddev: 2307069.920000,75881.443353
Num Phases Traversed: 1088.000000
Num Phases Traversed - Session Mean & Stddev: 10.880000,0.324962
Num Path Iterations: 1088.000000
Num Path Iterations - Session Mean & Stddev: 10.880000,0.324962
+ set +x
++ printf 'taskset -c 1-2 timeout 100 /home/bcurto/mem-access-simulator/accesstest/accesstest -v -s 100 -d 10 --sess-distr u %s fibre %s\n' '0/233472,0.001 0/233472,0.001' '-c 1,1'
+ taskset -c 1-2 timeout 100 /home/bcurto/mem-access-simulator/accesstest/accesstest -v -s 100 -d 10 --sess-distr u 0/233472,0.001 0/233472,0.001 fibre -c 1,1
[0.000s] Creating path with 2 phases.
  Phase 0:
    0 sess-local datalocs, 0.000000 update ratio, inf access count scalar /
    233472 sess-global datalocs, 0.001000 update ratio, inf access count scalar
  Phase 1:
    0 sess-local datalocs, 0.000000 update ratio, inf access count scalar /
    233472 sess-global datalocs, 0.001000 update ratio, inf access count scalar
[0.000s] Creating global buffer at 0x7f5e00000000 of size 29884416 bytes.
[5.781s] Test is ready to start.
Test duration in range [10.000, 10.008] seconds
Num Accesses: 230706992.000000
Throughput: 23070699.200000
Num Accesses - Session Mean & Stddev: 2307069.920000,75881.443353
Num Phases Traversed: 1088.000000
Num Phases Traversed - Session Mean & Stddev: 10.880000,0.324962
Num Path Iterations: 1088.000000
Num Path Iterations - Session Mean & Stddev: 10.880000,0.324962
+ set +x
++ printf 'taskset -c 1-2 timeout 100 /home/bcurto/mem-access-simulator/accesstest/accesstest -v -s 100 -d 10 --sess-distr u %s fibre %s\n' '0/233472,0.001 0/233472,0.001' '-c 1,1'
+ taskset -c 1-2 timeout 100 /home/bcurto/mem-access-simulator/accesstest/accesstest -v -s 100 -d 10 --sess-distr u 0/233472,0.001 0/233472,0.001 fibre -c 1,1
[0.000s] Creating path with 2 phases.
  Phase 0:
    0 sess-local datalocs, 0.000000 update ratio, inf access count scalar /
    233472 sess-global datalocs, 0.001000 update ratio, inf access count scalar
  Phase 1:
    0 sess-local datalocs, 0.000000 update ratio, inf access count scalar /
    233472 sess-global datalocs, 0.001000 update ratio, inf access count scalar
[0.000s] Creating global buffer at 0x7f5940000000 of size 29884416 bytes.
[5.781s] Test is ready to start.
Test duration in range [10.000, 10.008] seconds
Num Accesses: 230706992.000000
Throughput: 23070699.200000
Num Accesses - Session Mean & Stddev: 2307069.920000,75881.443353
Num Phases Traversed: 1088.000000
Num Phases Traversed - Session Mean & Stddev: 10.880000,0.324962
Num Path Iterations: 1088.000000
Num Path Iterations - Session Mean & Stddev: 10.880000,0.324962
+ set +x
++ printf 'taskset -c 1-2 timeout 100 /home/bcurto/mem-access-simulator/accesstest/accesstest -v -s 100 -d 10 --sess-distr u %s fibre %s\n' '0/233472,0.001 0/233472,0.001' '-c 1,1'
+ taskset -c 1-2 timeout 100 /home/bcurto/mem-access-simulator/accesstest/accesstest -v -s 100 -d 10 --sess-distr u 0/233472,0.001 0/233472,0.001 fibre -c 1,1
[0.000s] Creating path with 2 phases.
  Phase 0:
    0 sess-local datalocs, 0.000000 update ratio, inf access count scalar /
    233472 sess-global datalocs, 0.001000 update ratio, inf access count scalar
  Phase 1:
    0 sess-local datalocs, 0.000000 update ratio, inf access count scalar /
    233472 sess-global datalocs, 0.001000 update ratio, inf access count scalar
[0.000s] Creating global buffer at 0x7ff680000000 of size 29884416 bytes.
[5.781s] Test is ready to start.
Test duration in range [10.000, 10.008] seconds
Num Accesses: 230706992.000000
Throughput: 23070699.200000
Num Accesses - Session Mean & Stddev: 2307069.920000,75881.443353
Num Phases Traversed: 1088.000000
Num Phases Traversed - Session Mean & Stddev: 10.880000,0.324962
Num Path Iterations: 1088.000000
Num Path Iterations - Session Mean & Stddev: 10.880000,0.324962
+ set +x
++ printf 'taskset -c 1-2 timeout 100 /home/bcurto/mem-access-simulator/accesstest/accesstest -v -s 100 -d 10 --sess-distr u %s fibre %s\n' '0/233472,0.001 0/233472,0.001' '-c 1,1'
+ taskset -c 1-2 timeout 100 /home/bcurto/mem-access-simulator/accesstest/accesstest -v -s 100 -d 10 --sess-distr u 0/233472,0.001 0/233472,0.001 fibre -c 1,1
[0.000s] Creating path with 2 phases.
  Phase 0:
    0 sess-local datalocs, 0.000000 update ratio, inf access count scalar /
    233472 sess-global datalocs, 0.001000 update ratio, inf access count scalar
  Phase 1:
    0 sess-local datalocs, 0.000000 update ratio, inf access count scalar /
    233472 sess-global datalocs, 0.001000 update ratio, inf access count scalar
[0.000s] Creating global buffer at 0x7f0900000000 of size 29884416 bytes.
[5.781s] Test is ready to start.
Test duration in range [10.000, 10.008] seconds
Num Accesses: 230706992.000000
Throughput: 23070699.200000
Num Accesses - Session Mean & Stddev: 2307069.920000,75881.443353
Num Phases Traversed: 1088.000000
Num Phases Traversed - Session Mean & Stddev: 10.880000,0.324962
Num Path Iterations: 1088.000000
Num Path Iterations - Session Mean & Stddev: 10.880000,0.324962
+ set +x
++ printf 'taskset -c 1-2 timeout 100 /home/bcurto/mem-access-simulator/accesstest/accesstest -v -s 100 -d 10 --sess-distr u %s fibre %s\n' '0/233472,0.001 0/233472,0.001' '-c 1,1'
+ taskset -c 1-2 timeout 100 /home/bcurto/mem-access-simulator/accesstest/accesstest -v -s 100 -d 10 --sess-distr u 0/233472,0.001 0/233472,0.001 fibre -c 1,1
[0.000s] Creating path with 2 phases.
  Phase 0:
    0 sess-local datalocs, 0.000000 update ratio, inf access count scalar /
    233472 sess-global datalocs, 0.001000 update ratio, inf access count scalar
  Phase 1:
    0 sess-local datalocs, 0.000000 update ratio, inf access count scalar /
    233472 sess-global datalocs, 0.001000 update ratio, inf access count scalar
[0.000s] Creating global buffer at 0x7fee40000000 of size 29884416 bytes.
[5.780s] Test is ready to start.
Test duration in range [10.000, 10.007] seconds
Num Accesses: 230706992.000000
Throughput: 23070699.200000
Num Accesses - Session Mean & Stddev: 2307069.920000,75881.443353
Num Phases Traversed: 1088.000000
Num Phases Traversed - Session Mean & Stddev: 10.880000,0.324962
Num Path Iterations: 1088.000000
Num Path Iterations - Session Mean & Stddev: 10.880000,0.324962
+ set +x
++ printf 'taskset -c 1-2 timeout 100 /home/bcurto/mem-access-simulator/accesstest/accesstest -v -s 100 -d 10 --sess-distr u %s fibre %s\n' '0/233472,0.001 0/233472,0.001' '-c 1,1'
+ taskset -c 1-2 timeout 100 /home/bcurto/mem-access-simulator/accesstest/accesstest -v -s 100 -d 10 --sess-distr u 0/233472,0.001 0/233472,0.001 fibre -c 1,1
[0.000s] Creating path with 2 phases.
  Phase 0:
    0 sess-local datalocs, 0.000000 update ratio, inf access count scalar /
    233472 sess-global datalocs, 0.001000 update ratio, inf access count scalar
  Phase 1:
    0 sess-local datalocs, 0.000000 update ratio, inf access count scalar /
    233472 sess-global datalocs, 0.001000 update ratio, inf access count scalar
[0.000s] Creating global buffer at 0x7fbac0000000 of size 29884416 bytes.
[5.786s] Test is ready to start.
Test duration in range [10.000, 10.008] seconds
Num Accesses: 230706992.000000
Throughput: 23070699.200000
Num Accesses - Session Mean & Stddev: 2307069.920000,75881.443353
Num Phases Traversed: 1088.000000
Num Phases Traversed - Session Mean & Stddev: 10.880000,0.324962
Num Path Iterations: 1088.000000
Num Path Iterations - Session Mean & Stddev: 10.880000,0.324962
+ set +x
++ printf 'taskset -c 1-2 timeout 100 /home/bcurto/mem-access-simulator/accesstest/accesstest -v -s 100 -d 10 --sess-distr u %s fibre %s\n' '0/233472,0.001 0/233472,0.001' '-c 1,1'
+ taskset -c 1-2 timeout 100 /home/bcurto/mem-access-simulator/accesstest/accesstest -v -s 100 -d 10 --sess-distr u 0/233472,0.001 0/233472,0.001 fibre -c 1,1
[0.000s] Creating path with 2 phases.
  Phase 0:
    0 sess-local datalocs, 0.000000 update ratio, inf access count scalar /
    233472 sess-global datalocs, 0.001000 update ratio, inf access count scalar
  Phase 1:
    0 sess-local datalocs, 0.000000 update ratio, inf access count scalar /
    233472 sess-global datalocs, 0.001000 update ratio, inf access count scalar
[0.000s] Creating global buffer at 0x7f0a40000000 of size 29884416 bytes.
[5.781s] Test is ready to start.
Test duration in range [10.000, 10.008] seconds
Num Accesses: 230706992.000000
Throughput: 23070699.200000
Num Accesses - Session Mean & Stddev: 2307069.920000,75881.443353
Num Phases Traversed: 1088.000000
Num Phases Traversed - Session Mean & Stddev: 10.880000,0.324962
Num Path Iterations: 1088.000000
Num Path Iterations - Session Mean & Stddev: 10.880000,0.324962
+ set +x
++ printf 'taskset -c 1-2 timeout 100 /home/bcurto/mem-access-simulator/accesstest/accesstest -v -s 100 -d 10 --sess-distr u %s fibre %s\n' '0/233472,0.001 0/233472,0.001' '-c 1,1'
+ taskset -c 1-2 timeout 100 /home/bcurto/mem-access-simulator/accesstest/accesstest -v -s 100 -d 10 --sess-distr u 0/233472,0.001 0/233472,0.001 fibre -c 1,1
[0.000s] Creating path with 2 phases.
  Phase 0:
    0 sess-local datalocs, 0.000000 update ratio, inf access count scalar /
    233472 sess-global datalocs, 0.001000 update ratio, inf access count scalar
  Phase 1:
    0 sess-local datalocs, 0.000000 update ratio, inf access count scalar /
    233472 sess-global datalocs, 0.001000 update ratio, inf access count scalar
[0.000s] Creating global buffer at 0x7f80c0000000 of size 29884416 bytes.
[5.781s] Test is ready to start.
Test duration in range [10.000, 10.008] seconds
Num Accesses: 230706992.000000
Throughput: 23070699.200000
Num Accesses - Session Mean & Stddev: 2307069.920000,75881.443353
Num Phases Traversed: 1088.000000
Num Phases Traversed - Session Mean & Stddev: 10.880000,0.324962
Num Path Iterations: 1088.000000
Num Path Iterations - Session Mean & Stddev: 10.880000,0.324962
+ set +x
++ printf 'taskset -c 1-2 timeout 100 /home/bcurto/mem-access-simulator/accesstest/accesstest -v -s 100 -d 10 --sess-distr u %s fibre %s\n' '0/233472,0.001 0/233472,0.001' '-c 1,1'
+ taskset -c 1-2 timeout 100 /home/bcurto/mem-access-simulator/accesstest/accesstest -v -s 100 -d 10 --sess-distr u 0/233472,0.001 0/233472,0.001 fibre -c 1,1
[0.000s] Creating path with 2 phases.
  Phase 0:
    0 sess-local datalocs, 0.000000 update ratio, inf access count scalar /
    233472 sess-global datalocs, 0.001000 update ratio, inf access count scalar
  Phase 1:
    0 sess-local datalocs, 0.000000 update ratio, inf access count scalar /
    233472 sess-global datalocs, 0.001000 update ratio, inf access count scalar
[0.000s] Creating global buffer at 0x7f7840000000 of size 29884416 bytes.
[5.780s] Test is ready to start.
Test duration in range [10.000, 10.008] seconds
Num Accesses: 230706992.000000
Throughput: 23070699.200000
Num Accesses - Session Mean & Stddev: 2307069.920000,75881.443353
Num Phases Traversed: 1088.000000
Num Phases Traversed - Session Mean & Stddev: 10.880000,0.324962
Num Path Iterations: 1088.000000
Num Path Iterations - Session Mean & Stddev: 10.880000,0.324962
+ set +x
++ printf 'taskset -c 1-2 timeout 100 /home/bcurto/mem-access-simulator/accesstest/accesstest -v -s 100 -d 10 --sess-distr u %s fibre %s\n' '0/233472,0.001 0/233472,0.001' '-c 1,1'
+ taskset -c 1-2 timeout 100 /home/bcurto/mem-access-simulator/accesstest/accesstest -v -s 100 -d 10 --sess-distr u 0/233472,0.001 0/233472,0.001 fibre -c 1,1
[0.000s] Creating path with 2 phases.
  Phase 0:
    0 sess-local datalocs, 0.000000 update ratio, inf access count scalar /
    233472 sess-global datalocs, 0.001000 update ratio, inf access count scalar
  Phase 1:
    0 sess-local datalocs, 0.000000 update ratio, inf access count scalar /
    233472 sess-global datalocs, 0.001000 update ratio, inf access count scalar
[0.000s] Creating global buffer at 0x7fd980000000 of size 29884416 bytes.
[5.744s] Test is ready to start.
Test duration in range [10.000, 10.013] seconds
Num Accesses: 230706992.000000
Throughput: 23070699.200000
Num Accesses - Session Mean & Stddev: 2307069.920000,75881.443353
Num Phases Traversed: 1088.000000
Num Phases Traversed - Session Mean & Stddev: 10.880000,0.324962
Num Path Iterations: 1088.000000
Num Path Iterations - Session Mean & Stddev: 10.880000,0.324962
+ set +x
