++ printf 'taskset -c 1-2 timeout 100 /home/bcurto/mem-access-simulator/accesstest/accesstest -v -s 100 -d 10 --sess-distr u %s fibre %s\n' '0/221184,1 0/221184,1' '-c 1,1'
+ taskset -c 1-2 timeout 100 /home/bcurto/mem-access-simulator/accesstest/accesstest -v -s 100 -d 10 --sess-distr u 0/221184,1 0/221184,1 fibre -c 1,1
[0.000s] Creating path with 2 phases.
  Phase 0:
    0 sess-local datalocs, 0.000000 update ratio, inf access count scalar /
    221184 sess-global datalocs, 1.000000 update ratio, inf access count scalar
  Phase 1:
    0 sess-local datalocs, 0.000000 update ratio, inf access count scalar /
    221184 sess-global datalocs, 1.000000 update ratio, inf access count scalar
[0.000s] Creating global buffer at 0x7fb000000000 of size 28311552 bytes.
[5.586s] Test is ready to start.
Test duration in range [10.000, 10.009] seconds
Num Accesses: 229627498.000000
Throughput: 22962749.800000
Num Accesses - Session Mean & Stddev: 2296274.980000,107377.674524
Num Phases Traversed: 1138.000000
Num Phases Traversed - Session Mean & Stddev: 11.380000,0.485386
Num Path Iterations: 1138.000000
Num Path Iterations - Session Mean & Stddev: 11.380000,0.485386
+ set +x
++ printf 'taskset -c 1-2 timeout 100 /home/bcurto/mem-access-simulator/accesstest/accesstest -v -s 100 -d 10 --sess-distr u %s fibre %s\n' '0/221184,1 0/221184,1' '-c 1,1'
+ taskset -c 1-2 timeout 100 /home/bcurto/mem-access-simulator/accesstest/accesstest -v -s 100 -d 10 --sess-distr u 0/221184,1 0/221184,1 fibre -c 1,1
[0.000s] Creating path with 2 phases.
  Phase 0:
    0 sess-local datalocs, 0.000000 update ratio, inf access count scalar /
    221184 sess-global datalocs, 1.000000 update ratio, inf access count scalar
  Phase 1:
    0 sess-local datalocs, 0.000000 update ratio, inf access count scalar /
    221184 sess-global datalocs, 1.000000 update ratio, inf access count scalar
[0.000s] Creating global buffer at 0x7fcf00000000 of size 28311552 bytes.
[5.556s] Test is ready to start.
Test duration in range [10.000, 10.008] seconds
Num Accesses: 229627498.000000
Throughput: 22962749.800000
Num Accesses - Session Mean & Stddev: 2296274.980000,107377.674524
Num Phases Traversed: 1138.000000
Num Phases Traversed - Session Mean & Stddev: 11.380000,0.485386
Num Path Iterations: 1138.000000
Num Path Iterations - Session Mean & Stddev: 11.380000,0.485386
+ set +x
++ printf 'taskset -c 1-2 timeout 100 /home/bcurto/mem-access-simulator/accesstest/accesstest -v -s 100 -d 10 --sess-distr u %s fibre %s\n' '0/221184,1 0/221184,1' '-c 1,1'
+ taskset -c 1-2 timeout 100 /home/bcurto/mem-access-simulator/accesstest/accesstest -v -s 100 -d 10 --sess-distr u 0/221184,1 0/221184,1 fibre -c 1,1
[0.000s] Creating path with 2 phases.
  Phase 0:
    0 sess-local datalocs, 0.000000 update ratio, inf access count scalar /
    221184 sess-global datalocs, 1.000000 update ratio, inf access count scalar
  Phase 1:
    0 sess-local datalocs, 0.000000 update ratio, inf access count scalar /
    221184 sess-global datalocs, 1.000000 update ratio, inf access count scalar
[0.000s] Creating global buffer at 0x7fd600000000 of size 28311552 bytes.
[5.589s] Test is ready to start.
Test duration in range [10.000, 10.008] seconds
Num Accesses: 229627498.000000
Throughput: 22962749.800000
Num Accesses - Session Mean & Stddev: 2296274.980000,107377.674524
Num Phases Traversed: 1138.000000
Num Phases Traversed - Session Mean & Stddev: 11.380000,0.485386
Num Path Iterations: 1138.000000
Num Path Iterations - Session Mean & Stddev: 11.380000,0.485386
+ set +x
++ printf 'taskset -c 1-2 timeout 100 /home/bcurto/mem-access-simulator/accesstest/accesstest -v -s 100 -d 10 --sess-distr u %s fibre %s\n' '0/221184,1 0/221184,1' '-c 1,1'
+ taskset -c 1-2 timeout 100 /home/bcurto/mem-access-simulator/accesstest/accesstest -v -s 100 -d 10 --sess-distr u 0/221184,1 0/221184,1 fibre -c 1,1
[0.000s] Creating path with 2 phases.
  Phase 0:
    0 sess-local datalocs, 0.000000 update ratio, inf access count scalar /
    221184 sess-global datalocs, 1.000000 update ratio, inf access count scalar
  Phase 1:
    0 sess-local datalocs, 0.000000 update ratio, inf access count scalar /
    221184 sess-global datalocs, 1.000000 update ratio, inf access count scalar
[0.000s] Creating global buffer at 0x7f0140000000 of size 28311552 bytes.
[5.588s] Test is ready to start.
Test duration in range [10.000, 10.007] seconds
Num Accesses: 229627498.000000
Throughput: 22962749.800000
Num Accesses - Session Mean & Stddev: 2296274.980000,107377.674524
Num Phases Traversed: 1138.000000
Num Phases Traversed - Session Mean & Stddev: 11.380000,0.485386
Num Path Iterations: 1138.000000
Num Path Iterations - Session Mean & Stddev: 11.380000,0.485386
+ set +x
++ printf 'taskset -c 1-2 timeout 100 /home/bcurto/mem-access-simulator/accesstest/accesstest -v -s 100 -d 10 --sess-distr u %s fibre %s\n' '0/221184,1 0/221184,1' '-c 1,1'
+ taskset -c 1-2 timeout 100 /home/bcurto/mem-access-simulator/accesstest/accesstest -v -s 100 -d 10 --sess-distr u 0/221184,1 0/221184,1 fibre -c 1,1
[0.000s] Creating path with 2 phases.
  Phase 0:
    0 sess-local datalocs, 0.000000 update ratio, inf access count scalar /
    221184 sess-global datalocs, 1.000000 update ratio, inf access count scalar
  Phase 1:
    0 sess-local datalocs, 0.000000 update ratio, inf access count scalar /
    221184 sess-global datalocs, 1.000000 update ratio, inf access count scalar
[0.000s] Creating global buffer at 0x7f3980000000 of size 28311552 bytes.
[5.590s] Test is ready to start.
Test duration in range [10.000, 10.008] seconds
Num Accesses: 229627498.000000
Throughput: 22962749.800000
Num Accesses - Session Mean & Stddev: 2296274.980000,107377.674524
Num Phases Traversed: 1138.000000
Num Phases Traversed - Session Mean & Stddev: 11.380000,0.485386
Num Path Iterations: 1138.000000
Num Path Iterations - Session Mean & Stddev: 11.380000,0.485386
+ set +x
++ printf 'taskset -c 1-2 timeout 100 /home/bcurto/mem-access-simulator/accesstest/accesstest -v -s 100 -d 10 --sess-distr u %s fibre %s\n' '0/221184,1 0/221184,1' '-c 1,1'
+ taskset -c 1-2 timeout 100 /home/bcurto/mem-access-simulator/accesstest/accesstest -v -s 100 -d 10 --sess-distr u 0/221184,1 0/221184,1 fibre -c 1,1
[0.000s] Creating path with 2 phases.
  Phase 0:
    0 sess-local datalocs, 0.000000 update ratio, inf access count scalar /
    221184 sess-global datalocs, 1.000000 update ratio, inf access count scalar
  Phase 1:
    0 sess-local datalocs, 0.000000 update ratio, inf access count scalar /
    221184 sess-global datalocs, 1.000000 update ratio, inf access count scalar
[0.000s] Creating global buffer at 0x7fbf40000000 of size 28311552 bytes.
[5.589s] Test is ready to start.
Test duration in range [10.000, 10.010] seconds
Num Accesses: 229627498.000000
Throughput: 22962749.800000
Num Accesses - Session Mean & Stddev: 2296274.980000,107377.674524
Num Phases Traversed: 1138.000000
Num Phases Traversed - Session Mean & Stddev: 11.380000,0.485386
Num Path Iterations: 1138.000000
Num Path Iterations - Session Mean & Stddev: 11.380000,0.485386
+ set +x
++ printf 'taskset -c 1-2 timeout 100 /home/bcurto/mem-access-simulator/accesstest/accesstest -v -s 100 -d 10 --sess-distr u %s fibre %s\n' '0/221184,1 0/221184,1' '-c 1,1'
+ taskset -c 1-2 timeout 100 /home/bcurto/mem-access-simulator/accesstest/accesstest -v -s 100 -d 10 --sess-distr u 0/221184,1 0/221184,1 fibre -c 1,1
[0.000s] Creating path with 2 phases.
  Phase 0:
    0 sess-local datalocs, 0.000000 update ratio, inf access count scalar /
    221184 sess-global datalocs, 1.000000 update ratio, inf access count scalar
  Phase 1:
    0 sess-local datalocs, 0.000000 update ratio, inf access count scalar /
    221184 sess-global datalocs, 1.000000 update ratio, inf access count scalar
[0.000s] Creating global buffer at 0x7f0a80000000 of size 28311552 bytes.
[5.587s] Test is ready to start.
Test duration in range [10.000, 10.009] seconds
Num Accesses: 229627498.000000
Throughput: 22962749.800000
Num Accesses - Session Mean & Stddev: 2296274.980000,107377.674524
Num Phases Traversed: 1138.000000
Num Phases Traversed - Session Mean & Stddev: 11.380000,0.485386
Num Path Iterations: 1138.000000
Num Path Iterations - Session Mean & Stddev: 11.380000,0.485386
+ set +x
++ printf 'taskset -c 1-2 timeout 100 /home/bcurto/mem-access-simulator/accesstest/accesstest -v -s 100 -d 10 --sess-distr u %s fibre %s\n' '0/221184,1 0/221184,1' '-c 1,1'
+ taskset -c 1-2 timeout 100 /home/bcurto/mem-access-simulator/accesstest/accesstest -v -s 100 -d 10 --sess-distr u 0/221184,1 0/221184,1 fibre -c 1,1
[0.000s] Creating path with 2 phases.
  Phase 0:
    0 sess-local datalocs, 0.000000 update ratio, inf access count scalar /
    221184 sess-global datalocs, 1.000000 update ratio, inf access count scalar
  Phase 1:
    0 sess-local datalocs, 0.000000 update ratio, inf access count scalar /
    221184 sess-global datalocs, 1.000000 update ratio, inf access count scalar
[0.000s] Creating global buffer at 0x7f9340000000 of size 28311552 bytes.
[5.595s] Test is ready to start.
Test duration in range [10.000, 10.009] seconds
Num Accesses: 229627498.000000
Throughput: 22962749.800000
Num Accesses - Session Mean & Stddev: 2296274.980000,107377.674524
Num Phases Traversed: 1138.000000
Num Phases Traversed - Session Mean & Stddev: 11.380000,0.485386
Num Path Iterations: 1138.000000
Num Path Iterations - Session Mean & Stddev: 11.380000,0.485386
+ set +x
++ printf 'taskset -c 1-2 timeout 100 /home/bcurto/mem-access-simulator/accesstest/accesstest -v -s 100 -d 10 --sess-distr u %s fibre %s\n' '0/221184,1 0/221184,1' '-c 1,1'
+ taskset -c 1-2 timeout 100 /home/bcurto/mem-access-simulator/accesstest/accesstest -v -s 100 -d 10 --sess-distr u 0/221184,1 0/221184,1 fibre -c 1,1
[0.000s] Creating path with 2 phases.
  Phase 0:
    0 sess-local datalocs, 0.000000 update ratio, inf access count scalar /
    221184 sess-global datalocs, 1.000000 update ratio, inf access count scalar
  Phase 1:
    0 sess-local datalocs, 0.000000 update ratio, inf access count scalar /
    221184 sess-global datalocs, 1.000000 update ratio, inf access count scalar
[0.000s] Creating global buffer at 0x7f7540000000 of size 28311552 bytes.
[5.588s] Test is ready to start.
Test duration in range [10.000, 10.007] seconds
Num Accesses: 229627498.000000
Throughput: 22962749.800000
Num Accesses - Session Mean & Stddev: 2296274.980000,107377.674524
Num Phases Traversed: 1138.000000
Num Phases Traversed - Session Mean & Stddev: 11.380000,0.485386
Num Path Iterations: 1138.000000
Num Path Iterations - Session Mean & Stddev: 11.380000,0.485386
+ set +x
++ printf 'taskset -c 1-2 timeout 100 /home/bcurto/mem-access-simulator/accesstest/accesstest -v -s 100 -d 10 --sess-distr u %s fibre %s\n' '0/221184,1 0/221184,1' '-c 1,1'
+ taskset -c 1-2 timeout 100 /home/bcurto/mem-access-simulator/accesstest/accesstest -v -s 100 -d 10 --sess-distr u 0/221184,1 0/221184,1 fibre -c 1,1
[0.000s] Creating path with 2 phases.
  Phase 0:
    0 sess-local datalocs, 0.000000 update ratio, inf access count scalar /
    221184 sess-global datalocs, 1.000000 update ratio, inf access count scalar
  Phase 1:
    0 sess-local datalocs, 0.000000 update ratio, inf access count scalar /
    221184 sess-global datalocs, 1.000000 update ratio, inf access count scalar
[0.000s] Creating global buffer at 0x7ff780000000 of size 28311552 bytes.
[5.590s] Test is ready to start.
Test duration in range [10.000, 10.009] seconds
Num Accesses: 229627498.000000
Throughput: 22962749.800000
Num Accesses - Session Mean & Stddev: 2296274.980000,107377.674524
Num Phases Traversed: 1138.000000
Num Phases Traversed - Session Mean & Stddev: 11.380000,0.485386
Num Path Iterations: 1138.000000
Num Path Iterations - Session Mean & Stddev: 11.380000,0.485386
+ set +x
++ printf 'taskset -c 1-2 timeout 100 /home/bcurto/mem-access-simulator/accesstest/accesstest -v -s 100 -d 10 --sess-distr u %s fibre %s\n' '0/221184,1 0/221184,1' '-c 1,1'
+ taskset -c 1-2 timeout 100 /home/bcurto/mem-access-simulator/accesstest/accesstest -v -s 100 -d 10 --sess-distr u 0/221184,1 0/221184,1 fibre -c 1,1
[0.000s] Creating path with 2 phases.
  Phase 0:
    0 sess-local datalocs, 0.000000 update ratio, inf access count scalar /
    221184 sess-global datalocs, 1.000000 update ratio, inf access count scalar
  Phase 1:
    0 sess-local datalocs, 0.000000 update ratio, inf access count scalar /
    221184 sess-global datalocs, 1.000000 update ratio, inf access count scalar
[0.000s] Creating global buffer at 0x7fee00000000 of size 28311552 bytes.
[5.588s] Test is ready to start.
Test duration in range [10.000, 10.009] seconds
Num Accesses: 229627498.000000
Throughput: 22962749.800000
Num Accesses - Session Mean & Stddev: 2296274.980000,107377.674524
Num Phases Traversed: 1138.000000
Num Phases Traversed - Session Mean & Stddev: 11.380000,0.485386
Num Path Iterations: 1138.000000
Num Path Iterations - Session Mean & Stddev: 11.380000,0.485386
+ set +x
++ printf 'taskset -c 1-2 timeout 100 /home/bcurto/mem-access-simulator/accesstest/accesstest -v -s 100 -d 10 --sess-distr u %s fibre %s\n' '0/221184,1 0/221184,1' '-c 1,1'
+ taskset -c 1-2 timeout 100 /home/bcurto/mem-access-simulator/accesstest/accesstest -v -s 100 -d 10 --sess-distr u 0/221184,1 0/221184,1 fibre -c 1,1
[0.000s] Creating path with 2 phases.
  Phase 0:
    0 sess-local datalocs, 0.000000 update ratio, inf access count scalar /
    221184 sess-global datalocs, 1.000000 update ratio, inf access count scalar
  Phase 1:
    0 sess-local datalocs, 0.000000 update ratio, inf access count scalar /
    221184 sess-global datalocs, 1.000000 update ratio, inf access count scalar
[0.000s] Creating global buffer at 0x7fbbc0000000 of size 28311552 bytes.
[5.587s] Test is ready to start.
Test duration in range [10.000, 10.009] seconds
Num Accesses: 229627498.000000
Throughput: 22962749.800000
Num Accesses - Session Mean & Stddev: 2296274.980000,107377.674524
Num Phases Traversed: 1138.000000
Num Phases Traversed - Session Mean & Stddev: 11.380000,0.485386
Num Path Iterations: 1138.000000
Num Path Iterations - Session Mean & Stddev: 11.380000,0.485386
+ set +x
++ printf 'taskset -c 1-2 timeout 100 /home/bcurto/mem-access-simulator/accesstest/accesstest -v -s 100 -d 10 --sess-distr u %s fibre %s\n' '0/221184,1 0/221184,1' '-c 1,1'
+ taskset -c 1-2 timeout 100 /home/bcurto/mem-access-simulator/accesstest/accesstest -v -s 100 -d 10 --sess-distr u 0/221184,1 0/221184,1 fibre -c 1,1
[0.000s] Creating path with 2 phases.
  Phase 0:
    0 sess-local datalocs, 0.000000 update ratio, inf access count scalar /
    221184 sess-global datalocs, 1.000000 update ratio, inf access count scalar
  Phase 1:
    0 sess-local datalocs, 0.000000 update ratio, inf access count scalar /
    221184 sess-global datalocs, 1.000000 update ratio, inf access count scalar
[0.000s] Creating global buffer at 0x7f8c40000000 of size 28311552 bytes.
[5.524s] Test is ready to start.
Test duration in range [10.000, 10.005] seconds
Num Accesses: 228742614.000000
Throughput: 22874261.400000
Num Accesses - Session Mean & Stddev: 2287426.140000,104794.328094
Num Phases Traversed: 1134.000000
Num Phases Traversed - Session Mean & Stddev: 11.340000,0.473709
Num Path Iterations: 1134.000000
Num Path Iterations - Session Mean & Stddev: 11.340000,0.473709
+ set +x
++ printf 'taskset -c 1-2 timeout 100 /home/bcurto/mem-access-simulator/accesstest/accesstest -v -s 100 -d 10 --sess-distr u %s fibre %s\n' '0/221184,1 0/221184,1' '-c 1,1'
+ taskset -c 1-2 timeout 100 /home/bcurto/mem-access-simulator/accesstest/accesstest -v -s 100 -d 10 --sess-distr u 0/221184,1 0/221184,1 fibre -c 1,1
[0.000s] Creating path with 2 phases.
  Phase 0:
    0 sess-local datalocs, 0.000000 update ratio, inf access count scalar /
    221184 sess-global datalocs, 1.000000 update ratio, inf access count scalar
  Phase 1:
    0 sess-local datalocs, 0.000000 update ratio, inf access count scalar /
    221184 sess-global datalocs, 1.000000 update ratio, inf access count scalar
[0.000s] Creating global buffer at 0x7fcec0000000 of size 28311552 bytes.
[5.588s] Test is ready to start.
Test duration in range [10.000, 10.009] seconds
Num Accesses: 229627498.000000
Throughput: 22962749.800000
Num Accesses - Session Mean & Stddev: 2296274.980000,107377.674524
Num Phases Traversed: 1138.000000
Num Phases Traversed - Session Mean & Stddev: 11.380000,0.485386
Num Path Iterations: 1138.000000
Num Path Iterations - Session Mean & Stddev: 11.380000,0.485386
+ set +x
++ printf 'taskset -c 1-2 timeout 100 /home/bcurto/mem-access-simulator/accesstest/accesstest -v -s 100 -d 10 --sess-distr u %s fibre %s\n' '0/221184,1 0/221184,1' '-c 1,1'
+ taskset -c 1-2 timeout 100 /home/bcurto/mem-access-simulator/accesstest/accesstest -v -s 100 -d 10 --sess-distr u 0/221184,1 0/221184,1 fibre -c 1,1
[0.000s] Creating path with 2 phases.
  Phase 0:
    0 sess-local datalocs, 0.000000 update ratio, inf access count scalar /
    221184 sess-global datalocs, 1.000000 update ratio, inf access count scalar
  Phase 1:
    0 sess-local datalocs, 0.000000 update ratio, inf access count scalar /
    221184 sess-global datalocs, 1.000000 update ratio, inf access count scalar
[0.000s] Creating global buffer at 0x7fb300000000 of size 28311552 bytes.
[5.588s] Test is ready to start.
Test duration in range [10.000, 10.008] seconds
Num Accesses: 229627498.000000
Throughput: 22962749.800000
Num Accesses - Session Mean & Stddev: 2296274.980000,107377.674524
Num Phases Traversed: 1138.000000
Num Phases Traversed - Session Mean & Stddev: 11.380000,0.485386
Num Path Iterations: 1138.000000
Num Path Iterations - Session Mean & Stddev: 11.380000,0.485386
+ set +x
++ printf 'taskset -c 1-2 timeout 100 /home/bcurto/mem-access-simulator/accesstest/accesstest -v -s 100 -d 10 --sess-distr u %s fibre %s\n' '0/221184,1 0/221184,1' '-c 1,1'
+ taskset -c 1-2 timeout 100 /home/bcurto/mem-access-simulator/accesstest/accesstest -v -s 100 -d 10 --sess-distr u 0/221184,1 0/221184,1 fibre -c 1,1
[0.000s] Creating path with 2 phases.
  Phase 0:
    0 sess-local datalocs, 0.000000 update ratio, inf access count scalar /
    221184 sess-global datalocs, 1.000000 update ratio, inf access count scalar
  Phase 1:
    0 sess-local datalocs, 0.000000 update ratio, inf access count scalar /
    221184 sess-global datalocs, 1.000000 update ratio, inf access count scalar
[0.000s] Creating global buffer at 0x7ff380000000 of size 28311552 bytes.
[5.555s] Test is ready to start.
Test duration in range [10.000, 10.006] seconds
Num Accesses: 229185056.000000
Throughput: 22918505.600000
Num Accesses - Session Mean & Stddev: 2291850.560000,106186.080000
Num Phases Traversed: 1136.000000
Num Phases Traversed - Session Mean & Stddev: 11.360000,0.480000
Num Path Iterations: 1136.000000
Num Path Iterations - Session Mean & Stddev: 11.360000,0.480000
+ set +x
++ printf 'taskset -c 1-2 timeout 100 /home/bcurto/mem-access-simulator/accesstest/accesstest -v -s 100 -d 10 --sess-distr u %s fibre %s\n' '0/221184,1 0/221184,1' '-c 1,1'
+ taskset -c 1-2 timeout 100 /home/bcurto/mem-access-simulator/accesstest/accesstest -v -s 100 -d 10 --sess-distr u 0/221184,1 0/221184,1 fibre -c 1,1
[0.000s] Creating path with 2 phases.
  Phase 0:
    0 sess-local datalocs, 0.000000 update ratio, inf access count scalar /
    221184 sess-global datalocs, 1.000000 update ratio, inf access count scalar
  Phase 1:
    0 sess-local datalocs, 0.000000 update ratio, inf access count scalar /
    221184 sess-global datalocs, 1.000000 update ratio, inf access count scalar
[0.000s] Creating global buffer at 0x7f6f40000000 of size 28311552 bytes.
[5.591s] Test is ready to start.
Test duration in range [10.000, 10.009] seconds
Num Accesses: 229627498.000000
Throughput: 22962749.800000
Num Accesses - Session Mean & Stddev: 2296274.980000,107377.674524
Num Phases Traversed: 1138.000000
Num Phases Traversed - Session Mean & Stddev: 11.380000,0.485386
Num Path Iterations: 1138.000000
Num Path Iterations - Session Mean & Stddev: 11.380000,0.485386
+ set +x
++ printf 'taskset -c 1-2 timeout 100 /home/bcurto/mem-access-simulator/accesstest/accesstest -v -s 100 -d 10 --sess-distr u %s fibre %s\n' '0/221184,1 0/221184,1' '-c 1,1'
+ taskset -c 1-2 timeout 100 /home/bcurto/mem-access-simulator/accesstest/accesstest -v -s 100 -d 10 --sess-distr u 0/221184,1 0/221184,1 fibre -c 1,1
[0.000s] Creating path with 2 phases.
  Phase 0:
    0 sess-local datalocs, 0.000000 update ratio, inf access count scalar /
    221184 sess-global datalocs, 1.000000 update ratio, inf access count scalar
  Phase 1:
    0 sess-local datalocs, 0.000000 update ratio, inf access count scalar /
    221184 sess-global datalocs, 1.000000 update ratio, inf access count scalar
[0.000s] Creating global buffer at 0x7ff340000000 of size 28311552 bytes.
[5.580s] Test is ready to start.
Test duration in range [10.000, 10.008] seconds
Num Accesses: 229627498.000000
Throughput: 22962749.800000
Num Accesses - Session Mean & Stddev: 2296274.980000,107377.674524
Num Phases Traversed: 1138.000000
Num Phases Traversed - Session Mean & Stddev: 11.380000,0.485386
Num Path Iterations: 1138.000000
Num Path Iterations - Session Mean & Stddev: 11.380000,0.485386
+ set +x
++ printf 'taskset -c 1-2 timeout 100 /home/bcurto/mem-access-simulator/accesstest/accesstest -v -s 100 -d 10 --sess-distr u %s fibre %s\n' '0/221184,1 0/221184,1' '-c 1,1'
+ taskset -c 1-2 timeout 100 /home/bcurto/mem-access-simulator/accesstest/accesstest -v -s 100 -d 10 --sess-distr u 0/221184,1 0/221184,1 fibre -c 1,1
[0.000s] Creating path with 2 phases.
  Phase 0:
    0 sess-local datalocs, 0.000000 update ratio, inf access count scalar /
    221184 sess-global datalocs, 1.000000 update ratio, inf access count scalar
  Phase 1:
    0 sess-local datalocs, 0.000000 update ratio, inf access count scalar /
    221184 sess-global datalocs, 1.000000 update ratio, inf access count scalar
[0.000s] Creating global buffer at 0x7f0c00000000 of size 28311552 bytes.
[5.588s] Test is ready to start.
Test duration in range [10.000, 10.007] seconds
Num Accesses: 229627498.000000
Throughput: 22962749.800000
Num Accesses - Session Mean & Stddev: 2296274.980000,107377.674524
Num Phases Traversed: 1138.000000
Num Phases Traversed - Session Mean & Stddev: 11.380000,0.485386
Num Path Iterations: 1138.000000
Num Path Iterations - Session Mean & Stddev: 11.380000,0.485386
+ set +x
++ printf 'taskset -c 1-2 timeout 100 /home/bcurto/mem-access-simulator/accesstest/accesstest -v -s 100 -d 10 --sess-distr u %s fibre %s\n' '0/221184,1 0/221184,1' '-c 1,1'
+ taskset -c 1-2 timeout 100 /home/bcurto/mem-access-simulator/accesstest/accesstest -v -s 100 -d 10 --sess-distr u 0/221184,1 0/221184,1 fibre -c 1,1
[0.000s] Creating path with 2 phases.
  Phase 0:
    0 sess-local datalocs, 0.000000 update ratio, inf access count scalar /
    221184 sess-global datalocs, 1.000000 update ratio, inf access count scalar
  Phase 1:
    0 sess-local datalocs, 0.000000 update ratio, inf access count scalar /
    221184 sess-global datalocs, 1.000000 update ratio, inf access count scalar
[0.000s] Creating global buffer at 0x7f8480000000 of size 28311552 bytes.
[5.556s] Test is ready to start.
Test duration in range [10.000, 10.009] seconds
Num Accesses: 229627498.000000
Throughput: 22962749.800000
Num Accesses - Session Mean & Stddev: 2296274.980000,107377.674524
Num Phases Traversed: 1138.000000
Num Phases Traversed - Session Mean & Stddev: 11.380000,0.485386
Num Path Iterations: 1138.000000
Num Path Iterations - Session Mean & Stddev: 11.380000,0.485386
+ set +x
